﻿accessories = {
	usage = game
	selection_behavior = weighted_random
	#fallback = no_headgear

    #no_acessories = {
    #    dna_modifiers = {
    #        accessory = {
    #            mode = add
    #            gene = 
    #            template = no_headgear
    #            range = { 0 1 } # For the randomness to work correctly
    #        }
    #    }   
    #    weight = {
    #        base = 0
    #    }
    #}

### HISTORICAL CHARACTER ACCESSORIES ###

    historical_reza_pahlavi_stage_one = {
        dna_modifiers = {
            accessory = {
               mode = add
               gene = medals
               template = generic_medals
               accessory = male_medals_generic_01_02
            }
        }

        weight = {
            base = 0
            modifier = {
                add = 90000
                scope:character ?= {
                    has_template = PER_reza_pahlavi
                    is_ruler = no
                }
            }
        }
    }

    historical_reza_pahlavi_stage_two = {
        dna_modifiers = {
            accessory = {
                mode = add
                gene = medals
                template = generic_medals
                accessory = male_medals_generic_01_03
            }
        }

        dna_modifiers = {
            accessory = {
                mode = add
                gene = sashes
                template = european_sashes_colours
                accessory = male_sash_european_01_lightblue
            }
        }

        weight = {
            base = 0
            modifier = {
                add = 90000
                scope:character ?= {
                    has_template = PER_reza_pahlavi
                    is_ruler = yes
                    owner ?= {
                        NOT = { has_law = law_type:law_monarchy }
                    }
                }
            }
        }
    }

    historical_reza_pahlavi_stage_three = {
        dna_modifiers = {
            accessory = {
               mode = add
               gene = medals
               template = generic_medals
               accessory = male_medals_generic_01_05 # no number of medals can adequately reflect the splendor of the Shahanshah
            }
        }

        dna_modifiers = {
            accessory = {
                mode = add
                gene = sashes
                template = european_sashes_colours
                accessory = male_sash_european_01_lightblue
            }
        }

        dna_modifiers = {
            accessory = {
                mode = add
                gene = necklaces
                template = necklace_reza_shah_pahlavi
                range = { 0 1 }
            }
        }

        weight = {
            base = 0
            modifier = {
                add = 90000
                scope:character ?= {
                    has_template = PER_reza_pahlavi
                    is_ruler = yes
                    owner ?= {
                        has_law = law_type:law_monarchy
                    }
                }
            }
        }
    }

### END OF HISTORICAL CHARACTER ACCESSORIES ###

    european_shopkeeper_clothes = {
        dna_modifiers = {
            accessory = {
                mode = add
                gene = misc
                template = all_misc
                range = { 0 1 } # For the randomness to work correctly
            }
        } 
        weight = {
            base = 0
            modifier = {
                add = 10000

                shopkeepers_clothes_pop_trigger = yes
                OR = {
                    AND = {
                        european_clothes_pop_trigger = yes

                        ## Midsummer clothes exception ##
                        NAND = {
                            OR = {
                                slavic_clothes_pop_trigger = yes
                                nordic_clothes_pop_trigger = yes
                            }
                            scope:pop ?= {
                                month = 5 # June. The trigger for months is on a 0-11 scale.
                            }
                        }
                        ## Midsummer clothes exception ##
                    }
                    african_diaspora_pop_clothes_trigger = yes
                    AND = {
                        native_american_clothes_pop_trigger = yes
                        AND = {
                            scope:pop ?= {
                                NOT = { culture = cu:inuit }
                            }
                        }
                    }
                }

                scope:pop ?= {
                    NAND = {
                        #religion = rel:catholic
						religion = rel:ravelian
                        month = 1 # Carnival is /usually/ in February
                    }
                }
            }
        }
    }

    sash_accessories = {
        dna_modifiers = {
             accessory = {
                 mode = add
                 gene = sashes
                 template = all_sashes
                 range = { 0 1 } # For the randomness to work correctly
            }
        }
        weight = {
            base = 0
            modifier = {
                add = 1000

    			european_clothes_trigger = yes
    			scope:character = {	#changed PAP to Ravelian A33
                    monarchy_clothes_trigger = yes
                    age > 12
    				OR = {
    					NOT = { exists = c:A33 }
    					AND = {
    						exists = c:A33
							exists = home_country
    						NOT = { home_country = c:A33 }
    					}
    				}
    			}
    		}
        }
    }

    prussian_accessories = {
        dna_modifiers = {
            accessory = {
                 mode = add
                 gene = medals
                 template = prussian_medals
                 range = { 0 1 } # For the randomness to work correctly
            }
            accessory = {
                 mode = add
                 gene = epaulettes
                 template = all_epaulettes
                 range = { 0 0.4 } # For the randomness to work correctly
            }
            accessory = {
                 mode = add
                 gene = belts
                 template = all_belts
                 range = { 0 1 } # For the randomness to work correctly
            }
            accessory = {
                 mode = add
                 gene = sashes
                 template = all_sashes
                 range = { 0 1 } # For the randomness to work correctly
            }
        }
        weight = {
            base = 0
            # modifier = {
            #    add = 10000
            #     agitator_character_trigger = no
            #     scope:character ?= {
            #         exists = home_country
            #         home_country = {
            #             OR = {
            #                 c:PRU ?= this
            #                 was_formed_from = PRU
            #             }
            #         }
            #         age > define:NCharacters|ADULT_AGE
            #         NOR = {
            #             has_template = agitator_jules_brunet
            #             has_template = rus_leon_trotsky_character_template
            #             has_template = agitator_nestor_makhno
            #             has_template = fra_georges_boulanger_character_template
            #             has_template = agitator_louise_michel
            #             has_template = agitator_susan_b_anthony
            #             has_template = agitator_emiliano_zapata
            #         }
            #     }
            #     OR = {
            #         military_clothes_trigger = yes
            #         monarchy_clothes_trigger = yes
            #     }   
            # }
        }
    }

    american_accessories = {
        dna_modifiers = {
            accessory = {
                 mode = add
                 gene = medals
                 template = generic_medals
                 range = { 0.9 1 } # For the randomness to work correctly
            }
            accessory = {
                 mode = add
                 gene = epaulettes
                 template = all_epaulettes
                 range = { 0.8 1 } # For the randomness to work correctly
            }
            accessory = {
                 mode = add
                 gene = belts
                 template = all_belts
                 range = { 0 1 } # For the randomness to work correctly
            }
            accessory = {
                 mode = add
                 gene = sashes
                 template = all_sashes
                 range = { 0 0.4 } # For the randomness to work correctly
            }
        }
        weight = {
            base = 0
            modifier = {
                add = 10000
                agitator_character_trigger = no
                OR = {
                    american_clothes_trigger = yes
                    #AND = {
                    #    exists = scope:character
                    #    scope:character = {
					#		exists = home_country
                    #        home_country = {
                    #            exists = c:CSA
                    #            c:CSA = this
                    #            is_subject = no
                    #        }
                    #    }
                    #}
                }
                OR = {
                    military_clothes_trigger = yes
                    monarchy_clothes_trigger = yes
                }
                scope:character ?= {
                    age > define:NCharacters|ADULT_AGE
                    #NOR = {
                    #    has_template = agitator_jules_brunet
                    #    has_template = rus_leon_trotsky_character_template
                    #    has_template = agitator_nestor_makhno
                    #    has_template = fra_georges_boulanger_character_template
                    #    has_template = agitator_louise_michel
                    #    has_template = agitator_susan_b_anthony
                    #    has_template = agitator_emiliano_zapata
                    #}
                }
            }
        }
    }

    male_epaulettes_03_only = {
        dna_modifiers = {
            accessory = {
                mode = add
                gene = epaulettes
                template = all_epaulettes
                accessory = male_epaulettes_03
            }
        }
        weight = {
            base = 0
            modifier = {
                add = 90000

                has_dlc_feature = ep1_cosmetics

                scope:character ?= {
                    has_template = per_nasir_al_din_qajar_template
                    age > define:NCharacters|ADULT_AGE
                }
            }
        }
    }

    male_epaulettes_04_only = {
        dna_modifiers = {
            accessory = {
                mode = add
                gene = epaulettes
                template = all_epaulettes
                accessory = male_epaulettes_04
            }
        }
        weight = {
            base = 0
            modifier = {
                add = 90000
                scope:character ?= {
                    has_template = fra_napoleon_iii_character_template
                    monarchy_clothes_trigger = yes
                }
            }
            modifier = {
                add = 10000

                c:PER ?= {
                    NOT = { has_technology_researched = bolt_action_rifles }
                }

                scope:character ?= {
                    OR = {
                        AND = {
                            exists = c:PER
                            home_country ?= c:PER
                        } 
                    }
                    is_ruler = no
                    OR = {
                        has_role = general
                        AND = {
                            has_role = politician
                            is_interest_group_type = ig_armed_forces
                        }
                    }
                }
            }
            modifier = {
                add = 10000

                scope:character ?= {
                    exists = owner
                    exists = c:TUR
                    owner ?= {
                        c:TUR = this
                    }
                    monarchy_clothes_trigger = yes
                    is_female = no
                }
            }
            modifier = {
                add = 90000
                scope:character ?= {
                    has_template = usa_emperor_norton_character_template
                    NOR = {
                        has_role = general
                        has_role = admiral
                    }
                }
            }
        }
    }

    commander_accessories = {
        dna_modifiers = {
             accessory = {
                 mode = add
                 gene = medals
                 template = generic_medals
                 range = { 0 1 } # For the randomness to work correctly
            }
            accessory = {
                mode = add
                gene = epaulettes
                template = all_epaulettes
                range = { 0 1 } # For the randomness to work correctly
            }
            accessory = {
                mode = add
                gene = belts
                template = all_belts
                range = { 0 0.66 } # For the randomness to work correctly
            }
            accessory = {
                mode = add
                gene = sashes
                template = all_sashes
                range = { 0 1 } # For the randomness to work correctly
            }
            accessory = {
                mode = add
                gene = aiguillettes
                template = all_aiguillettes
                range = { 0 1 } # For the randomness to work correctly
            }
        }
        weight = {
            base = 0
            modifier = {
                add = 10000
                agitator_character_trigger = no
                european_clothes_trigger = yes
                republic_clothes_trigger = no
                scope:character = {
                    age > 12
                    # NOR = {
                    #     has_template = agitator_jules_brunet
                    #     has_template = rus_leon_trotsky_character_template
                    #     has_template = agitator_nestor_makhno
                    #     has_template = fra_georges_boulanger_character_template
                    #     has_template = agitator_louise_michel
                    #     has_template = agitator_susan_b_anthony
                    #     has_template = agitator_emiliano_zapata
                    # }
                }
                OR = {
                    military_clothes_trigger = yes
                    AND = {
                        ruler_clothes_trigger = yes
                        NOT = {
                            scope:character = {	#changed PAP to Ravelian Rectorate A33
    							exists = c:A33
								exists = home_country
                                home_country = c:A33
                            }
                        }
                    }
                    AND = {
                        armed_forces_clothes_trigger = yes
                        politician_clothes_trigger = yes
                    }
                }
                NAND = { # redundant, but i am an ardent supporter of redundancy and redundant design.
                    ruler_clothes_trigger = yes
                    republic_clothes_trigger = yes
                }
            } 
        }
    }

    american_commander_accessories = {
        dna_modifiers = {
             accessory = {
                 mode = add
                 gene = medals
                 template = generic_medals
                 range = { 0 1 } # For the randomness to work correctly
            }
            accessory = {
                mode = add
                gene = epaulettes
                template = all_epaulettes
                range = { 0.8 1 }
            }
            accessory = {
                mode = add
                gene = belts
                template = all_belts
                range = { 0 0.66 } # For the randomness to work correctly
            }
            # no aiguillettes
        }
        weight = {
            base = 0
            #modifier = { # I am forcing American generals to wear commander accessories
            #    add = 90000
			#
            #    c:USA ?= {
            #        NOT = { has_technology_researched = bolt_action_rifles }
            #    }
			#
            #    scope:character ?= {
            #        owner ?= c:USA
            #        has_role = general
            #        is_ruler = no
            #    }
            #}
        }
    }

    egyptian_commander_accessories = {
        dna_modifiers = {
            accessory = {
                mode = add
                gene = epaulettes
                template = all_epaulettes
                accessory = male_epaulettes_02
            }
            accessory = {
                mode = add
                gene = belts
                template = generic_belts
                accessory = male_belt_generic_01
            }
            accessory = {
                mode = add
                gene = sashes
                template = all_sashes
                range = { 0 1 } # For the randomness to work correctly
            }
        }
        weight = {
            base = 0
            modifier = {
                add = 10000

                exists = c:EGY
                scope:character ?= {
                    is_female = no
                    owner ?= {
                        c:EGY = this
                    }
                    OR = {
                        has_role = general
                        AND = {
                            armed_forces_clothes_trigger = yes
                            politician_clothes_trigger = yes
                        }
                    }
                }
            } 
        }
    }

	african_expedition_necklace = {
		dna_modifiers = {
			accessory = {
				mode = add
				gene = necklaces
				template = african_necklaces
				range = { 0 1 } # For the randomness to work correctly
			}
		}
		weight = {
			base = 0
			modifier = {
				add = 100000
                AND = {
                    exists = scope:character
                    scope:character = {
                      has_variable = expedition_trading_gifts
                    }  
                }     
			}
		}
	}

    qing_emperor_necklace = {
        dna_modifiers = {
            accessory = {
               mode = add
               gene = necklaces
               template = chinese_necklaces
               accessory = male_necklace_chinese_01_high
            }
        }

        weight = {
            base = 0
            # modifier = {
            #     add = 1000
            #     scope:character ?= {
            #         is_ruler = yes
            #         owner ?= {
            #             c:CHI ?= this
            #             has_law = law_type:law_monarchy
            #         }
            #     }
            # }
        }
    }

    european_ruler_top_layers = {
        dna_modifiers = {
            accessory = {
                mode = add
                gene = belts
                template = generic_belts
                range = { 0 0.49 } # For the randomness to work correctly
            }
            accessory = {
                mode = add
                gene = epaulettes
                template = all_epaulettes
                range = { 0 1 }
            }
            accessory = {
                mode = add
                gene = aiguillettes
                template = all_aiguillettes
                range = { 0 1 } # For the randomness to work correctly
            }
            accessory = {
                mode = add
                gene = top_layer
                template = european_top_layer
                range = { 0 1 } # For the randomness to work correctly
            }
        }
        weight = {
            base = 0
            modifier = {
                add = 1000
                american_clothes_trigger = no
                british_empire_clothes_trigger = no
                french_empire_clothes_trigger = no
                russian_empire_clothes_trigger = no
                monarchy_clothes_trigger = yes
                OR = {
                    european_clothes_trigger = yes
                    #scope:character ?= {   #TODO: replace with equiv
                    #    OR = {
                    #        culture = cu:malagasy
                    #        culture = cu:cherokee
                    #        culture = cu:muskogean
                    #    }
                    #}
                    african_diaspora_clothes_trigger = yes
                }
                scope:character ?= {
                    age >= define:NCharacters|ADULT_AGE
                }
            }
        }
    }

    ### SPHERE OF INFLUENCE POWER BLOC ACCESSORIES ###
    ### P-P-P-Powerbloc! ###

    power_bloc_leader_sovereign_cape = {
        dna_modifiers = {
            accessory = {
               mode = add
               gene = top_layer
               template = cape_power_bloc
               range = { 0 0.2 } # sovereign
            }
            accessory = {
                mode = add
                gene = epaulettes
                template = no_epaulette # DID I STUTTER
                range = { 0 1 }
            }
            accessory = {
               mode = add
               gene = necklaces
               template = necklace_cape_power_bloc
               range = { 0 0.2 } # sovereign
            }
        }

        weight = {
            base = 0
            modifier = {
                add = 90000

                has_dlc_feature = ep1_cosmetics

                scope:character ?= {
                    is_ruler = yes
                    is_historical = no

                    age >= define:NCharacters|ADULT_AGE

                    owner ?= {
                        is_in_power_bloc = yes
                        has_law = law_type:law_monarchy
                        is_power_bloc_leader = yes
                        power_bloc ?= {
                            has_identity = identity:identity_sovereign_empire
                        }
                    }
                }
                NAND = { # Capes do not work with republican ruler clothing
                    OR = {
                        european_clothes_trigger = yes
                        african_diaspora_clothes_trigger = yes
                    }
                    ruler_clothes_trigger = yes
                    republic_clothes_trigger = yes
                }
            }
        }
    }

    power_bloc_leader_ideological_cape = {
        dna_modifiers = {
            accessory = {
               mode = add
               gene = top_layer
               template = cape_power_bloc
               range = { 0.2 0.4 } # political union
            }
        }

        weight = {
            base = 0
            modifier = {
                add = 90000

                has_dlc_feature = ep1_cosmetics

                scope:character ?= {
                    is_ruler = yes

                    age >= define:NCharacters|ADULT_AGE

                    owner ?= {
                        is_in_power_bloc = yes
                        has_law = law_type:law_monarchy
                        is_power_bloc_leader = yes
                        power_bloc ?= {
                            has_identity = identity:identity_ideological_union
                        }
                    }
                }
                NAND = { # Capes do not work with republican ruler clothing
                    OR = {
                        european_clothes_trigger = yes
                        african_diaspora_clothes_trigger = yes
                    }
                    ruler_clothes_trigger = yes
                    republic_clothes_trigger = yes
                }
            }
        }
    }

    power_bloc_leader_trade_cape = {
        dna_modifiers = {
            accessory = {
               mode = add
               gene = top_layer
               template = cape_power_bloc
               range = { 0.6 0.8 } # trade league
            }
        }

        weight = {
            base = 0
            modifier = {
                add = 90000

                has_dlc_feature = ep1_cosmetics

                scope:character ?= {
                    is_ruler = yes

                    age >= define:NCharacters|ADULT_AGE

                    owner ?= {
                        is_in_power_bloc = yes
                        has_law = law_type:law_monarchy
                        is_power_bloc_leader = yes
                        power_bloc ?= {
                            has_identity = identity:identity_trade_league
                        }
                    }
                }
                NAND = { # Capes do not work with republican ruler clothing
                    OR = {
                        european_clothes_trigger = yes
                        african_diaspora_clothes_trigger = yes
                    }
                    ruler_clothes_trigger = yes
                    republic_clothes_trigger = yes
                }
            }
        }
    }

    power_bloc_leader_religious_cape = {
        dna_modifiers = {
            accessory = {
               mode = add
               gene = top_layer
               template = religios_cape_power_bloc
               range = { 0 1.0 } 
            }
        }

        weight = {
            base = 0
            modifier = {
                add = 90000

                has_dlc_feature = ep1_cosmetics

                scope:character ?= {
                    is_ruler = yes

                    age >= define:NCharacters|ADULT_AGE

                    owner ?= {
                        is_in_power_bloc = yes
                        is_power_bloc_leader = yes
                        power_bloc ?= {
                            has_identity = identity:identity_religious
                        }
                    }
                }
                NAND = { # Capes do not work with republican ruler clothing
                    OR = {
                        european_clothes_trigger = yes
                        african_diaspora_clothes_trigger = yes
                    }
                    ruler_clothes_trigger = yes
                    republic_clothes_trigger = yes
                }
            }
        }
    }

    power_bloc_single_sash_sovereign_empire = {
        dna_modifiers = {
            accessory = {
               mode = add
               gene = sashes
               template = single_pb_sashes
               range = { 0 0.2 }
            }
            accessory = {
                mode = add
                gene = epaulettes
                template = all_epaulettes
                accessory = male_epaulettes_04
            }
            accessory = {
               mode = add
               gene = necklaces
               template = necklace_power_bloc
               range = { 0 0.2 }
            }
        }

        weight = {
            base = 0
            modifier = {
                add = 90000

                has_dlc_feature = ep1_cosmetics

                OR = {
                    european_clothes_trigger = yes
                    AND = {
                        exists = scope:character
                        scope:character = {
                            OR = {
                                culture = cu:cherokee
                                culture = cu:muskogean
                            }
                        }
                    }
                    african_diaspora_clothes_trigger = yes
                }

                scope:character ?= {
                    is_ruler = yes

                    age >= define:NCharacters|ADULT_AGE

                    owner ?= {
                        is_in_power_bloc = yes
                        is_power_bloc_leader = no
                        power_bloc ?= {
                            has_identity = identity:identity_sovereign_empire
                        }
                        country_rank > rank_value:minor_power
                    }
                }

                monarchy_clothes_trigger = yes
                OR = {
                    european_clothes_trigger = yes
                    # scope:character ?= {
                    #     OR = {
                    #         culture = cu:malagasy
                    #         culture = cu:cherokee
                    #         culture = cu:muskogean
                    #     }
                    # }
                    african_diaspora_clothes_trigger = yes
                }
            }
            modifier = {
                add = 90000

                has_dlc_feature = ep1_cosmetics

                OR = {
                    european_clothes_trigger = yes
                    AND = {
                        exists = scope:character
                        scope:character = {
                            OR = {
                                culture = cu:cherokee
                                culture = cu:muskogean
                            }
                        }
                    }
                    african_diaspora_clothes_trigger = yes
                }

                scope:character ?= {
                    is_ruler = yes
                    is_historical = yes

                    age >= define:NCharacters|ADULT_AGE

                    owner ?= {
                        is_in_power_bloc = yes
                        has_law = law_type:law_monarchy
                        is_power_bloc_leader = yes
                        power_bloc ?= {
                            has_identity = identity:identity_sovereign_empire
                        }
                        country_rank > rank_value:minor_power
                    }
                }
                NAND = { # Capes do not work with republican ruler clothing
                    OR = {
                        european_clothes_trigger = yes
                        african_diaspora_clothes_trigger = yes
                    }
                    ruler_clothes_trigger = yes
                    republic_clothes_trigger = yes
                }
            }
        }
    }

    power_bloc_double_sash_sovereign_empire = {
        dna_modifiers = {
            accessory = {
               mode = add
               gene = sashes
               template = double_pb_sashes_and_sash_belts_sovereign
               range = { 0 1 }
            }
            accessory = {
                mode = add
                gene = epaulettes
                template = all_epaulettes
                range = { 0 1 }
            }
            accessory = {
                mode = add
                gene = belts
                template = generic_belts
                accessory = male_belt_generic_01
            }
        }

        weight = {
            base = 0
            modifier = {
                add = 90000

                has_dlc_feature = ep1_cosmetics

                scope:character ?= {
                    is_ruler = yes

                    age >= define:NCharacters|ADULT_AGE

                    owner ?= {
                        is_in_power_bloc = yes
                        OR = {
                            is_power_bloc_leader = no
                            is_subject = yes
                        }
                        power_bloc ?= {
                            has_identity = identity:identity_sovereign_empire
                        }
                        country_rank <= rank_value:minor_power
                    }
                }

                monarchy_clothes_trigger = yes
                OR = {
                    european_clothes_trigger = yes
                    # scope:character ?= {
                    #     OR = {
                    #         culture = cu:malagasy
                    #         culture = cu:cherokee
                    #         culture = cu:muskogean
                    #     }
                    # }
                    african_diaspora_clothes_trigger = yes
                }
            }
        }
    }

    power_bloc_single_sash_political_union = {
        dna_modifiers = {
            accessory = {
               mode = add
               gene = sashes
               template = single_pb_sashes
               range = { 0.2 0.4 }
            }
            accessory = {
               mode = add
               gene = necklaces
               template = necklace_power_bloc
               range = { 0.2 0.4 }
            }
        }

        weight = {
            base = 0
            modifier = {
                add = 90000

                has_dlc_feature = ep1_cosmetics

                scope:character ?= {
                    is_ruler = yes

                    age >= define:NCharacters|ADULT_AGE

                    owner ?= {
                        is_in_power_bloc = yes
                        is_power_bloc_leader = no
                        power_bloc ?= {
                            has_identity = identity:identity_ideological_union
                        }
                        country_rank > rank_value:minor_power
                    }
                }
                monarchy_clothes_trigger = yes
                OR = {
                    european_clothes_trigger = yes
                    # scope:character ?= {
                    #     OR = {
                    #         culture = cu:malagasy
                    #         culture = cu:cherokee
                    #         culture = cu:muskogean
                    #     }
                    # }
                    african_diaspora_clothes_trigger = yes
                }
            }
        }
    }

    power_bloc_double_sash_political_union = {
        dna_modifiers = {
            accessory = {
               mode = add
               gene = sashes
               template = double_pb_sashes_and_sash_belts_ideological
               range = { 0 1 }
            }
            accessory = {
                mode = add
                gene = epaulettes
                template = all_epaulettes
                range = { 0 1 }
            }
            accessory = {
                mode = add
                gene = belts
                template = generic_belts
                accessory = male_belt_generic_01
            }
        }

        weight = {
            base = 0
            modifier = {
                add = 90000

                has_dlc_feature = ep1_cosmetics

                scope:character ?= {
                    is_ruler = yes

                    age >= define:NCharacters|ADULT_AGE

                    owner ?= {
                        is_in_power_bloc = yes
                        is_power_bloc_leader = no
                        is_subject = yes
                        power_bloc ?= {
                            has_identity = identity:identity_ideological_union
                        }
                        country_rank <= rank_value:minor_power
                    }
                }

                monarchy_clothes_trigger = yes
                OR = {
                    european_clothes_trigger = yes
                    # scope:character ?= {
                    #     OR = {
                    #         culture = cu:malagasy
                    #         culture = cu:cherokee
                    #         culture = cu:muskogean
                    #     }
                    # }
                    african_diaspora_clothes_trigger = yes
                }
            }
        }
    }

    power_bloc_single_sash_military_treaty_organization = {
        dna_modifiers = {
            accessory = {
               mode = add
               gene = sashes
               template = single_pb_sashes
               range = { 0.4 0.6 }
            }
            accessory = {
               mode = add
               gene = necklaces
               template = necklace_power_bloc
               range = { 0.4 0.6 }
            }
        }

        weight = {
            base = 0
            modifier = {
                add = 90000

                has_dlc_feature = ep1_cosmetics

                scope:character ?= {
                    is_ruler = yes

                    age >= define:NCharacters|ADULT_AGE

                    owner ?= {
                        is_in_power_bloc = yes
                        is_power_bloc_leader = no
                        power_bloc ?= {
                            has_identity = identity:identity_military_treaty_organization
                        }
                        country_rank > rank_value:minor_power
                    }
                }
                monarchy_clothes_trigger = yes
                OR = {
                    european_clothes_trigger = yes
                    # scope:character ?= {
                    #     OR = {
                    #         culture = cu:malagasy
                    #         culture = cu:cherokee
                    #         culture = cu:muskogean
                    #     }
                    # }
                    african_diaspora_clothes_trigger = yes
                }
            }
        }
    }

    power_bloc_double_sash_military_treaty_organization = {
        dna_modifiers = {
            accessory = {
               mode = add
               gene = sashes
               template = double_pb_sashes_and_sash_belts_military
               range = { 0 1 }
            }
            accessory = {
                mode = add
                gene = epaulettes
                template = all_epaulettes
                range = { 0 1 }
            }
            accessory = {
                mode = add
                gene = belts
                template = generic_belts
                accessory = male_belt_generic_01
            }
        }

        weight = {
            base = 0
            modifier = {
                add = 90000

                has_dlc_feature = ep1_cosmetics

                scope:character ?= {
                    is_ruler = yes

                    age >= define:NCharacters|ADULT_AGE

                    owner ?= {
                        is_in_power_bloc = yes
                        is_power_bloc_leader = no
                        is_subject = yes
                        power_bloc ?= {
                            has_identity = identity:identity_military_treaty_organization
                        }
                        country_rank <= rank_value:minor_power
                    }
                }

                monarchy_clothes_trigger = yes
                OR = {
                    european_clothes_trigger = yes
                    # scope:character ?= {
                    #     OR = {
                    #         culture = cu:malagasy
                    #         culture = cu:cherokee
                    #         culture = cu:muskogean
                    #     }
                    # }
                    african_diaspora_clothes_trigger = yes
                }
            }
        }
    }

    power_bloc_single_sash_trade_union = {
        dna_modifiers = {
            accessory = {
               mode = add
               gene = sashes
               template = single_pb_sashes
               range = { 0.6 0.8 }
            }
            accessory = {
               mode = add
               gene = necklaces
               template = necklace_power_bloc
               range = { 0.6 0.8 }
            }
        }

        weight = {
            base = 0
            modifier = {
                add = 90000

                has_dlc_feature = ep1_cosmetics

                scope:character ?= {
                    is_ruler = yes

                    age >= define:NCharacters|ADULT_AGE

                    owner ?= {
                        is_in_power_bloc = yes
                        is_power_bloc_leader = no
                        power_bloc ?= {
                            has_identity = identity:identity_trade_league
                        }
                        country_rank > rank_value:minor_power
                    }
                }
                monarchy_clothes_trigger = yes
                OR = {
                    european_clothes_trigger = yes
                    # scope:character ?= {
                    #     OR = {
                    #         culture = cu:malagasy
                    #         culture = cu:cherokee
                    #         culture = cu:muskogean
                    #     }
                    # }
                    african_diaspora_clothes_trigger = yes
                }
            }
        }
    }

    power_bloc_double_sash_trade_league = {
        dna_modifiers = {
            accessory = {
               mode = add
               gene = sashes
               template = double_pb_sashes_and_sash_belts_trade
               range = { 0 1 }
            }
            accessory = {
                mode = add
                gene = epaulettes
                template = all_epaulettes
                range = { 0 1 }
            }
            accessory = {
                mode = add
                gene = belts
                template = generic_belts
                accessory = male_belt_generic_01
            }
        }

        weight = {
            base = 0
            modifier = {
                add = 90000

                has_dlc_feature = ep1_cosmetics

                scope:character ?= {
                    is_ruler = yes

                    age >= define:NCharacters|ADULT_AGE

                    owner ?= {
                        is_in_power_bloc = yes
                        is_power_bloc_leader = no
                        power_bloc ?= {
                            has_identity = identity:identity_trade_league
                        }
                        country_rank <= rank_value:minor_power
                    }
                }

                monarchy_clothes_trigger = yes
                OR = {
                    european_clothes_trigger = yes
                    # scope:character ?= {
                    #     OR = {
                    #         culture = cu:malagasy
                    #         culture = cu:cherokee
                    #         culture = cu:muskogean
                    #     }
                    # }
                    african_diaspora_clothes_trigger = yes
                }
            }
        }
    }

    power_bloc_single_sash_religious = {
        dna_modifiers = {
            accessory = {
               mode = add
               gene = sashes
               template = single_pb_sashes
               range = { 0.8 1.0 }
            }
            accessory = {
               mode = add
               gene = necklaces
               template = necklace_power_bloc
               range = { 0.8 1.0 }
            }
        }

        weight = {
            base = 0
            modifier = {
                add = 90000

                has_dlc_feature = ep1_cosmetics

                scope:character ?= {
                    is_ruler = yes

                    age >= define:NCharacters|ADULT_AGE

                    owner ?= {
                        is_in_power_bloc = yes
                        power_bloc ?= {
                            has_identity = identity:identity_religious
                        }
                        country_rank > rank_value:minor_power
                    }
                }
                monarchy_clothes_trigger = yes
                OR = {
                    european_clothes_trigger = yes
                    # scope:character ?= {
                    #     OR = {
                    #         culture = cu:malagasy
                    #         culture = cu:cherokee
                    #         culture = cu:muskogean
                    #     }
                    # }
                    african_diaspora_clothes_trigger = yes
                }
            }
        }
    }

    power_bloc_double_sash_religious = {
        dna_modifiers = {
            accessory = {
               mode = add
               gene = sashes
               template = double_pb_sashes_and_sash_belts_religious
               range = { 0 1.0 }
            }
            accessory = {
                mode = add
                gene = epaulettes
                template = all_epaulettes
                range = { 0 1 }
            }
            accessory = {
                mode = add
                gene = belts
                template = generic_belts
                accessory = male_belt_generic_01
            }
        }

        weight = {
            base = 0
            modifier = {
                add = 90000

                has_dlc_feature = ep1_cosmetics

                scope:character ?= {
                    is_ruler = yes

                    age >= define:NCharacters|ADULT_AGE

                    owner ?= {
                        is_in_power_bloc = yes
                        is_power_bloc_leader = no
                        power_bloc ?= {
                            has_identity = identity:identity_religious
                        }
                        country_rank <= rank_value:minor_power
                    }
                }

                monarchy_clothes_trigger = yes
                OR = {
                    european_clothes_trigger = yes
                    # scope:character ?= {
                    #     OR = {
                    #         culture = cu:malagasy
                    #         culture = cu:cherokee
                    #         culture = cu:muskogean
                    #     }
                    # }
                    african_diaspora_clothes_trigger = yes
                }
            }
        }
    }

    power_bloc_necklace_sovereign_empire = {
        dna_modifiers = {
            accessory = {
               mode = add
               gene = necklaces
               template = necklace_power_bloc
               range = { 0 0.2 }
            }
        }

        weight = {
            base = 0
            modifier = {
                add = 90000

                has_dlc_feature = ep1_cosmetics

                scope:character ?= {
                    is_ruler = yes

                    age >= define:NCharacters|ADULT_AGE

                    owner ?= {
                        is_in_power_bloc = yes
                        is_power_bloc_leader = no
                        power_bloc ?= {
                            has_identity = identity:identity_sovereign_empire
                        }
                    }
                }
                OR = {
                    arabic_clothes_trigger = yes
                    chinese_imperial_clothes_trigger = yes
                    indian_clothes_trigger = yes
                    japanese_clothes_trigger = yes
                    native_american_clothes_trigger = yes
                    siamese_clothes_trigger = yes
                    AND = {
                        african_clothes_trigger = yes
                        # scope:character ?= {
                        #     NOT = { culture = { has_discrimination_trait = ethiopian } }
                        # }
                    }
                    # scope:character ?= {
                    #     is_interest_group_type = ig_landowners
                    #     owner ?={
                    #         NOT = { has_law = law_type:law_monarchy }
                    #     }
                    #     culture = {
                    #         has_discrimination_trait = iranian_turanian_culture_group
                    #         has_discrimination_trait = middle_eastern_heritage
                    #     }
                    # }
                    # scope:character ?= {
                    #     culture = {
                    #         has_discrimination_trait = iranian_turanian_culture_group
                    #         has_discrimination_trait = central_asian_heritage
                    #     }
                    # }
                }
            }
        }
    }

    power_bloc_necklace_political_union = {
        dna_modifiers = {
            accessory = {
               mode = add
               gene = necklaces
               template = necklace_power_bloc
               range = { 0.2 0.4 }
            }
        }

        weight = {
            base = 0
            modifier = {
                add = 90000

                has_dlc_feature = ep1_cosmetics

                scope:character ?= {
                    is_ruler = yes

                    age >= define:NCharacters|ADULT_AGE

                    owner ?= {
                        is_in_power_bloc = yes
                        is_power_bloc_leader = no
                        power_bloc ?= {
                            has_identity = identity:identity_sovereign_empire
                        }
                    }
                }
                OR = {
                    arabic_clothes_trigger = yes
                    chinese_imperial_clothes_trigger = yes
                    indian_clothes_trigger = yes
                    japanese_clothes_trigger = yes
                    native_american_clothes_trigger = yes
                    siamese_clothes_trigger = yes
                    AND = {
                        african_clothes_trigger = yes
                        # scope:character ?= {
                        #     NOT = { culture = { has_discrimination_trait = ethiopian } }
                        # }
                    }
                    # scope:character ?= {
                    #     is_interest_group_type = ig_landowners
                    #     owner ?={
                    #         NOT = { has_law = law_type:law_monarchy }
                    #     }
                    #     culture = {
                    #         has_discrimination_trait = iranian_turanian_culture_group
                    #         has_discrimination_trait = middle_eastern_heritage
                    #     }
                    # }
                    # scope:character ?= {
                    #     culture = {
                    #         has_discrimination_trait = iranian_turanian_culture_group
                    #         has_discrimination_trait = central_asian_heritage
                    #     }
                    # }
                }
            }
        }
    }

    power_bloc_necklace_military_treaty_organization = {
        dna_modifiers = {
            accessory = {
               mode = add
               gene = necklaces
               template = necklace_power_bloc
               range = { 0.4 0.6 }
            }
        }

        weight = {
            base = 0
            modifier = {
                add = 90000

                has_dlc_feature = ep1_cosmetics

                scope:character ?= {
                    is_ruler = yes

                    age >= define:NCharacters|ADULT_AGE

                    owner ?= {
                        is_in_power_bloc = yes
                        is_power_bloc_leader = no
                        power_bloc ?= {
                            has_identity = identity:identity_sovereign_empire
                        }
                    }
                }
                OR = {
                    arabic_clothes_trigger = yes
                    chinese_imperial_clothes_trigger = yes
                    indian_clothes_trigger = yes
                    japanese_clothes_trigger = yes
                    native_american_clothes_trigger = yes
                    siamese_clothes_trigger = yes
                    AND = {
                        african_clothes_trigger = yes
                        # scope:character ?= {
                        #     NOT = { culture = { has_discrimination_trait = ethiopian } }
                        # }
                    }
                    # scope:character ?= {
                    #     is_interest_group_type = ig_landowners
                    #     owner ?={
                    #         NOT = { has_law = law_type:law_monarchy }
                    #     }
                    #     culture = {
                    #         has_discrimination_trait = iranian_turanian_culture_group
                    #         has_discrimination_trait = middle_eastern_heritage
                    #     }
                    # }
                    # scope:character ?= {
                    #     culture = {
                    #         has_discrimination_trait = iranian_turanian_culture_group
                    #         has_discrimination_trait = central_asian_heritage
                    #     }
                    # }
                }
            }
        }
    }

    power_bloc_necklace_trade_union = {
        dna_modifiers = {
            accessory = {
               mode = add
               gene = necklaces
               template = necklace_power_bloc
               range = { 0.6 0.8 }
            }
        }

        weight = {
            base = 0
            modifier = {
                add = 90000

                has_dlc_feature = ep1_cosmetics

                scope:character ?= {
                    is_ruler = yes

                    age >= define:NCharacters|ADULT_AGE

                    owner ?= {
                        is_in_power_bloc = yes
                        is_power_bloc_leader = no
                        power_bloc ?= {
                            has_identity = identity:identity_sovereign_empire
                        }
                    }
                }
                OR = {
                    arabic_clothes_trigger = yes
                    chinese_imperial_clothes_trigger = yes
                    indian_clothes_trigger = yes
                    japanese_clothes_trigger = yes
                    native_american_clothes_trigger = yes
                    siamese_clothes_trigger = yes
                    AND = {
                        african_clothes_trigger = yes
                        # scope:character ?= {
                        #     NOT = { culture = { has_discrimination_trait = ethiopian } }
                        # }
                    }
                    # scope:character ?= {
                    #     is_interest_group_type = ig_landowners
                    #     owner ?={
                    #         NOT = { has_law = law_type:law_monarchy }
                    #     }
                    #     culture = {
                    #         has_discrimination_trait = iranian_turanian_culture_group
                    #         has_discrimination_trait = middle_eastern_heritage
                    #     }
                    # }
                    # scope:character ?= {
                    #     culture = {
                    #         has_discrimination_trait = iranian_turanian_culture_group
                    #         has_discrimination_trait = central_asian_heritage
                    #     }
                    # }
                }
            }
        }
    }

    power_bloc_necklace_religious = {
        dna_modifiers = {
            accessory = {
               mode = add
               gene = necklaces
               template = necklace_power_bloc
               range = { 0.8 1.0 }
            }
        }

        weight = {
            base = 0
            modifier = {
                add = 90000

                has_dlc_feature = ep1_cosmetics

                scope:character ?= {
                    is_ruler = yes

                    age >= define:NCharacters|ADULT_AGE

                    owner ?= {
                        is_in_power_bloc = yes
                        is_power_bloc_leader = no
                        power_bloc ?= {
                            has_identity = identity:identity_sovereign_empire
                        }
                    }
                }
                OR = {
                    arabic_clothes_trigger = yes
                    chinese_imperial_clothes_trigger = yes
                    indian_clothes_trigger = yes
                    japanese_clothes_trigger = yes
                    native_american_clothes_trigger = yes
                    siamese_clothes_trigger = yes
                    AND = {
                        african_clothes_trigger = yes
                        # scope:character ?= {
                        #     NOT = { culture = { has_discrimination_trait = ethiopian } }
                        # }
                    }
                    # scope:character ?= {
                    #     is_interest_group_type = ig_landowners
                    #     owner ?={
                    #         NOT = { has_law = law_type:law_monarchy }
                    #     }
                    #     culture = {
                    #         has_discrimination_trait = iranian_turanian_culture_group
                    #         has_discrimination_trait = middle_eastern_heritage
                    #     }
                    # }
                    # scope:character ?= {
                    #     culture = {
                    #         has_discrimination_trait = iranian_turanian_culture_group
                    #         has_discrimination_trait = central_asian_heritage
                    #     }
                    # }
                }
            }
        }
    }

    power_bloc_research_female_glasses = {
        dna_modifiers = {
            accessory = {
               mode = add
               gene = props
               template = female_glasses
               range = { 0 1.0 } 
            }
        }

        weight = {
            base = 0
            modifier = {
                add = 90000

                scope:character ?= {
                    is_female = yes

                    age >= define:NCharacters|ADULT_AGE

                    OR = {
                        AND = {
                            is_historical = no
                            has_trait = erudite
                        }
                        AND = {
                            is_historical = no
                            has_trait = literary
                        }
                        AND = {
                            is_historical = no
                            has_trait = master_bureaucrat
                        }
                        AND = {
                            is_historical = no
                            has_trait = engineer
                        }
                        AND = {
                            has_dlc_feature = ep1_cosmetics
                            OR = {
                                has_trait = erudite
                                has_trait = literary
                                has_trait = master_bureaucrat
                                has_trait = engineer
                            }
                            is_ruler = yes
                            owner ?= {
                                is_in_power_bloc = yes
                                power_bloc ?= {
                                    OR = {
                                        has_principle = principle:principle_advanced_research_1
                                        has_principle = principle:principle_advanced_research_2
                                        has_principle = principle:principle_advanced_research_3
                                    }
                                }
                            }
                        }
                    }
                }
            }
        }
    }

    military_power_bloc_cuirass = {
        dna_modifiers = {
            accessory = {
               mode = add
               gene = top_layer
               template = cuirass_top_layer
               range = { 0 1 }
            }
        }
        dna_modifiers = {
            accessory = {
               mode = add
               gene = sashes
               template = cuirass_sashes
               range = { 0 1 }
            }
        }
        dna_modifiers = {
            accessory = {
               mode = add
               gene = belts
               template = cuirass_belt
               range = { 0 1 }
            }
        }

        weight = {
            base = 0
            modifier = {
                add = 90000

                has_dlc_feature = ep1_cosmetics

                scope:character ?= {
                    is_ruler = yes
                    OR = {
                        european_clothes_trigger = yes
                        AND = {
                            exists = scope:character
                            # scope:character = {
                            #     OR = {
                            #         culture = cu:cherokee
                            #         culture = cu:muskogean
                            #     }
                            # }
                        }
                        african_diaspora_clothes_trigger = yes
                    }
                    OR = {
                        armed_forces_clothes_trigger = yes
                        military_clothes_trigger = yes
                        monarchy_clothes_trigger = yes
                        army_traits_trigger = yes
                    }
                    age >= define:NCharacters|ADULT_AGE

                    owner ?= {
                        is_in_power_bloc = yes
                        power_bloc ?= {
                            has_identity = identity:identity_military_treaty_organization
                        }
                    }

                    NOR = {
                        ### the Cuirass does not work with agitator_blanqui coat ###
                        has_template = fra_blanqui_character_template
                        has_template = agitator_alexandru_bogdan_pitesti
                        has_template = agitator_francesc_pi_i_margall
                        has_template = agitator_john_stuart_mill
                        has_variable = is_stirner_var
                        has_template = rus_leon_trotsky_character_template
                        AND = {
                            has_template = fra_napoleon_iii_character_template
                            monarchy_clothes_trigger = no
                        }

                        ### the Cuirass does not work with agitator_john_brown coat ###
                        has_template = usa_john_brown_character_template

                        ### the Cuirass does not work with agitator_maurras coat ###
                        has_template = fra_maurras_character_template

                        ### the Cuirass does not work with late military uniforms ###
                        has_template = PER_reza_pahlavi
                    }
                }
            }
        }
    }

    sovereign_empire_power_bloc_sabre = {
        dna_modifiers = {
            accessory = {
               mode = add
               gene = belts
               template = male_belt_saber
               range = { 0 1 }
            }
        }
        dna_modifiers = {
            accessory = {
               mode = add
               gene = top_layer
               template = male_belt_saber
               range = { 0 1 }
            }
        }

        weight = {
            base = 0
            modifier = {
                add = 90000

                has_dlc_feature = ep1_cosmetics

                republic_clothes_trigger = no
                monarchy_clothes_trigger = yes

                scope:character ?= {
                    is_ruler = yes
                    is_female = no

                    age >= define:NCharacters|ADULT_AGE

                    owner ?= {
                        is_in_power_bloc = yes
                        power_bloc ?= {
                            has_identity = identity:identity_sovereign_empire
                        }
                    }
                }
            }
        }
    }

    sovereign_empire_power_bloc_civilian_sash = {
        dna_modifiers = {
            accessory = {
               mode = add
               gene = sashes
               template = civilian_coat_pb_sashes
               range = { 0 0.2 } # sovereign empire
            }
        }

        weight = {
            base = 0
            modifier = {
                add = 90000

                has_dlc_feature = ep1_cosmetics

                republic_clothes_trigger = yes
                OR = {
                    european_clothes_trigger = yes
                    # scope:character ?= {
                    #     OR = {
                    #         culture = cu:malagasy
                    #         culture = cu:cherokee
                    #         culture = cu:muskogean
                    #     }
                    # }
                    african_diaspora_clothes_trigger = yes
                }
                monarchy_clothes_trigger = no

                scope:character ?= {
                    is_ruler = yes
                    is_female = no

                    age >= define:NCharacters|ADULT_AGE

                    owner ?= {
                        is_in_power_bloc = yes
                        power_bloc ?= {
                            has_identity = identity:identity_sovereign_empire
                        }
                    }
                }
            }
        }
    }

    ideological_union_power_bloc_civilian_sash = {
        dna_modifiers = {
            accessory = {
               mode = add
               gene = sashes
               template = civilian_coat_pb_sashes
               range = { 0.2 0.4 } # ideological union
            }
        }

        weight = {
            base = 0
            modifier = {
                add = 90000

                has_dlc_feature = ep1_cosmetics

                republic_clothes_trigger = yes
                OR = {
                    european_clothes_trigger = yes
                    # scope:character ?= {
                    #     OR = {
                    #         culture = cu:malagasy
                    #         culture = cu:cherokee
                    #         culture = cu:muskogean
                    #     }
                    # }
                    african_diaspora_clothes_trigger = yes
                }
                monarchy_clothes_trigger = no

                scope:character ?= {
                    is_ruler = yes
                    is_female = no

                    age >= define:NCharacters|ADULT_AGE

                    owner ?= {
                        is_in_power_bloc = yes
                        power_bloc ?= {
                            has_identity = identity:identity_ideological_union
                        }
                    }
                }
            }
        }
    }

    military_treaty_organization_power_bloc_civilian_sash = {
        dna_modifiers = {
            accessory = {
               mode = add
               gene = sashes
               template = civilian_coat_pb_sashes
               range = { 0.4 0.6 } # military_treaty_organization
            }
        }

        weight = {
            base = 0
            modifier = {
                add = 90000

                has_dlc_feature = ep1_cosmetics

                republic_clothes_trigger = yes
                OR = {
                    european_clothes_trigger = yes
                    # scope:character ?= {
                    #     OR = {
                    #         culture = cu:malagasy
                    #         culture = cu:cherokee
                    #         culture = cu:muskogean
                    #     }
                    # }
                    african_diaspora_clothes_trigger = yes
                }
                monarchy_clothes_trigger = no

                scope:character ?= {
                    is_ruler = yes
                    is_female = no

                    age >= define:NCharacters|ADULT_AGE

                    owner ?= {
                        is_in_power_bloc = yes
                        power_bloc ?= {
                            has_identity = identity:identity_military_treaty_organization
                        }
                    }
                }
            }
        }
    }

    trade_league_power_bloc_civilian_sash = {
        dna_modifiers = {
            accessory = {
               mode = add
               gene = sashes
               template = civilian_coat_pb_sashes
               range = { 0.6 0.8 } # trade league
            }
        }

        weight = {
            base = 0
            modifier = {
                add = 90000

                has_dlc_feature = ep1_cosmetics

                republic_clothes_trigger = yes
                OR = {
                    european_clothes_trigger = yes
                    # scope:character ?= {
                    #     OR = {
                    #         culture = cu:malagasy
                    #         culture = cu:cherokee
                    #         culture = cu:muskogean
                    #     }
                    # }
                    african_diaspora_clothes_trigger = yes
                }
                monarchy_clothes_trigger = no

                scope:character ?= {
                    is_ruler = yes
                    is_female = no

                    age >= define:NCharacters|ADULT_AGE

                    owner ?= {
                        is_in_power_bloc = yes
                        power_bloc ?= {
                            has_identity = identity:identity_trade_league
                        }
                    }
                }
            }
        }
    }

    religious_power_bloc_civilian_sash = {
        dna_modifiers = {
            accessory = {
               mode = add
               gene = sashes
               template = civilian_coat_pb_sashes
               range = { 0.8 1.0 } # religious
            }
        }

        weight = {
            base = 0
            modifier = {
                add = 90000

                has_dlc_feature = ep1_cosmetics

                republic_clothes_trigger = yes
                OR = {
                    european_clothes_trigger = yes
                    # scope:character ?= {
                    #     OR = {
                    #         culture = cu:malagasy
                    #         culture = cu:cherokee
                    #         culture = cu:muskogean
                    #     }
                    # }
                    african_diaspora_clothes_trigger = yes
                }
                monarchy_clothes_trigger = no

                scope:character ?= {
                    is_ruler = yes
                    is_female = no

                    age >= define:NCharacters|ADULT_AGE

                    owner ?= {
                        is_in_power_bloc = yes
                        power_bloc ?= {
                            has_identity = identity:identity_religious
                        }
                    }
                }
            }
        }
    }
}
