From;To;Type;Through;start_x;start_y;stop_x;stop_y;adjacency_rule_name;Comment
x2B8FC9;x0872E8;sea;-1;-1;-1;-1;-1;;Westrod-Verkal Vazkron
x5B7DDE;x7EE1A5;sea;-1;-1;-1;-1;-1;;Lower Dagrinrod-Hall of the Ancestors
xFA0F64;xDE6C45;sea;-1;-1;-1;-1;-1;;Jorkad Junction-Argrod Junction
xEF2139;xED2A0A;sea;-1;-1;-1;-1;-1;;Jorkad Junction-Vazumrod
xDBD94C;x23E030;sea;-1;-1;-1;-1;-1;;Ozumrod-Copper Road
xE1CD24;x0D5E6D;sea;-1;-1;-1;-1;-1;;Drunken Road-Western Jaderod
x113C07;x2AC909;sea;-1;-1;-1;-1;-1;;Elizna
x6B9BB7;x88E428;sea;-1;-1;-1;-1;-1;;Ekha
xBA4E80;xDA683F;sea;-1;-1;-1;-1;-1;;Ekha
xCB2464;x76F97C;sea;-1;-1;-1;-1;-1;;Pawprint
x76F97C;x16971C;sea;-1;-1;-1;-1;-1;;Pawprint
x16971C;x55D827;sea;-1;-1;-1;-1;-1;;Pawprint
x55D827;x515B08;sea;-1;-1;-1;-1;-1;;Pawprint
x55D827;x63E86C;sea;-1;-1;-1;-1;-1;;Pawprint
x417D4C;x51652E;sea;-1;-1;-1;-1;-1;;Zangaland
x564D8A;xC62DA6;sea;-1;-1;-1;-1;-1;;Janama
x5A3353;xC62DA6;sea;-1;-1;-1;-1;-1;;Janama
xC62DA6;xA2C029;sea;-1;-1;-1;-1;-1;;Janama
xF4BE4D;xFDDF22;sea;-1;-1;-1;-1;-1;;Gemtree
x5B1F49;x5C7707;sea;-1;-1;-1;-1;-1;;Wanderers Isles
x5C7707;x03E468;sea;-1;-1;-1;-1;-1;;Wanderers Isles
xEB4DB3;xBC350B;sea;-1;-1;-1;-1;-1;;Gemtree
xAF502D;x5DA411;sea;-1;-1;-1;-1;-1;;Marid Delta
x4800AD;x0E5E18;sea;-1;-1;-1;-1;-1;;Marid Delta
x99C87A;x1B8003;sea;-1;-1;-1;-1;-1;;Marid Delta
xA5131B;x0E5E18;sea;-1;-1;-1;-1;-1;;Afomapobo - Marid Delta
x563E68;x1ACD58;sea;-1;-1;-1;-1;-1;;Kunolo
x231A41;xD0CCFD;sea;-1;-1;-1;-1;-1;;Zuvavim
xE3D082;x8C32C9;sea;-1;-1;-1;-1;-1;;Zuvavim
x8C0B6D;x8C32C9;sea;-1;-1;-1;-1;-1;;Zuvavim
xC242ED;x093427;sea;-1;-1;-1;-1;-1;;Zena
x8887EE;x7502F7;sea;-1;-1;-1;-1;-1;;Zena
x893E13;x6094D9;sea;-1;-1;-1;-1;-1;;Irklaz
x6094D9;x1F5936;sea;-1;-1;-1;-1;-1;;Irklaz
x1F5936;x7BA221;sea;-1;-1;-1;-1;-1;;Irklaz
x7BA221;xD00D66;sea;-1;-1;-1;-1;-1;;Irklaz
xA53688;xEACE6F;sea;-1;-1;-1;-1;-1;;Afomapobo
xEACE6F;x4550D4;sea;-1;-1;-1;-1;-1;;Afomapobo
x4550D4;xBCDC7D;sea;-1;-1;-1;-1;-1;;Afomapobo
xC06E5A;x9CC12C;sea;-1;-1;-1;-1;-1;;Afomapobo
x07D167;xB2F574;sea;-1;-1;-1;-1;-1;;Afomapobo
xB2F574;xB088DD;sea;-1;-1;-1;-1;-1;;Afomapobo
xB088DD;x44D08F;sea;-1;-1;-1;-1;-1;;Afomapobo
xA60852;xA63AAF;sea;-1;-1;-1;-1;-1;;Afomapobo
xA63AAF;x807AC1;sea;-1;-1;-1;-1;-1;;Afomapobo
x7608D3;x1D70E2;sea;-1;-1;-1;-1;-1;;Afomapobo
x4605EA;x1D70E2;sea;-1;-1;-1;-1;-1;;Afomapobo
x503EC9;x718C09;sea;-1;-1;-1;-1;-1;;Maponosy
xEAB74B;x71727C;sea;-1;-1;-1;-1;-1;;Maponosy
xD838ED;x1B7E13;sea;-1;-1;-1;-1;-1;;Maponosy
xA09BD2;x80470D;sea;-1;-1;-1;-1;-1;;Maponosy
x71727C;x1DBD4A;sea;-1;-1;-1;-1;-1;;Maponosy
xB0256E;x9ACBA6;sea;-1;-1;-1;-1;-1;;Maponosy
xAD2283;x9D54F4;sea;-1;-1;-1;-1;-1;;Maponosy
x4A02DB;xA59161;sea;-1;-1;-1;-1;-1;;Maponosy
x356D4F;x7CDD62;sea;-1;-1;-1;-1;-1;;Maponosy
xC1BCC7;x356D4F;sea;-1;-1;-1;-1;-1;;Maponosy
x4B36EE;x1AF1F0;sea;-1;-1;-1;-1;-1;;Maponosy
x20EFCA;xBF7A57;sea;-1;-1;-1;-1;-1;;Nafalofimapo
x0BD342;xBF7A57;sea;-1;-1;-1;-1;-1;;Nafalofimapo
xBF7A57;xD028DF;sea;-1;-1;-1;-1;-1;;Nafalofimapo
x4178DC;x83545A;sea;-1;-1;-1;-1;-1;;Nafalofimapo
x0BD342;x394141;sea;-1;-1;-1;-1;-1;;Nafalofimapo - Zuvavim
x970F22;xB5A3C6;sea;-1;-1;-1;-1;-1;;Sil Berkhens Land
xBFBFA9;xC902E0;sea;-1;-1;-1;-1;-1;;Sil Berkhens Land
x018154;xFEFEE3;sea;-1;-1;-1;-1;-1;;Sil Berkhens Land
xB6282B;x8F61A7;sea;-1;-1;-1;-1;-1;;Sil Berkhens Land
xB6282B;x018154;sea;-1;-1;-1;-1;-1;;Sil Berkhens Land
x58028B;xD282E9;sea;-1;-1;-1;-1;-1;;Sil Berkhens Land
xD282E9;x0FDD54;sea;-1;-1;-1;-1;-1;;Sil Berkhens Land
xC6FDF2;xED612F;sea;-1;-1;-1;-1;-1;;Helibetibokbo
xA71E74;xD6950F;sea;-1;-1;-1;-1;-1;;Helibetibokbo
xE9CEB8;x083920;sea;-1;-1;-1;-1;-1;;Helibetibokbo
x7B99C1;xD38F48;sea;-1;-1;-1;-1;-1;;Drongoronsi
xD38F48;xD2874B;sea;-1;-1;-1;-1;-1;;Drongoronsi
xD2874B;x7167AB;sea;-1;-1;-1;-1;-1;;Drongoronsi
x7167AB;xB043DE;sea;-1;-1;-1;-1;-1;;Drongoronsi
xDAD333;xCEB35A;sea;-1;-1;-1;-1;-1;;Drongoronsi
x14DE4F;xCEB35A;sea;-1;-1;-1;-1;-1;;Drongoronsi
xCEB35A;x98D489;sea;-1;-1;-1;-1;-1;;Drongoronsi
x98D489;xFAA8D7;sea;-1;-1;-1;-1;-1;;Drongoronsi
x3D7080;xA805EE;sea;-1;-1;-1;-1;-1;;Drongoronsi
xA805EE;x2143E7;sea;-1;-1;-1;-1;-1;;Drongoronsi
x3D7080;x50622A;sea;-1;-1;-1;-1;-1;;Drongoronsi
x50622A;x2A480E;sea;-1;-1;-1;-1;-1;;Drongoronsi
x2A480E;x986E6A;sea;-1;-1;-1;-1;-1;;Drongoronsi
x986E6A;x4A02DB;sea;-1;-1;-1;-1;-1;;Drongoronsi
x70E964;xF8A0D8;sea;-1;-1;-1;-1;-1;;Sisinyuye
x329364;xAFC5FD;sea;-1;-1;-1;-1;-1;;Sisinyuye - Tvarastamanosy
x257944;x353702;sea;-1;-1;-1;-1;-1;;Tvarastamanosy
xF01B47;xCF57A8;sea;-1;-1;-1;-1;-1;;Tvarastamanosy
xCADC99;x47A579;sea;-1;-1;-1;-1;-1;;Tvarastamanosy
x76D47B;x47A579;sea;-1;-1;-1;-1;-1;;Tvarastamanosy
x47A579;xCF57A8;sea;-1;-1;-1;-1;-1;;Tvarastamanosy
xBD7817;x378783;sea;-1;-1;-1;-1;-1;;Tvarastamanosy
x2E2344;xCA83E2;sea;-1;-1;-1;-1;-1;;Tvarastamanosy
x4E41EC;xB722C0;sea;-1;-1;-1;-1;-1;;Tvarastamanosy
xDE5901;xB722C0;sea;-1;-1;-1;-1;-1;;Tvarastamanosy
x554EDC;xB722C0;sea;-1;-1;-1;-1;-1;;Tvarastamanosy
x5A943C;x15BF50;sea;-1;-1;-1;-1;-1;;Tvarastamanosy
x506AF5;xDD18AE;sea;-1;-1;-1;-1;-1;;Teramzadai
xAB30D0;x2A04A1;sea;-1;-1;-1;-1;-1;;Teramzadai
x2A04A1;xCD1843;sea;-1;-1;-1;-1;-1;;Teramzadai
xCD1843;x3B5E53;sea;-1;-1;-1;-1;-1;;Teramzadai
x3B5E53;x03F6B3;sea;-1;-1;-1;-1;-1;;Teramzadai
x75EF35;xF9E813;sea;-1;-1;-1;-1;-1;;Rankaty Islands
x088E13;x63DE50;sea;-1;-1;-1;-1;-1;;Rankaty Islands
x63DE50;x9235DE;sea;-1;-1;-1;-1;-1;;Rankaty Islands
x9235DE;xAED218;sea;-1;-1;-1;-1;-1;;Rankaty Islands
x465CD9;x8E1A9D;sea;-1;-1;-1;-1;-1;;Rankaty Islands
xA11A31;x8E1A9D;sea;-1;-1;-1;-1;-1;;Sisinyuye - Rankaty Islands
x8E1A9D;x00900A;sea;-1;-1;-1;-1;-1;;Rankaty Islands
x00900A;x66FE48;sea;-1;-1;-1;-1;-1;;Rankaty Islands
x00900A;x42C988;sea;-1;-1;-1;-1;-1;;Rankaty Islands
x66FE48;x42C988;sea;-1;-1;-1;-1;-1;;Rankaty Islands
x9A56C4;x8E6C4D;sea;-1;-1;-1;-1;-1;;Rankaty Islands
x42C988;x9BE118;sea;-1;-1;-1;-1;-1;;Rankaty Islands
x9BE118;x60031D;sea;-1;-1;-1;-1;-1;;Rankaty Islands
x60031D;x1D64B6;sea;-1;-1;-1;-1;-1;;Rankaty Islands
x1D64B6;x4D33F1;sea;-1;-1;-1;-1;-1;;Rankaty Islands
x1D64B6;x8E6C4D;sea;-1;-1;-1;-1;-1;;Rankaty Islands
x4D33F1;x0EA513;sea;-1;-1;-1;-1;-1;;Rankaty Islands
x0EA513;x28089B;sea;-1;-1;-1;-1;-1;;Rankaty Islands
x60031D;xCBF502;sea;-1;-1;-1;-1;-1;;Rankaty Islands
x9BE118;xD55571;sea;-1;-1;-1;-1;-1;;Rankaty Islands
x4CF97A;xA75A76;sea;-1;-1;-1;-1;-1;;Rankaty Islands
xA75A76;x18D72D;sea;-1;-1;-1;-1;-1;;Rankaty Islands
x4CF97A;xAF6150;sea;-1;-1;-1;-1;-1;;Rankaty Islands
xEF7870;xAB277B;sea;-1;-1;-1;-1;-1;;Rankaty Islands
xFE618C;x617906;sea;-1;-1;-1;-1;-1;;Rankaty Islands
x617906;x26FCA5;sea;-1;-1;-1;-1;-1;;Rankaty Islands
xD8C14C;x2527A1;sea;-1;-1;-1;-1;-1;;Rankaty Islands
x2527A1;xEE15B2;sea;-1;-1;-1;-1;-1;;Rankaty Islands
x2B9D40;x8C2593;sea;-1;-1;-1;-1;-1;;Rankaty Islands - Karassk
x28089B;x8F3CF8;sea;-1;-1;-1;-1;-1;;Karassk
x5FC585;xB41EB1;sea;-1;-1;-1;-1;-1;;Karassk
x8F3CF8;x252B59;sea;-1;-1;-1;-1;-1;;Karassk
x84F8BD;x2F2E4D;sea;-1;-1;-1;-1;-1;;Karassk
x349df9;x29d8e4;canal_prikoyol;-1;5549;2864;5540;2877;; Kalsyto Canal
x78fcfc;x56c8fa;canal_dhal_nikhuvad;-1;5516;1203;5524;1206;; Sarhal Canal
x7cfafa;x1fddfb;special;-1;6647;2600;6871;2514;; Odheongu Sea-Barrier Islands Sea