﻿object={
	name="bush_02_generator_1_0"
	clamp_to_water_level=no
	render_under_water=no
	generated_content=yes
	layer="semidynamic_medium"
	pdxmesh="tree_bush_03_mesh"
	count=99
	transform="909.506958 0.000000 2577.611328 0.000000 0.667629 0.000000 0.744494 0.165210 0.165210 0.165210
1122.901001 0.000000 2654.830322 0.000000 0.769283 0.000000 0.638908 0.160524 0.160524 0.160524
5545.128906 0.000000 1207.037598 0.000000 0.532124 0.000000 0.846666 0.182728 0.182728 0.182728
5482.009766 0.000000 1297.592896 0.000000 0.867044 0.000000 -0.498232 0.191930 0.191930 0.191930
5483.722656 0.000000 1297.979492 0.000000 0.982800 0.000000 -0.184673 0.189912 0.189912 0.189912
5463.491699 0.000000 1299.772095 0.000000 0.964425 0.000000 0.264355 0.160526 0.160526 0.160526
5485.943359 0.000000 1357.979980 0.000000 0.831687 0.000000 -0.555245 0.191192 0.191192 0.191192
5484.016602 0.000000 1357.373657 0.000000 0.701074 0.000000 0.713088 0.182932 0.182932 0.182932
5385.795410 0.000000 1412.133789 0.000000 0.798683 0.000000 0.601751 0.192048 0.192048 0.192048
5384.364746 0.000000 1412.566162 0.000000 0.860899 0.000000 0.508777 0.192747 0.192747 0.192747
5385.352539 0.000000 1413.718994 0.000000 0.314072 0.000000 0.949399 0.188269 0.188269 0.188269
5409.739258 0.000000 1414.633423 0.000000 0.605069 0.000000 0.796173 0.194137 0.194137 0.194137
5683.402344 0.000000 2313.342285 0.000000 0.994002 0.000000 -0.109366 0.168091 0.168091 0.168091
5705.063965 0.000000 2289.836914 0.000000 0.992598 0.000000 -0.121446 0.161970 0.161970 0.161970
5886.970703 0.000000 2282.031006 0.000000 0.049401 0.000000 0.998779 0.175921 0.175921 0.175921
5857.680176 0.000000 2315.202637 0.000000 0.890749 0.000000 -0.454496 0.191631 0.191631 0.191631
5869.516602 0.000000 2330.592773 0.000000 0.296800 0.000000 0.954940 0.173640 0.173640 0.173640
5887.958008 0.000000 2336.758301 0.000000 0.953746 0.000000 0.300612 0.167543 0.167543 0.167543
5857.210449 0.000000 2360.732666 0.000000 0.996268 0.000000 0.086314 0.165370 0.165370 0.165370
5868.662598 0.000000 2366.439453 0.000000 0.706366 0.000000 0.707847 0.155667 0.155667 0.155667
5879.107910 0.000000 2361.060791 0.000000 0.180921 0.000000 0.983498 0.191158 0.191158 0.191158
5868.083496 0.000000 2335.920410 0.000000 0.969906 0.000000 0.243481 0.198434 0.198434 0.198434
5855.334473 0.000000 2356.844727 0.000000 0.988331 0.000000 -0.152323 0.200974 0.200974 0.200974
5871.868652 0.000000 2364.270264 0.000000 0.551836 0.000000 0.833953 0.178528 0.178528 0.178528
5868.376953 0.000000 2362.126953 0.000000 0.603631 0.000000 0.797264 0.192494 0.192494 0.192494
5871.145508 0.000000 2334.007324 0.000000 0.563179 0.000000 0.826335 0.170465 0.170465 0.170465
5846.628418 0.000000 2345.886475 0.000000 0.017605 0.000000 0.999845 0.187982 0.187982 0.187982
5849.681152 0.000000 2349.636963 0.000000 0.984400 0.000000 0.175945 0.198874 0.198874 0.198874
5877.860840 0.000000 2363.925781 0.000000 0.937038 0.000000 -0.349229 0.202271 0.202271 0.202271
5848.795410 0.000000 2343.771484 0.000000 0.072168 0.000000 0.997392 0.190460 0.190460 0.190460
5857.910645 0.000000 2358.182129 0.000000 0.888228 0.000000 0.459404 0.179306 0.179306 0.179306
5847.339844 0.000000 2348.266846 0.000000 0.804821 0.000000 0.593517 0.195955 0.195955 0.195955
5871.339355 0.000000 2316.105469 0.000000 0.990544 0.000000 0.137194 0.172909 0.172909 0.172909
5867.095215 0.000000 2330.177979 0.000000 0.990369 0.000000 0.138450 0.199116 0.199116 0.199116
5880.630371 0.000000 2369.314453 0.000000 0.988950 0.000000 -0.148247 0.193630 0.193630 0.193630
5855.373535 0.000000 2359.292480 0.000000 0.199255 0.000000 0.979948 0.191277 0.191277 0.191277
5866.281250 0.000000 2358.071045 0.000000 0.999987 0.000000 0.005090 0.195487 0.195487 0.195487
5864.688965 0.000000 2340.259766 0.000000 0.997499 0.000000 0.070679 0.199550 0.199550 0.199550
5874.216309 0.000000 2360.404297 0.000000 0.996667 0.000000 -0.081576 0.195465 0.195465 0.195465
5877.101074 0.000000 2361.184814 0.000000 0.974811 0.000000 -0.223033 0.201432 0.201432 0.201432
5867.960938 0.000000 2337.961670 0.000000 0.941754 0.000000 0.336301 0.197816 0.197816 0.197816
5846.981445 0.000000 2344.083984 0.000000 0.999173 0.000000 0.040654 0.197503 0.197503 0.197503
5854.190918 0.000000 2352.913330 0.000000 0.682088 0.000000 0.731270 0.194779 0.194779 0.194779
5854.924805 0.000000 2355.164307 0.000000 0.101773 0.000000 0.994808 0.190649 0.190649 0.190649
5875.824219 0.000000 2360.193848 0.000000 0.424008 0.000000 0.905659 0.187927 0.187927 0.187927
5867.954590 0.000000 2339.565430 0.000000 0.185427 0.000000 0.982658 0.191187 0.191187 0.191187
5867.175293 0.000000 2334.156738 0.000000 0.420659 0.000000 0.907219 0.192764 0.192764 0.192764
5847.838867 0.000000 2346.883057 0.000000 0.465710 0.000000 0.884937 0.193084 0.193084 0.193084
5869.470215 0.000000 2363.143799 0.000000 0.999256 0.000000 0.038560 0.198076 0.198076 0.198076
5846.619629 0.000000 2349.380615 0.000000 0.730464 0.000000 0.682952 0.195214 0.195214 0.195214
5855.443848 0.000000 2353.970703 0.000000 0.918268 0.000000 0.395959 0.197408 0.197408 0.197408
5854.022949 0.000000 2359.272217 0.000000 0.996211 0.000000 -0.086969 0.200554 0.200554 0.200554
5877.881348 0.000000 2358.019043 0.000000 0.820311 0.000000 0.571918 0.196124 0.196124 0.196124
5850.203125 0.000000 2348.465332 0.000000 0.067866 0.000000 0.997694 0.190432 0.190432 0.190432
5848.864258 0.000000 2342.413330 0.000000 0.945728 0.000000 0.324960 0.197893 0.197893 0.197893
5855.082031 0.000000 2352.007080 0.000000 0.795531 0.000000 0.605913 0.195856 0.195856 0.195856
5876.589844 0.000000 2359.278076 0.000000 0.923112 0.000000 0.384532 0.197487 0.197487 0.197487
5869.140625 0.000000 2335.471924 0.000000 0.173663 0.000000 0.984805 0.191111 0.191111 0.191111
5879.883789 0.000000 2361.908447 0.000000 0.997931 0.000000 0.064294 0.199590 0.199590 0.199590
5850.905273 0.000000 2349.432617 0.000000 0.052525 0.000000 0.998620 0.190335 0.190335 0.190335
5844.545898 0.000000 2348.019775 0.000000 0.512028 0.000000 0.858969 0.193422 0.193422 0.193422
5845.654297 0.000000 2349.772217 0.000000 0.997565 0.000000 0.069747 0.199556 0.199556 0.199556
5890.500488 0.000000 2279.119141 0.000000 0.850458 0.000000 -0.526042 0.171031 0.171031 0.171031
5891.505371 0.000000 2302.801270 0.000000 0.987411 0.000000 -0.158175 0.173985 0.173985 0.173985
5893.141602 0.000000 2284.881348 0.000000 0.992561 0.000000 -0.121745 0.200777 0.200777 0.200777
5890.335449 0.000000 2290.604980 0.000000 0.792535 0.000000 0.609826 0.195825 0.195825 0.195825
5892.370605 0.000000 2285.964600 0.000000 0.999115 0.000000 0.042068 0.199732 0.199732 0.199732
5895.671387 0.000000 2340.715820 0.000000 0.911136 0.000000 0.412106 0.158058 0.158058 0.158058
5910.604004 0.000000 2354.388916 0.000000 0.239312 0.000000 0.970943 0.175979 0.175979 0.175979
5933.375000 0.000000 2397.265381 0.000000 0.965965 0.000000 -0.258673 0.188673 0.188673 0.188673
5935.250488 0.000000 2401.324707 0.000000 0.936900 0.000000 -0.349598 0.183576 0.183576 0.183576
5945.814453 0.000000 2391.186279 0.000000 0.997439 0.000000 -0.071524 0.197087 0.197087 0.197087
5973.208496 0.000000 2412.222900 0.000000 0.102901 0.000000 0.994692 0.165556 0.165556 0.165556
5956.035156 0.000000 2378.563477 0.000000 0.782681 0.000000 0.622423 0.195723 0.195723 0.195723
5974.604004 0.000000 2410.873291 0.000000 0.982704 0.000000 0.185186 0.181550 0.181550 0.181550
5957.431641 0.000000 2383.120361 0.000000 0.605553 0.000000 0.795805 0.194141 0.194141 0.194141
5957.475098 0.000000 2380.619873 0.000000 0.963074 0.000000 -0.269238 0.201735 0.201735 0.201735
5956.727051 0.000000 2379.594727 0.000000 0.938495 0.000000 0.345293 0.197756 0.197756 0.197756
5961.641113 0.000000 2482.015869 0.000000 0.628276 0.000000 0.777991 0.156222 0.156222 0.156222
5962.072266 0.000000 2485.000244 0.000000 0.991486 0.000000 -0.130215 0.200831 0.200831 0.200831
5979.739258 0.000000 2472.451416 0.000000 0.939235 0.000000 0.343274 0.179488 0.179488 0.179488
5963.568848 0.000000 2484.781494 0.000000 0.992478 0.000000 0.122423 0.199219 0.199219 0.199219
6029.099609 0.000000 2448.604736 0.000000 0.276531 0.000000 0.961005 0.189635 0.189635 0.189635
4159.825195 0.000000 3289.346436 0.000000 0.269944 0.000000 0.962876 0.182073 0.182073 0.182073
4172.457520 0.000000 3327.869629 0.000000 0.994934 0.000000 -0.100525 0.186591 0.186591 0.186591
4177.360840 0.000000 3322.254150 0.000000 0.496755 0.000000 0.867891 0.193310 0.193310 0.193310
4172.721191 0.000000 3314.418701 0.000000 0.963260 0.000000 -0.268572 0.183084 0.183084 0.183084
4170.234863 0.000000 3323.539551 0.000000 0.875709 0.000000 0.482839 0.196792 0.196792 0.196792
4174.368652 0.000000 3331.947266 0.000000 0.973031 0.000000 0.230673 0.182948 0.182948 0.182948
4173.340332 0.000000 3316.320557 0.000000 0.838038 0.000000 0.545611 0.196326 0.196326 0.196326
4172.919922 0.000000 3326.129395 0.000000 0.865133 0.000000 -0.501542 0.189105 0.189105 0.189105
4176.310547 0.000000 3323.689209 0.000000 0.825929 0.000000 -0.563774 0.203813 0.203813 0.203813
4177.775879 0.000000 3323.666992 0.000000 0.994554 0.000000 -0.104218 0.200665 0.200665 0.200665
4172.307617 0.000000 3316.854248 0.000000 0.997269 0.000000 -0.073856 0.200471 0.200471 0.200471
4169.795410 0.000000 3332.602539 0.000000 0.996896 0.000000 0.078727 0.184969 0.184969 0.184969
4180.805176 0.000000 3332.645752 0.000000 0.104778 0.000000 0.994496 0.187464 0.187464 0.187464
6347.786133 0.000000 2320.912354 0.000000 0.880202 0.000000 0.474599 0.169833 0.169833 0.169833
6362.165527 0.000000 2324.117188 0.000000 0.134194 0.000000 0.990955 0.172680 0.172680 0.172680
6293.668945 0.000000 2382.132568 0.000000 0.966531 0.000000 0.256552 0.161679 0.161679 0.161679
"}
object={
	name="bush_02_generator_1_1"
	clamp_to_water_level=no
	render_under_water=no
	generated_content=yes
	layer="semidynamic_medium"
	pdxmesh="tree_bush_04_mesh"
	count=45
	transform="5490.861328 0.000000 1354.658081 0.000000 0.514200 0.000000 -0.857670 0.206562 0.206562 0.206562
5529.681152 0.000000 1332.918091 0.000000 0.431943 0.000000 -0.901901 0.181625 0.181625 0.181625
5529.034668 0.000000 1331.087158 0.000000 0.633133 0.000000 -0.774043 0.205635 0.205635 0.205635
5420.412598 0.000000 1397.898682 0.000000 0.184878 0.000000 -0.982761 0.183665 0.183665 0.183665
5485.143066 0.000000 1355.927368 0.000000 0.750194 0.000000 -0.661218 0.185687 0.185687 0.185687
5424.746582 0.000000 1415.347046 0.000000 0.765876 0.000000 -0.642988 0.177530 0.177530 0.177530
4841.650879 0.000000 2438.114746 0.000000 0.574523 0.000000 -0.818489 0.185320 0.185320 0.185320
5810.395020 0.000000 2289.391602 0.000000 0.181934 0.000000 -0.983311 0.195381 0.195381 0.195381
5853.237305 0.000000 2349.381592 0.000000 0.231981 0.000000 -0.972720 0.186899 0.186899 0.186899
5885.507812 0.000000 2365.636230 0.000000 0.084936 0.000000 -0.996386 0.188337 0.188337 0.188337
5875.634277 0.000000 2358.587158 0.000000 0.712441 0.000000 -0.701732 0.200933 0.200933 0.200933
5866.288574 0.000000 2339.007080 0.000000 0.722201 0.000000 -0.691683 0.204863 0.204863 0.204863
5851.203125 0.000000 2355.177002 0.000000 0.499365 0.000000 -0.866392 0.193356 0.193356 0.193356
5877.789062 0.000000 2359.303223 0.000000 0.717180 0.000000 -0.696888 0.204909 0.204909 0.204909
5851.443848 0.000000 2348.124268 0.000000 0.743184 0.000000 -0.669087 0.204666 0.204666 0.204666
5845.609863 0.000000 2348.508301 0.000000 0.790656 0.000000 -0.612260 0.204195 0.204195 0.204195
5866.415039 0.000000 2335.477539 0.000000 0.288228 0.000000 -0.957562 0.208139 0.208139 0.208139
5869.531250 0.000000 2334.252441 0.000000 0.743754 0.000000 -0.668454 0.204661 0.204661 0.204661
5876.695312 0.000000 2362.831543 0.000000 0.189390 0.000000 -0.981902 0.208787 0.208787 0.208787
5866.712402 0.000000 2337.077881 0.000000 0.096606 0.000000 -0.995323 0.209384 0.209384 0.209384
5844.841797 0.000000 2350.425537 0.000000 0.403719 0.000000 -0.914883 0.207354 0.207354 0.207354
5847.955566 0.000000 2349.649902 0.000000 0.309957 0.000000 -0.950751 0.207994 0.207994 0.207994
5846.292480 0.000000 2347.280029 0.000000 0.210629 0.000000 -0.977566 0.208649 0.208649 0.208649
5865.922852 0.000000 2341.011230 0.000000 0.650242 0.000000 -0.759727 0.205493 0.205493 0.205493
5854.684082 0.000000 2358.119873 0.000000 0.709923 0.000000 -0.704280 0.204975 0.204975 0.204975
5845.353516 0.000000 2351.749268 0.000000 0.216351 0.000000 -0.976316 0.208612 0.208612 0.208612
5873.044434 0.000000 2364.939697 0.000000 0.298531 0.000000 -0.954400 0.208070 0.208070 0.208070
5868.330078 0.000000 2334.624268 0.000000 0.178263 0.000000 -0.983983 0.208859 0.208859 0.208859
5878.086914 0.000000 2360.458496 0.000000 0.739215 0.000000 -0.673469 0.204704 0.204704 0.204704
5867.132812 0.000000 2331.226318 0.000000 0.380023 0.000000 -0.924977 0.207518 0.207518 0.207518
5891.837402 0.000000 2282.937012 0.000000 0.603604 0.000000 -0.797284 0.190881 0.190881 0.190881
5890.875977 0.000000 2291.961670 0.000000 0.059295 0.000000 -0.998241 0.209622 0.209622 0.209622
5908.984863 0.000000 2353.057373 0.000000 0.028270 0.000000 -0.999600 0.186311 0.186311 0.186311
5892.679688 0.000000 2368.474365 0.000000 0.763604 0.000000 -0.645684 0.187859 0.187859 0.187859
5908.841797 0.000000 2350.425537 0.000000 0.710674 0.000000 -0.703521 0.195782 0.195782 0.195782
5935.537109 0.000000 2399.472168 0.000000 0.383941 0.000000 -0.923357 0.206910 0.206910 0.206910
5945.190430 0.000000 2414.450684 0.000000 0.510923 0.000000 -0.859626 0.191541 0.191541 0.191541
5956.047852 0.000000 2380.693848 0.000000 0.722966 0.000000 -0.690884 0.204856 0.204856 0.204856
5956.588867 0.000000 2381.981201 0.000000 0.789885 0.000000 -0.613256 0.204203 0.204203 0.204203
5957.292969 0.000000 2378.361084 0.000000 0.370506 0.000000 -0.928830 0.207584 0.207584 0.207584
4166.562500 0.000000 3319.515869 0.000000 0.661026 0.000000 -0.750363 0.205402 0.205402 0.205402
4171.583008 0.000000 3323.038574 0.000000 0.501888 0.000000 -0.864933 0.206653 0.206653 0.206653
4161.803711 0.000000 3328.419678 0.000000 0.278099 0.000000 -0.960553 0.208206 0.208206 0.208206
4168.993164 0.000000 3335.704834 0.000000 0.645626 0.000000 -0.763653 0.194018 0.194018 0.194018
6363.966309 0.000000 2325.472412 0.000000 0.088416 0.000000 -0.996084 0.189490 0.189490 0.189490
"}
