﻿mages = {
	texture = "gfx/interface/icons/pops_icons/aristocrats.dds"
	color = hsv{ 0.90 0.58 0.46 }
	start_quality_of_life = 10
	working_adult_ratio = 0.2
	wage_weight = 3
	paid_private_wage = yes
	literacy_target = 0.9
	dependent_wage = 0.5	# per year
	unemployment = yes
	
	# 70% - 100% politically engaged
	political_engagement_base = 0.7
	political_engagement_literacy_factor = 0.3
	
	political_engagement_mult = {
		value = 1
		
		add = {
			desc = "POP_STARVATION"	
			
			if = {
				limit = { 
					standard_of_living < 5
				}
				value = 1
			}		
		}		
	}	
	
	qualifications_growth_desc = "MAGES_QUALIFICATIONS_DESC"
	qualifications = {
		if = {
			limit = {
				literacy_rate > 0.5	#you need to be above 50% literacy to be a mage
				NOT = { pop_race_no_magical_affinity = yes }
			}
			# baseline: ( wealth - 10 ) / 10 + literacy_rate, norm 1.5 for Wealth 20 and literacy_rate 50%
			add = {
				value = literacy_rate
				subtract = 0.2
				multiply = 20
				desc = "QUALIFICATIONS_literacy_rate_FACTOR"
			}
			add = {
				value = wealth
				divide = 10
				desc = "QUALIFICATIONS_WEALTH_FACTOR"
			}
			if = {
				limit = {
					is_pop_type = aristocrats
				}
				multiply = {
					value = 5
					desc = "QUALIFICATIONS_FAVORED_TYPE"
				}
			}
			else_if = {
				limit = {
					is_pop_type = academics
				}
				multiply = {
					value = 5
					desc = "QUALIFICATIONS_FAVORED_TYPE"
				}
			}
			else_if = {
				limit = {
					is_pop_type = clergymen
				}
				multiply = {
					value = 2
					desc = "QUALIFICATIONS_FAVORED_TYPE"
				}
			}
			else_if = {
				limit = {
					is_pop_type = adventurers
				}
				multiply = {
					value = 2
					desc = "QUALIFICATIONS_FAVORED_TYPE"
				}
			}
			# if = {	#they'll take mages of whatever race tbh
			# 	limit = {
			# 		culture_accepted = no
			# 	}
			# 	multiply = {
			# 		value = 0.1
			# 		desc = "QUALIFICATIONS_CULTURAL_DISCRIMINATION"
			# 	}
			# }
			racial_magical_affinity = yes #Scripted modifier to find a pops racial affinity
		}
		else_if = {
			limit = { 
				is_peasant_under_serfdom = yes 
			}
			value = {
				desc = "QUALIFICATIONS_PEASANTS_UNDER_SERFDOM"
				value = 0
			}
		}
		else = {		
			value = {
				desc = "QUALIFICATIONS_INSUFFICIENT_literacy_rate_DECAY"
				value = -2
			}
		}
	}
	
	portrait_age = {
		integer_range = {
			min = define:NPortrait|GRACEFUL_AGING_START
			max = define:NPortrait|GRACEFUL_AGING_END
		}
	}			
	portrait_pose = { value = 0 }			
	portrait_is_female = { always = yes }
}
