﻿object={
	name="env_geyser_large_obj"
	clamp_to_water_level=no
	render_under_water=yes
	generated_content=no
	layer="environmental_effects"
	entity="env_geyser_large"
	count=0
}
object={
	name="env_geyser_medium_obj"
	clamp_to_water_level=no
	render_under_water=yes
	generated_content=no
	layer="environmental_effects"
	entity="env_geyser_medium"
	count=0
}
object={
	name="env_geyser_small_obj"
	clamp_to_water_level=no
	render_under_water=yes
	generated_content=no
	layer="environmental_effects"
	entity="env_geyser_small"
	count=0
}
object={
	name="env_godrays"
	clamp_to_water_level=no
	render_under_water=no
	generated_content=no
	layer="environmental_effects"
	entity="env_god_rays"
	count=10
	transform="1121.394287 0.000000 2743.831787 0.000000 0.000000 0.000000 1.000000 1.000000 1.000000 1.000000
1066.321289 0.000000 2722.684570 0.000000 -0.591833 0.000000 0.806060 1.000000 1.000000 1.000000
1061.697754 0.000000 2805.128174 0.000000 0.000000 0.000000 1.000000 1.000000 1.000000 1.000000
1205.012329 0.000000 2744.069092 0.000000 -0.889873 0.000000 -0.456208 1.000000 1.000000 1.000000
1181.255981 0.000000 2699.139648 0.000000 -0.952967 0.000000 0.303075 1.000000 1.000000 1.000000
2653.904541 0.000000 1958.857056 0.000000 0.000000 0.000000 1.000000 1.000000 1.000000 1.000000
6149.312500 0.000000 1982.871826 0.000000 0.000000 0.000000 1.000000 1.000000 1.000000 1.000000
6214.505371 0.000000 2012.325928 0.000000 0.000000 0.000000 1.000000 1.000000 1.000000 1.000000
5947.292969 0.000000 2168.826904 0.000000 0.000000 0.000000 1.000000 1.000000 1.000000 1.000000
5756.990723 0.000000 2171.632080 0.000000 0.000000 0.000000 1.000000 1.000000 1.000000 1.000000
"}
object={
	name="env_jungle_mist_l"
	clamp_to_water_level=no
	render_under_water=no
	generated_content=no
	layer="environmental_effects"
	entity="env_jungle_mist_l"
	count=5
	transform="2077.572510 0.000000 3057.248291 0.000000 0.000000 0.000000 1.000000 1.000000 1.000000 1.000000
2210.570312 0.000000 3085.238037 0.000000 0.000000 0.000000 1.000000 1.000000 1.000000 1.000000
1993.670044 0.000000 3035.804199 0.000000 0.000000 0.000000 1.000000 1.000000 1.000000 1.000000
6261.277344 0.000000 2274.513184 0.000000 0.000000 0.000000 1.000000 1.000000 1.000000 1.000000
6069.620117 -0.621338 2325.615479 0.000000 0.000000 0.000000 1.000000 1.000000 1.000000 1.000000
"}
object={
	name="env_jungle_mist_s"
	clamp_to_water_level=no
	render_under_water=no
	generated_content=no
	layer="environmental_effects"
	entity="env_jungle_mist_s"
	count=24
	transform="6160.951660 0.000000 2004.809814 0.000000 0.000000 0.000000 1.000000 1.000000 1.000000 1.000000
6131.909668 0.000000 1963.603760 0.000000 0.000000 0.000000 1.000000 1.000000 1.000000 1.000000
6164.070801 0.000000 2037.974609 0.000000 0.000000 0.000000 1.000000 1.000000 1.000000 1.000000
5758.761719 0.000000 2179.911377 0.000000 0.000000 0.000000 1.000000 1.000000 1.000000 1.000000
5797.369629 0.000000 2198.814697 0.000000 0.000000 0.000000 1.000000 1.000000 1.000000 1.000000
5726.120605 0.000000 2212.921631 0.000000 0.000000 0.000000 1.000000 1.000000 1.000000 1.000000
5763.285645 0.000000 2142.158447 0.000000 0.000000 0.000000 1.000000 1.000000 1.000000 1.000000
5945.377930 0.000000 2168.917969 0.000000 0.000000 0.000000 1.000000 1.000000 1.000000 1.000000
6001.962402 0.000000 2185.751465 0.000000 0.000000 0.000000 1.000000 1.000000 1.000000 1.000000
5954.396973 0.000000 2198.050293 0.000000 0.000000 0.000000 1.000000 1.000000 1.000000 1.000000
6081.811035 0.000000 2538.412842 0.000000 0.000000 0.000000 1.000000 1.000000 1.000000 1.000000
6114.170898 0.000000 2473.766602 0.000000 0.000000 0.000000 1.000000 1.000000 1.000000 1.000000
6072.372559 0.000000 2496.439697 0.000000 0.000000 0.000000 1.000000 1.000000 1.000000 1.000000
6147.433105 0.000000 2443.695801 0.000000 0.000000 0.000000 1.000000 1.000000 1.000000 1.000000
5494.405762 0.000000 1426.131714 0.000000 0.000000 0.000000 1.000000 1.000000 1.000000 1.000000
5352.643555 0.000000 1481.523926 0.000000 0.644320 0.000000 0.764756 1.000000 1.000000 1.000000
2060.577637 0.000000 2936.417725 0.000000 -0.325012 0.000000 0.945710 1.000000 1.000000 1.000000
2656.304443 0.000000 1955.247437 0.000000 0.000000 0.000000 1.000000 1.000000 1.000000 1.000000
2655.885986 0.000000 1893.231201 0.000000 0.000000 0.000000 1.000000 1.000000 1.000000 1.000000
2709.871582 0.000000 1914.453735 0.000000 0.000000 0.000000 1.000000 1.000000 1.000000 1.000000
6033.188965 0.000000 2359.178955 0.000000 0.000000 0.000000 1.000000 1.000000 1.000000 1.000000
6035.927734 0.000000 2288.575439 0.000000 0.000000 0.000000 1.000000 1.000000 1.000000 1.000000
6111.659668 0.000000 2323.466064 0.000000 0.000000 0.000000 1.000000 1.000000 1.000000 1.000000
6029.315918 0.000000 2403.732910 0.000000 0.000000 0.000000 1.000000 1.000000 1.000000 1.000000
"}
object={
	name="env_rolling_clouds"
	clamp_to_water_level=yes
	render_under_water=no
	generated_content=no
	layer="environmental_effects"
	entity="env_mist"
	count=27
	transform="4071.528320 0.000000 3258.767578 0.000000 0.000000 0.000000 1.000000 1.000000 1.000000 1.000000
4120.058594 0.000000 3294.028564 0.000000 0.000000 0.000000 1.000000 1.000000 1.000000 1.000000
4184.998047 0.000000 3323.510742 0.000000 0.000000 0.000000 1.000000 1.000000 1.000000 1.000000
4097.699707 0.000000 3314.788086 0.000000 0.000000 0.000000 1.000000 1.000000 1.000000 1.000000
4172.879883 0.000000 3275.777588 0.000000 0.000000 0.000000 1.000000 1.000000 1.000000 1.000000
4331.025879 0.000000 3277.693359 0.000000 0.000000 0.000000 1.000000 1.000000 1.000000 1.000000
4373.017578 0.000000 3266.489014 0.000000 0.000000 0.000000 1.000000 1.000000 1.000000 1.000000
4136.389648 0.000000 3339.086670 0.000000 0.000000 0.000000 1.000000 1.000000 1.000000 1.000000
4159.425781 0.000000 3364.615234 0.000000 0.000000 0.000000 1.000000 1.000000 1.000000 1.000000
4215.582031 0.000000 3323.867676 0.000000 0.000000 0.000000 1.000000 1.000000 1.000000 1.000000
6099.275879 -2.402832 2343.777588 0.000000 0.000000 0.000000 1.000000 1.000000 1.000000 1.000000
6047.765137 -2.966064 2345.414062 0.000000 0.000000 0.000000 1.000000 1.000000 1.000000 1.000000
6020.751465 -2.207275 2364.281006 0.000000 0.000000 0.000000 1.000000 1.000000 1.000000 1.000000
6019.208008 -2.350586 2305.741455 0.000000 0.000000 0.000000 1.000000 1.000000 1.000000 1.000000
6035.366211 -3.256836 2269.677002 0.000000 0.000000 0.000000 1.000000 1.000000 1.000000 1.000000
6078.298828 -2.647461 2281.806396 0.000000 0.000000 0.000000 1.000000 1.000000 1.000000 1.000000
6065.536621 -3.261719 2299.504883 0.000000 0.000000 0.000000 1.000000 1.000000 1.000000 1.000000
6022.980957 -2.759766 2412.759766 0.000000 0.000000 0.000000 1.000000 1.000000 1.000000 1.000000
6058.145020 -2.981201 2375.384766 0.000000 0.000000 0.000000 1.000000 1.000000 1.000000 1.000000
6098.277832 -0.085205 2310.281250 0.000000 0.000000 0.000000 1.000000 1.000000 1.000000 1.000000
6137.625488 -2.053955 2318.046875 0.000000 0.000000 0.000000 1.000000 1.000000 1.000000 1.000000
6125.546875 -2.552002 2324.074463 0.000000 0.000000 0.000000 1.000000 1.000000 1.000000 1.000000
6150.368652 -1.725098 2308.739014 0.000000 0.000000 0.000000 1.000000 1.000000 1.000000 1.000000
6115.559570 -2.239502 2323.668945 0.000000 0.000000 0.000000 1.000000 1.000000 1.000000 1.000000
6083.211914 -3.225830 2298.036865 0.000000 0.000000 0.000000 1.000000 1.000000 1.000000 1.000000
6044.982422 -2.250977 2299.434570 0.000000 0.000000 0.000000 1.000000 1.000000 1.000000 1.000000
2160.060547 0.000000 2091.281738 0.000000 0.000000 0.000000 1.000000 1.000000 1.000000 1.000000
"}
object={
	name="env_rolling_fog_mountain"
	clamp_to_water_level=no
	render_under_water=no
	generated_content=no
	layer="environmental_effects"
	entity="env_rolling_fog_mountain"
	count=54
	transform="6094.205566 0.000000 2488.859375 0.000000 0.000000 0.000000 1.000000 1.000000 1.000000 1.000000
6088.835449 0.000000 2522.038574 0.000000 0.000000 0.000000 1.000000 1.000000 1.000000 1.000000
6063.606445 0.000000 2522.416504 0.000000 0.000000 0.000000 1.000000 1.000000 1.000000 1.000000
6107.302734 0.000000 2467.668945 0.000000 0.000000 0.000000 1.000000 1.000000 1.000000 1.000000
6091.820312 0.000000 2523.166748 0.000000 0.000000 0.000000 1.000000 1.000000 1.000000 1.000000
6083.692383 0.000000 2529.909668 0.000000 0.000000 0.000000 1.000000 1.000000 1.000000 1.000000
6054.737305 0.000000 2525.492188 0.000000 0.000000 0.000000 1.000000 1.000000 1.000000 1.000000
6048.104492 0.000000 2525.774170 0.000000 0.000000 0.000000 1.000000 1.000000 1.000000 1.000000
6026.271484 0.000000 2542.463379 0.000000 0.000000 0.000000 1.000000 1.000000 1.000000 1.000000
6030.849121 0.000000 2553.076172 0.000000 0.000000 0.000000 1.000000 1.000000 1.000000 1.000000
6046.109863 0.000000 2561.074951 0.000000 0.000000 0.000000 1.000000 1.000000 1.000000 1.000000
6086.329590 0.000000 2509.595459 0.000000 0.000000 0.000000 1.000000 1.000000 1.000000 1.000000
6075.911621 0.000000 2488.390381 0.000000 0.000000 0.000000 1.000000 1.000000 1.000000 1.000000
6071.075684 0.000000 2481.618896 0.000000 0.000000 0.000000 1.000000 1.000000 1.000000 1.000000
6065.845215 0.000000 2491.228516 0.000000 0.000000 0.000000 1.000000 1.000000 1.000000 1.000000
6061.312988 0.000000 2499.650635 0.000000 0.000000 0.000000 1.000000 1.000000 1.000000 1.000000
6103.350098 0.000000 2467.054932 0.000000 0.000000 0.000000 1.000000 1.000000 1.000000 1.000000
6094.551270 0.000000 2468.013672 0.000000 0.000000 0.000000 1.000000 1.000000 1.000000 1.000000
6084.285156 0.000000 2464.326904 0.000000 0.000000 0.000000 1.000000 1.000000 1.000000 1.000000
6137.546875 0.000000 2447.810791 0.000000 0.000000 0.000000 1.000000 1.000000 1.000000 1.000000
6134.157715 0.000000 2458.813232 0.000000 0.000000 0.000000 1.000000 1.000000 1.000000 1.000000
6130.833984 0.000000 2452.779541 0.000000 0.000000 0.000000 1.000000 1.000000 1.000000 1.000000
6126.939453 0.000000 2466.440674 0.000000 0.000000 0.000000 1.000000 1.000000 1.000000 1.000000
6131.396973 0.000000 2477.123535 0.000000 0.000000 0.000000 1.000000 1.000000 1.000000 1.000000
6143.148438 0.000000 2467.003418 0.000000 0.000000 0.000000 1.000000 1.000000 1.000000 1.000000
6155.107422 0.000000 2455.577393 0.000000 0.000000 0.000000 1.000000 1.000000 1.000000 1.000000
6162.259766 0.000000 2444.504883 0.000000 0.000000 0.000000 1.000000 1.000000 1.000000 1.000000
6169.457520 0.000000 2430.817139 0.000000 0.000000 0.000000 1.000000 1.000000 1.000000 1.000000
6160.653320 0.000000 2424.490479 0.000000 0.000000 0.000000 1.000000 1.000000 1.000000 1.000000
6169.697266 0.000000 2413.457764 0.000000 0.000000 0.000000 1.000000 1.000000 1.000000 1.000000
6199.062012 0.000000 2422.488770 0.000000 0.000000 0.000000 1.000000 1.000000 1.000000 1.000000
6211.725098 0.000000 2432.009521 0.000000 0.000000 0.000000 1.000000 1.000000 1.000000 1.000000
6229.598145 0.000000 2440.694580 0.000000 0.000000 0.000000 1.000000 1.000000 1.000000 1.000000
6134.791992 0.000000 2421.870605 0.000000 0.000000 0.000000 1.000000 1.000000 1.000000 1.000000
6111.721680 0.000000 2495.936523 0.000000 0.000000 0.000000 1.000000 1.000000 1.000000 1.000000
6100.791504 0.000000 2510.047607 0.000000 0.000000 0.000000 1.000000 1.000000 1.000000 1.000000
6093.359375 0.000000 2506.409180 0.000000 0.000000 0.000000 1.000000 1.000000 1.000000 1.000000
6089.139160 0.000000 2514.156250 0.000000 0.000000 0.000000 1.000000 1.000000 1.000000 1.000000
6086.101074 0.000000 2510.289307 0.000000 0.000000 0.000000 1.000000 1.000000 1.000000 1.000000
6113.815430 0.000000 2513.876465 0.000000 0.000000 0.000000 1.000000 1.000000 1.000000 1.000000
6120.761230 0.000000 2510.859619 0.000000 0.000000 0.000000 1.000000 1.000000 1.000000 1.000000
6123.128418 0.000000 2492.023438 0.000000 0.000000 0.000000 1.000000 1.000000 1.000000 1.000000
6116.823242 0.000000 2495.710938 0.000000 0.000000 0.000000 1.000000 1.000000 1.000000 1.000000
6124.220215 0.000000 2533.218994 0.000000 0.000000 0.000000 1.000000 1.000000 1.000000 1.000000
6123.486816 0.000000 2542.895264 0.000000 0.000000 0.000000 1.000000 1.000000 1.000000 1.000000
6116.088867 0.000000 2550.282471 0.000000 0.000000 0.000000 1.000000 1.000000 1.000000 1.000000
6108.733887 0.000000 2548.419189 0.000000 0.000000 0.000000 1.000000 1.000000 1.000000 1.000000
6109.567383 0.000000 2533.877197 0.000000 0.000000 0.000000 1.000000 1.000000 1.000000 1.000000
6249.666504 0.000000 2249.086914 0.000000 0.000000 0.000000 1.000000 1.000000 1.000000 1.000000
6223.688477 0.000000 2256.193359 0.000000 0.000000 0.000000 1.000000 1.000000 1.000000 1.000000
6196.079590 0.000000 2274.198730 0.000000 0.000000 0.000000 1.000000 1.000000 1.000000 1.000000
6176.156250 0.000000 2288.522949 0.000000 0.000000 0.000000 1.000000 1.000000 1.000000 1.000000
6208.915527 0.000000 2261.477783 0.000000 0.000000 0.000000 1.000000 1.000000 1.000000 1.000000
6283.438477 0.000000 2231.213623 0.000000 0.000000 0.000000 1.000000 1.000000 1.000000 1.000000
"}
object={
	name="env_rough_water"
	clamp_to_water_level=yes
	render_under_water=no
	generated_content=no
	layer="environmental_effects"
	entity="env_rough_water"
	count=1
	transform="3908.128906 0.000000 3137.785156 0.000000 -0.980180 0.000000 0.198109 1.000000 1.000000 1.000000
"}
object={
	name="env_sandstorm_obj"
	clamp_to_water_level=no
	render_under_water=no
	generated_content=no
	layer="environmental_effects"
	entity="env_sandstorm"
	count=5
	transform="5722.092773 0.000000 2366.144531 0.000000 0.000000 0.000000 1.000000 1.000000 1.000000 1.000000
5407.239258 0.000000 2351.763428 0.000000 0.000000 0.000000 1.000000 1.000000 1.000000 1.000000
5307.516602 0.000000 2351.672607 0.000000 0.000000 0.000000 1.000000 1.000000 1.000000 1.000000
5360.844238 0.000000 2238.349365 0.000000 0.000000 0.000000 1.000000 1.000000 1.000000 1.000000
5173.653320 0.000000 2286.984863 0.000000 0.000000 0.000000 1.000000 1.000000 1.000000 1.000000
"}
object={
	name="env_sandstorm_small"
	clamp_to_water_level=no
	render_under_water=no
	generated_content=no
	layer="environmental_effects"
	entity="env_sandstorm_small"
	count=2
	transform="5478.765137 0.000000 2230.724121 0.000000 0.000000 0.000000 1.000000 1.000000 1.000000 1.000000
5453.258301 0.000000 2215.019775 0.000000 0.000000 0.000000 1.000000 1.000000 1.000000 1.000000
"}
object={
	name="env_snow_01_obj"
	clamp_to_water_level=no
	render_under_water=yes
	generated_content=no
	layer="environmental_effects"
	entity="env_snow_01"
	count=8
	transform="2338.052979 0.000000 2978.854248 0.000000 0.000000 0.000000 1.000000 1.000000 1.000000 1.000000
2184.697510 0.000000 2852.357422 0.000000 0.000000 0.000000 1.000000 1.000000 1.000000 1.000000
2267.043457 0.000000 2870.118652 0.000000 0.000000 0.000000 1.000000 1.000000 1.000000 1.000000
2261.742432 0.000000 2777.747070 0.000000 0.000000 0.000000 1.000000 1.000000 1.000000 1.000000
2400.773682 0.000000 2795.088623 0.000000 0.000000 0.000000 1.000000 1.000000 1.000000 1.000000
2344.511475 0.000000 2858.221191 0.000000 0.000000 0.000000 1.000000 1.000000 1.000000 1.000000
2356.135986 0.000000 2976.567139 0.000000 0.000000 0.000000 1.000000 1.000000 1.000000 1.000000
2432.043457 0.000000 2981.181152 0.000000 0.000000 0.000000 1.000000 1.000000 1.000000 1.000000
"}
object={
	name="env_snow_02_obj"
	clamp_to_water_level=no
	render_under_water=yes
	generated_content=no
	layer="environmental_effects"
	entity="env_snow_02"
	count=0
}
object={
	name="env_snow_fall"
	clamp_to_water_level=no
	render_under_water=no
	generated_content=no
	layer="environmental_effects"
	entity="env_snow_fall"
	count=10
	transform="2323.064209 0.000000 2876.186279 0.000000 0.000000 0.000000 1.000000 1.000000 1.000000 1.000000
4222.107422 0.000000 3397.815674 0.000000 0.000000 0.000000 1.000000 1.000000 1.000000 1.000000
4312.548828 0.000000 3412.947021 0.000000 0.000000 0.000000 1.000000 1.000000 1.000000 1.000000
4449.784180 0.000000 3395.244629 0.000000 0.000000 0.000000 1.000000 1.000000 1.000000 1.000000
4554.888184 0.000000 3394.135010 0.000000 0.000000 0.000000 1.000000 1.000000 1.000000 1.000000
4655.786621 0.000000 3380.798584 0.000000 0.000000 0.000000 1.000000 1.000000 1.000000 1.000000
4763.116211 0.000000 3378.251465 0.000000 0.000000 0.000000 1.000000 1.000000 1.000000 1.000000
4881.955566 0.000000 3379.921875 0.000000 0.000000 0.000000 1.000000 1.000000 1.000000 1.000000
5036.339355 0.000000 3369.724854 0.000000 0.000000 0.000000 1.000000 1.000000 1.000000 1.000000
1092.406860 0.000000 3015.883301 0.000000 0.259537 0.000000 0.965733 1.000000 1.000000 1.000000
"}
object={
	name="env_snow_fall_small"
	clamp_to_water_level=no
	render_under_water=no
	generated_content=no
	layer="environmental_effects"
	entity="env_snow_fall_small"
	count=2
	transform="2435.549561 0.000000 3155.908447 0.000000 0.000000 0.000000 1.000000 1.000000 1.000000 1.000000
2530.335449 0.000000 3096.082031 0.000000 0.000000 0.000000 1.000000 1.000000 1.000000 1.000000
"}
object={
	name="env_swamp_fog"
	clamp_to_water_level=no
	render_under_water=no
	generated_content=no
	layer="environmental_effects"
	entity="env_swamp_fog"
	count=38
	transform="6416.838379 0.000000 2403.921143 0.000000 0.000000 0.000000 1.000000 1.000000 1.000000 1.000000
6402.207520 0.000000 2407.966553 0.000000 0.000000 0.000000 1.000000 1.000000 1.000000 1.000000
6080.976562 0.000000 2514.764160 0.000000 0.000000 0.000000 1.000000 1.000000 1.000000 1.000000
6109.066895 0.000000 2516.145508 0.000000 0.000000 0.000000 1.000000 1.000000 1.000000 1.000000
6071.265137 0.000000 2537.999268 0.000000 0.000000 0.000000 1.000000 1.000000 1.000000 1.000000
6061.105957 0.000000 2541.729248 0.000000 0.000000 0.000000 1.000000 1.000000 1.000000 1.000000
6065.797363 0.000000 2534.054199 0.000000 0.000000 0.000000 1.000000 1.000000 1.000000 1.000000
6043.914551 0.000000 2542.136230 0.000000 0.000000 0.000000 1.000000 1.000000 1.000000 1.000000
6056.145020 0.000000 2542.629639 0.000000 0.000000 0.000000 1.000000 1.000000 1.000000 1.000000
6047.927734 0.000000 2553.729736 0.000000 0.000000 0.000000 1.000000 1.000000 1.000000 1.000000
6070.070801 0.000000 2553.187988 0.000000 0.000000 0.000000 1.000000 1.000000 1.000000 1.000000
6079.699707 0.000000 2549.964355 0.000000 0.000000 0.000000 1.000000 1.000000 1.000000 1.000000
6097.561035 0.000000 2546.039307 0.000000 0.000000 0.000000 1.000000 1.000000 1.000000 1.000000
6108.416992 0.000000 2543.130127 0.000000 0.000000 0.000000 1.000000 1.000000 1.000000 1.000000
6119.987305 0.000000 2529.722900 0.000000 0.000000 0.000000 1.000000 1.000000 1.000000 1.000000
6105.158203 0.000000 2527.963623 0.000000 0.000000 0.000000 1.000000 1.000000 1.000000 1.000000
6115.583008 0.000000 2512.445312 0.000000 0.000000 0.000000 1.000000 1.000000 1.000000 1.000000
6112.532227 0.000000 2497.563721 0.000000 0.000000 0.000000 1.000000 1.000000 1.000000 1.000000
6121.748535 0.000000 2489.522217 0.000000 0.000000 0.000000 1.000000 1.000000 1.000000 1.000000
6102.626953 0.000000 2497.067871 0.000000 0.000000 0.000000 1.000000 1.000000 1.000000 1.000000
6080.321289 0.000000 2498.880859 0.000000 0.000000 0.000000 1.000000 1.000000 1.000000 1.000000
6095.984375 0.000000 2484.796387 0.000000 0.000000 0.000000 1.000000 1.000000 1.000000 1.000000
6115.606445 0.000000 2476.411133 0.000000 0.000000 0.000000 1.000000 1.000000 1.000000 1.000000
6127.979980 0.000000 2471.307617 0.000000 0.000000 0.000000 1.000000 1.000000 1.000000 1.000000
6140.711426 0.000000 2463.500732 0.000000 0.000000 0.000000 1.000000 1.000000 1.000000 1.000000
6150.115234 0.000000 2446.568848 0.000000 0.000000 0.000000 1.000000 1.000000 1.000000 1.000000
6127.218262 0.000000 2456.723877 0.000000 0.000000 0.000000 1.000000 1.000000 1.000000 1.000000
6095.494141 0.000000 2472.513184 0.000000 0.000000 0.000000 1.000000 1.000000 1.000000 1.000000
6072.437500 0.000000 2484.941650 0.000000 0.000000 0.000000 1.000000 1.000000 1.000000 1.000000
6059.617188 0.000000 2503.335938 0.000000 0.000000 0.000000 1.000000 1.000000 1.000000 1.000000
6166.326172 0.000000 2436.523926 0.000000 0.000000 0.000000 1.000000 1.000000 1.000000 1.000000
6149.973145 0.000000 2448.468262 0.000000 0.000000 0.000000 1.000000 1.000000 1.000000 1.000000
6148.187012 0.000000 2432.195312 0.000000 0.000000 0.000000 1.000000 1.000000 1.000000 1.000000
6129.054199 0.000000 2447.554688 0.000000 0.000000 0.000000 1.000000 1.000000 1.000000 1.000000
1722.507446 0.000000 2881.960938 0.000000 0.000000 0.000000 1.000000 1.000000 1.000000 1.000000
4080.673096 0.000000 3289.287354 0.000000 0.000000 0.000000 1.000000 1.000000 1.000000 1.000000
1218.908569 0.000000 2997.325928 0.000000 0.575753 0.000000 0.817623 1.000000 1.000000 1.000000
1201.264160 0.000000 3013.547119 0.000000 0.094099 0.000000 0.995563 1.000000 1.000000 1.000000
"}
object={
	name="env_tropical_rain"
	clamp_to_water_level=no
	render_under_water=no
	generated_content=no
	layer="environmental_effects"
	entity="env_tropical_rain_entity"
	count=0
}
object={
	name="env_tropical_rain_dense"
	clamp_to_water_level=no
	render_under_water=no
	generated_content=no
	layer="environmental_effects"
	entity="env_tropical_rain_dense_entity"
	count=1
	transform="2156.882812 0.000000 2081.987061 0.000000 0.000000 0.000000 1.000000 1.000000 1.000000 1.000000
"}
object={
	name="env_volcano_idle_obj"
	clamp_to_water_level=no
	render_under_water=no
	generated_content=no
	layer="environmental_effects"
	entity="env_volcano_idle"
	count=3
	transform="2437.017334 0.000000 3155.063477 0.000000 -0.512784 0.000000 0.858518 1.000000 1.000000 1.000000
769.825562 0.000000 2770.689453 0.000000 0.098450 0.000000 0.995142 1.000000 1.000000 1.000000
2163.333984 0.000000 2084.436768 0.000000 0.000000 0.000000 1.000000 1.000000 1.000000 1.000000
"}
object={
	name="env_waterfall_bottom"
	clamp_to_water_level=no
	render_under_water=yes
	generated_content=no
	layer="environmental_effects"
	entity="env_waterfall_02"
	count=3
	transform="1939.196045 0.000000 2596.277588 0.000000 0.000000 0.000000 1.000000 1.000000 1.000000 1.000000
4360.412109 0.000000 3345.990234 0.000000 0.000000 0.000000 1.000000 1.000000 1.000000 1.000000
5840.046875 0.000000 2557.430664 0.000000 0.569592 0.000000 -0.821928 1.000000 1.000000 1.000000
"}
object={
	name="env_waterfall_top"
	clamp_to_water_level=no
	render_under_water=yes
	generated_content=no
	layer="environmental_effects"
	entity="env_waterfall_01"
	count=5
	transform="1937.940063 0.000000 2596.544678 0.000000 -0.569988 0.000000 0.821653 1.339934 1.339934 1.339934
4360.497070 0.000000 3346.527588 0.000000 0.000000 0.000000 1.000000 1.000000 1.000000 1.000000
5838.760254 -0.761719 2557.551514 0.000000 -0.647256 0.000000 0.762272 1.000000 1.000000 1.000000
5838.808594 -0.785400 2558.148193 0.000000 -0.514745 0.000000 0.857343 1.000000 1.000000 1.000000
5838.664551 -0.752686 2557.161133 0.000000 -0.674055 0.000000 0.738681 1.000000 1.000000 1.000000
"}
object={
	name="rock_granite_river_01_entity"
	clamp_to_water_level=no
	render_under_water=yes
	generated_content=no
	layer="environmental_effects"
	entity="rock_granite_river_01_entity"
	count=0
}
object={
	name="sfx_rain_emitter"
	clamp_to_water_level=no
	render_under_water=no
	generated_content=no
	layer="environmental_effects"
	entity="vfx_rain_emitter"
	count=10
	transform="4166.766602 0.000000 3316.161377 0.000000 0.000000 0.000000 1.000000 1.000000 1.000000 1.000000
4176.618652 0.000000 3322.790039 0.000000 0.000000 0.000000 1.000000 1.000000 1.000000 1.000000
4083.162842 0.000000 3288.365723 0.000000 0.000000 0.000000 1.000000 1.000000 1.000000 1.000000
3937.708496 0.000000 3143.130127 0.000000 0.000000 0.000000 1.000000 1.000000 1.000000 1.000000
3984.199707 0.000000 3118.253662 0.000000 0.000000 0.000000 1.000000 1.000000 1.000000 1.000000
3941.892090 0.000000 3084.853760 0.000000 0.000000 0.000000 1.000000 1.000000 1.000000 1.000000
4052.602051 0.000000 3138.391113 0.000000 0.000000 0.000000 1.000000 1.000000 1.000000 1.000000
4040.561035 0.000000 3166.533691 0.000000 0.000000 0.000000 1.000000 1.000000 1.000000 1.000000
4038.747314 0.000000 3152.646973 0.000000 0.000000 0.000000 1.000000 1.000000 1.000000 1.000000
4052.548828 0.000000 3139.337158 0.000000 0.000000 0.000000 1.000000 1.000000 1.000000 1.000000
"}
object={
	name="sfx_sandstorm_emitter"
	clamp_to_water_level=no
	render_under_water=no
	generated_content=no
	layer="environmental_effects"
	entity="vfx_sandstorm_emitter"
	count=0
}
object={
	name="sfx_snowstorm_emitter"
	clamp_to_water_level=no
	render_under_water=no
	generated_content=no
	layer="environmental_effects"
	entity="vfx_snowstorm_emitter"
	count=4
	transform="4339.439453 0.000000 3313.629150 0.000000 0.000000 0.000000 1.000000 1.000000 1.000000 1.000000
4339.231934 0.000000 3312.271240 0.000000 0.000000 0.000000 1.000000 1.000000 1.000000 1.000000
4344.317383 0.000000 3315.506104 0.000000 0.000000 0.000000 1.000000 1.000000 1.000000 1.000000
4348.616699 0.000000 3317.143555 0.000000 0.000000 0.000000 1.000000 1.000000 1.000000 1.000000
"}
