﻿game_object_locator={
	name="port"
	clamp_to_water_level=yes
	render_under_water=no
	generated_content=no
	layer="locators"
	instances={
		{
			id=1
			position={ 4116.344238 0.000000 2787.887695 }
			rotation={ -0.000000 -0.998975 -0.000000 0.045266 }
			scale={ 1.000000 1.000000 1.000000 }
		}
		{
			id=2
			position={ 4149.389648 0.000000 2741.077637 }
			rotation={ -0.000000 -0.986433 -0.000000 0.164166 }
			scale={ 1.000000 1.000000 1.000000 }
		}
		{
			id=3
			position={ 4152.399902 0.000000 2714.103027 }
			rotation={ -0.000000 -0.912774 -0.000000 0.408466 }
			scale={ 1.000000 1.000000 1.000000 }
		}
		{
			id=6
			position={ 4146.653809 0.000000 2677.806885 }
			rotation={ -0.000000 -0.515166 -0.000000 0.857091 }
			scale={ 1.000000 1.000000 1.000000 }
		}
		{
			id=7
			position={ 4206.467773 0.000000 2642.000488 }
			rotation={ -0.000000 -0.502185 -0.000000 0.864760 }
			scale={ 1.000000 1.000000 1.000000 }
		}
		{
			id=8
			position={ 4195.633789 0.000000 2776.514160 }
			rotation={ -0.000000 -0.947725 -0.000000 0.319089 }
			scale={ 1.000000 1.000000 1.000000 }
		}
		{
			id=12
			position={ 4196.310059 0.000000 2811.517822 }
			rotation={ -0.000000 -0.821890 -0.000000 0.569646 }
			scale={ 1.000000 1.000000 1.000000 }
		}
		{
			id=13
			position={ 4191.899902 0.000000 2914.289307 }
			rotation={ -0.000000 -0.382008 -0.000000 0.924159 }
			scale={ 1.000000 1.000000 1.000000 }
		}
		{
			id=18
			position={ 4067.751953 0.000000 2744.020264 }
			rotation={ -0.000000 -0.996473 -0.000000 -0.083916 }
			scale={ 1.000000 1.000000 1.000000 }
		}
		{
			id=19
			position={ 4090.317871 0.000000 2703.028076 }
			rotation={ -0.000000 0.408355 -0.000000 0.912823 }
			scale={ 1.000000 1.000000 1.000000 }
		}
		{
			id=20
			position={ 4072.188721 0.000000 2669.919678 }
			rotation={ -0.000000 -0.065564 -0.000000 0.997849 }
			scale={ 1.000000 1.000000 1.000000 }
		}
		{
			id=22
			position={ 4071.165771 0.000000 2812.238525 }
			rotation={ -0.000000 0.553767 -0.000000 0.832672 }
			scale={ 1.000000 1.000000 1.000000 }
		}
		{
			id=25
			position={ 4358.210449 0.000000 2654.473389 }
			rotation={ -0.000000 -0.355460 -0.000000 0.934692 }
			scale={ 1.000000 1.000000 1.000000 }
		}
		{
			id=26
			position={ 4371.136719 0.000000 2674.330566 }
			rotation={ -0.000000 0.722556 -0.000000 0.691312 }
			scale={ 1.000000 1.000000 1.000000 }
		}
		{
			id=36
			position={ 4422.087891 0.000000 2681.159424 }
			rotation={ -0.000000 0.127397 -0.000000 0.991852 }
			scale={ 1.000000 1.000000 1.000000 }
		}
		{
			id=37
			position={ 4008.420166 0.000000 2722.686035 }
			rotation={ -0.000000 -0.464899 -0.000000 0.885364 }
			scale={ 1.000000 1.000000 1.000000 }
		}
		{
			id=38
			position={ 3988.239746 0.000000 2742.083496 }
			rotation={ -0.000000 -0.398335 -0.000000 0.917240 }
			scale={ 1.000000 1.000000 1.000000 }
		}
		{
			id=39
			position={ 3968.506104 0.000000 2715.763672 }
			rotation={ -0.000000 -0.894710 -0.000000 -0.446648 }
			scale={ 1.000000 1.000000 1.000000 }
		}
		{
			id=41
			position={ 3973.376953 0.000000 2700.691162 }
			rotation={ -0.000000 0.474197 -0.000000 0.880419 }
			scale={ 1.000000 1.000000 1.000000 }
		}
		{
			id=42
			position={ 3875.835205 0.000000 2660.345215 }
			rotation={ -0.000000 0.248380 -0.000000 0.968663 }
			scale={ 1.000000 1.000000 1.000000 }
		}
		{
			id=43
			position={ 3841.113525 0.000000 2735.718262 }
			rotation={ -0.000000 0.901487 -0.000000 -0.432807 }
			scale={ 1.000000 1.000000 1.000000 }
		}
		{
			id=44
			position={ 3854.479736 0.000000 2791.720459 }
			rotation={ -0.000000 -0.237221 -0.000000 0.971456 }
			scale={ 1.000000 1.000000 1.000000 }
		}
		{
			id=46
			position={ 3869.847412 0.000000 2839.875488 }
			rotation={ -0.000000 -0.939780 -0.000000 0.341781 }
			scale={ 1.000000 1.000000 1.000000 }
		}
		{
			id=48
			position={ 4251.149414 0.000000 2567.725098 }
			rotation={ -0.000000 -0.401775 -0.000000 0.915739 }
			scale={ 1.000000 1.000000 1.000000 }
		}
		{
			id=49
			position={ 4317.525879 0.000000 2592.531494 }
			rotation={ -0.000000 0.938732 -0.000000 0.344650 }
			scale={ 1.000000 1.000000 1.000000 }
		}
		{
			id=50
			position={ 4301.735352 0.000000 2571.378174 }
			rotation={ -0.000000 0.681101 -0.000000 0.732190 }
			scale={ 1.000000 1.000000 1.000000 }
		}
		{
			id=51
			position={ 4277.073730 0.000000 2514.868408 }
			rotation={ -0.000000 0.708185 -0.000000 0.706027 }
			scale={ 1.000000 1.000000 1.000000 }
		}
		{
			id=60
			position={ 4095.295654 0.000000 2876.460938 }
			rotation={ -0.000000 0.539148 -0.000000 0.842211 }
			scale={ 1.000000 1.000000 1.000000 }
		}
		{
			id=61
			position={ 4077.868652 0.000000 2842.205811 }
			rotation={ -0.000000 0.522415 -0.000000 0.852692 }
			scale={ 1.000000 1.000000 1.000000 }
		}
		{
			id=63
			position={ 3892.488281 0.000000 2886.017090 }
			rotation={ -0.000000 -0.907692 -0.000000 0.419636 }
			scale={ 1.000000 1.000000 1.000000 }
		}
		{
			id=64
			position={ 3912.023193 0.000000 2901.723633 }
			rotation={ -0.000000 -0.986678 -0.000000 0.162689 }
			scale={ 1.000000 1.000000 1.000000 }
		}
		{
			id=65
			position={ 3940.621582 0.000000 2943.512451 }
			rotation={ -0.000000 -0.989282 -0.000000 0.146022 }
			scale={ 1.000000 1.000000 1.000000 }
		}
		{
			id=66
			position={ 3878.270508 0.000000 2977.312012 }
			rotation={ -0.000000 -0.909517 -0.000000 0.415665 }
			scale={ 1.000000 1.000000 1.000000 }
		}
		{
			id=67
			position={ 3842.987061 0.000000 2939.783936 }
			rotation={ -0.000000 -0.981211 -0.000000 -0.192935 }
			scale={ 1.000000 1.000000 1.000000 }
		}
		{
			id=68
			position={ 3968.794678 0.000000 3046.694092 }
			rotation={ -0.000000 -0.994213 -0.000000 0.107427 }
			scale={ 1.000000 1.000000 1.000000 }
		}
		{
			id=69
			position={ 3927.307129 0.000000 3156.384766 }
			rotation={ -0.000000 -0.180376 -0.000000 0.983598 }
			scale={ 1.000000 1.000000 1.000000 }
		}
		{
			id=72
			position={ 4135.437500 0.000000 2926.349365 }
			rotation={ 0.000000 0.707107 0.000000 0.707107 }
			scale={ 1.000000 1.000000 1.000000 }
		}
		{
			id=73
			position={ 4168.531250 0.000000 2934.036865 }
			rotation={ -0.000000 -0.394160 -0.000000 0.919042 }
			scale={ 1.000000 1.000000 1.000000 }
		}
		{
			id=79
			position={ 4050.691162 0.000000 3053.321045 }
			rotation={ -0.000000 0.924287 -0.000000 -0.381700 }
			scale={ 1.000000 1.000000 1.000000 }
		}
		{
			id=80
			position={ 4060.147705 0.000000 3094.786377 }
			rotation={ -0.000000 0.218224 -0.000000 -0.975899 }
			scale={ 1.000000 1.000000 1.000000 }
		}
		{
			id=81
			position={ 4139.070801 0.000000 3167.663574 }
			rotation={ -0.000000 0.180157 -0.000000 -0.983638 }
			scale={ 1.000000 1.000000 1.000000 }
		}
		{
			id=83
			position={ 4254.127441 0.000000 3139.958252 }
			rotation={ -0.000000 -0.879129 -0.000000 -0.476584 }
			scale={ 1.000000 1.000000 1.000000 }
		}
		{
			id=84
			position={ 4303.892090 0.000000 3101.890625 }
			rotation={ -0.000000 -1.000000 -0.000000 -0.000000 }
			scale={ 1.000000 1.000000 1.000000 }
		}
		{
			id=122
			position={ 4363.923340 0.000000 3084.557373 }
			rotation={ -0.000000 0.687817 -0.000000 -0.725884 }
			scale={ 1.000000 1.000000 1.000000 }
		}
		{
			id=123
			position={ 4363.381836 0.000000 3132.200439 }
			rotation={ -0.000000 0.861369 -0.000000 -0.507981 }
			scale={ 1.000000 1.000000 1.000000 }
		}
		{
			id=124
			position={ 4445.550781 0.000000 3132.964844 }
			rotation={ -0.000000 -0.925459 -0.000000 0.378847 }
			scale={ 1.000000 1.000000 1.000000 }
		}
		{
			id=125
			position={ 4457.592773 0.000000 3137.480225 }
			rotation={ -0.000000 -0.765856 -0.000000 0.643012 }
			scale={ 1.000000 1.000000 1.000000 }
		}
		{
			id=128
			position={ 4378.967285 0.000000 3251.446777 }
			rotation={ -0.000000 -0.245277 -0.000000 0.969454 }
			scale={ 1.000000 1.000000 1.000000 }
		}
		{
			id=129
			position={ 4334.427246 0.000000 3262.031982 }
			rotation={ -0.000000 0.084066 -0.000000 0.996461 }
			scale={ 1.000000 1.000000 1.000000 }
		}
		{
			id=130
			position={ 4290.576172 0.000000 3216.994385 }
			rotation={ -0.000000 0.338052 -0.000000 0.941128 }
			scale={ 1.000000 1.000000 1.000000 }
		}
		{
			id=131
			position={ 4134.790527 0.000000 3249.325439 }
			rotation={ -0.000000 0.160916 -0.000000 0.986968 }
			scale={ 1.000000 1.000000 1.000000 }
		}
		{
			id=132
			position={ 4111.279785 0.000000 3239.028320 }
			rotation={ -0.000000 -0.418253 -0.000000 0.908331 }
			scale={ 1.000000 1.000000 1.000000 }
		}
		{
			id=133
			position={ 4080.635010 0.000000 3243.086914 }
			rotation={ -0.000000 0.032341 -0.000000 0.999477 }
			scale={ 1.000000 1.000000 1.000000 }
		}
		{
			id=136
			position={ 3936.887939 0.000000 3411.527832 }
			rotation={ -0.000000 0.131543 -0.000000 0.991311 }
			scale={ 1.000000 1.000000 1.000000 }
		}
		{
			id=141
			position={ 3821.630371 0.000000 2642.125488 }
			rotation={ -0.000000 0.604621 -0.000000 0.796514 }
			scale={ 1.000000 1.000000 1.000000 }
		}
		{
			id=142
			position={ 4212.488770 0.000000 2837.988037 }
			rotation={ -0.000000 -0.936161 -0.000000 0.351571 }
			scale={ 1.000000 1.000000 1.000000 }
		}
		{
			id=146
			position={ 4504.000000 0.000000 2626.000000 }
			rotation={ -0.000000 -0.000000 -0.000000 1.000000 }
			scale={ 1.000000 1.000000 1.000000 }
		}
		{
			id=153
			position={ 3466.000000 0.000000 3103.000000 }
			rotation={ 0.000000 0.707107 0.000000 0.707107 }
			scale={ 1.000000 1.000000 1.000000 }
		}
		{
			id=200
			position={ 3172.735840 0.000000 2448.008057 }
			rotation={ -0.000000 0.404899 -0.000000 0.914362 }
			scale={ 1.000000 1.000000 1.000000 }
		}
		{
			id=203
			position={ 2496.105713 0.000000 2603.868652 }
			rotation={ -0.000000 0.940340 -0.000000 -0.340238 }
			scale={ 1.000000 1.000000 1.000000 }
		}
		{
			id=204
			position={ 2996.804688 0.000000 2305.193359 }
			rotation={ -0.000000 -0.401070 -0.000000 -0.916047 }
			scale={ 1.000000 1.000000 1.000000 }
		}
		{
			id=205
			position={ 2859.000000 0.000000 2399.000000 }
			rotation={ -0.000000 -0.912934 -0.000000 -0.408107 }
			scale={ 1.000000 1.000000 1.000000 }
		}
		{
			id=206
			position={ 2667.099365 0.000000 2479.552734 }
			rotation={ -0.000000 -0.823227 -0.000000 0.567713 }
			scale={ 1.000000 1.000000 1.000000 }
		}
		{
			id=207
			position={ 2594.143311 0.000000 2443.128174 }
			rotation={ -0.000000 0.824075 -0.000000 0.566481 }
			scale={ 1.000000 1.000000 1.000000 }
		}
		{
			id=209
			position={ 2649.332031 0.000000 2274.111328 }
			rotation={ -0.000000 -0.059078 -0.000000 0.998253 }
			scale={ 1.000000 1.000000 1.000000 }
		}
		{
			id=210
			position={ 3153.821045 0.000000 2265.215332 }
			rotation={ -0.000000 -0.869716 -0.000000 0.493553 }
			scale={ 1.000000 1.000000 1.000000 }
		}
		{
			id=212
			position={ 2627.634033 0.000000 2208.333252 }
			rotation={ -0.000000 -0.253134 -0.000000 0.967432 }
			scale={ 1.000000 1.000000 1.000000 }
		}
		{
			id=213
			position={ 2583.697021 0.000000 1826.296997 }
			rotation={ -0.000000 0.406767 -0.000000 0.913532 }
			scale={ 1.000000 1.000000 1.000000 }
		}
		{
			id=214
			position={ 2831.854004 0.064209 2009.196045 }
			rotation={ -0.000000 -0.703838 -0.000000 -0.710361 }
			scale={ 1.000000 1.000000 1.000000 }
		}
		{
			id=215
			position={ 2770.007080 0.000000 1779.603516 }
			rotation={ -0.000000 0.344768 -0.000000 0.938688 }
			scale={ 1.000000 1.000000 1.000000 }
		}
		{
			id=216
			position={ 2575.484619 0.000000 1905.561279 }
			rotation={ -0.000000 0.696758 -0.000000 -0.717307 }
			scale={ 1.000000 1.000000 1.000000 }
		}
		{
			id=217
			position={ 2644.873535 0.000000 2015.865601 }
			rotation={ -0.000000 -0.497425 -0.000000 0.867507 }
			scale={ 1.000000 1.000000 1.000000 }
		}
		{
			id=218
			position={ 2308.567383 0.000000 2305.062988 }
			rotation={ -0.000000 -0.003542 -0.000000 0.999994 }
			scale={ 1.000000 1.000000 1.000000 }
		}
		{
			id=219
			position={ 2160.592285 0.000000 2104.569336 }
			rotation={ -0.000000 0.711106 -0.000000 -0.703085 }
			scale={ 1.000000 1.000000 1.000000 }
		}
		{
			id=220
			position={ 2058.567383 0.186279 2067.707031 }
			rotation={ -0.000000 -0.239004 -0.000000 -0.971019 }
			scale={ 1.000000 1.000000 1.000000 }
		}
		{
			id=221
			position={ 1971.733276 0.000000 1982.670044 }
			rotation={ -0.000000 -0.052555 -0.000000 0.998618 }
			scale={ 1.000000 1.000000 1.000000 }
		}
		{
			id=222
			position={ 1818.056152 0.000000 2081.384766 }
			rotation={ -0.000000 0.838797 -0.000000 0.544445 }
			scale={ 1.000000 1.000000 1.000000 }
		}
		{
			id=223
			position={ 1965.971558 0.000000 2275.229736 }
			rotation={ -0.000000 -0.057494 -0.000000 0.998346 }
			scale={ 1.000000 1.000000 1.000000 }
		}
		{
			id=224
			position={ 2277.424561 0.000000 2471.077393 }
			rotation={ -0.000000 0.395418 -0.000000 0.918502 }
			scale={ 1.000000 1.000000 1.000000 }
		}
		{
			id=225
			position={ 2425.472168 0.000000 2652.704346 }
			rotation={ -0.000000 0.966302 -0.000000 0.257412 }
			scale={ 1.000000 1.000000 1.000000 }
		}
		{
			id=226
			position={ 2362.623779 0.000000 2521.124268 }
			rotation={ -0.000000 0.173102 -0.000000 0.984904 }
			scale={ 1.000000 1.000000 1.000000 }
		}
		{
			id=227
			position={ 2310.774902 0.000000 2535.700439 }
			rotation={ -0.000000 -0.180826 -0.000000 0.983515 }
			scale={ 1.000000 1.000000 1.000000 }
		}
		{
			id=229
			position={ 2429.886719 0.000000 2697.994385 }
			rotation={ -0.000000 0.942288 -0.000000 0.334805 }
			scale={ 1.000000 1.000000 1.000000 }
		}
		{
			id=230
			position={ 2128.809570 0.000000 2502.226562 }
			rotation={ -0.000000 0.866443 -0.000000 0.499277 }
			scale={ 1.000000 1.000000 1.000000 }
		}
		{
			id=232
			position={ 2044.296631 0.000000 2514.522949 }
			rotation={ -0.000000 -0.677471 -0.000000 0.735549 }
			scale={ 1.000000 1.000000 1.000000 }
		}
		{
			id=233
			position={ 2000.121582 0.000000 2532.925781 }
			rotation={ -0.000000 0.468136 -0.000000 0.883657 }
			scale={ 1.000000 1.000000 1.000000 }
		}
		{
			id=235
			position={ 1955.308594 0.000000 2551.124756 }
			rotation={ -0.000000 -0.697410 -0.000000 0.716673 }
			scale={ 1.000000 1.000000 1.000000 }
		}
		{
			id=236
			position={ 1926.555786 0.000000 2518.593750 }
			rotation={ -0.000000 0.194101 -0.000000 0.980982 }
			scale={ 1.000000 1.000000 1.000000 }
		}
		{
			id=237
			position={ 1923.830444 0.000000 2466.450439 }
			rotation={ -0.000000 -0.305669 -0.000000 0.952138 }
			scale={ 1.000000 1.000000 1.000000 }
		}
		{
			id=238
			position={ 1929.156982 0.000000 2417.521240 }
			rotation={ -0.000000 -0.966857 -0.000000 -0.255320 }
			scale={ 1.000000 1.000000 1.000000 }
		}
		{
			id=240
			position={ 2018.385864 0.000000 2375.330078 }
			rotation={ -0.000000 -0.339443 -0.000000 -0.940627 }
			scale={ 1.000000 1.000000 1.000000 }
		}
		{
			id=241
			position={ 1906.680542 0.000000 2294.827393 }
			rotation={ -0.000000 0.238314 -0.000000 0.971189 }
			scale={ 1.000000 1.000000 1.000000 }
		}
		{
			id=243
			position={ 1885.385620 0.000000 2247.532471 }
			rotation={ -0.000000 -0.771117 -0.000000 -0.636694 }
			scale={ 1.000000 1.000000 1.000000 }
		}
		{
			id=244
			position={ 1855.249756 0.000000 2181.193848 }
			rotation={ -0.000000 0.566409 -0.000000 0.824124 }
			scale={ 1.000000 1.000000 1.000000 }
		}
		{
			id=246
			position={ 1785.694336 0.000000 2140.052734 }
			rotation={ -0.000000 0.846812 -0.000000 0.531893 }
			scale={ 1.000000 1.000000 1.000000 }
		}
		{
			id=247
			position={ 1799.904419 0.000000 1961.858154 }
			rotation={ -0.000000 -0.537475 -0.000000 0.843280 }
			scale={ 1.000000 1.000000 1.000000 }
		}
		{
			id=299
			position={ 1762.000000 0.000000 3168.000000 }
			rotation={ -0.000000 -1.000000 -0.000000 -0.000000 }
			scale={ 1.000000 1.000000 1.000000 }
		}
		{
			id=300
			position={ 4467.153809 0.000000 2560.388916 }
			rotation={ -0.000000 -1.000000 -0.000000 -0.000000 }
			scale={ 1.000000 1.000000 1.000000 }
		}
		{
			id=301
			position={ 4539.000000 0.000000 2553.000000 }
			rotation={ -0.000000 -1.000000 -0.000000 -0.000000 }
			scale={ 1.000000 1.000000 1.000000 }
		}
		{
			id=302
			position={ 4571.000000 0.000000 2567.000000 }
			rotation={ 0.000000 0.707107 0.000000 0.707107 }
			scale={ 1.000000 1.000000 1.000000 }
		}
		{
			id=303
			position={ 4642.306152 0.000000 2564.942627 }
			rotation={ -0.000000 -0.672839 -0.000000 0.739789 }
			scale={ 1.000000 1.000000 1.000000 }
		}
		{
			id=304
			position={ 4673.895508 0.000000 2523.198730 }
			rotation={ -0.000000 -0.547272 -0.000000 0.836955 }
			scale={ 1.000000 1.000000 1.000000 }
		}
		{
			id=305
			position={ 4682.917480 0.000000 2434.934326 }
			rotation={ -0.000000 -0.861679 -0.000000 0.507453 }
			scale={ 1.000000 1.000000 1.000000 }
		}
		{
			id=306
			position={ 4725.961426 0.000000 2453.470215 }
			rotation={ -0.000000 -0.917839 -0.000000 0.396955 }
			scale={ 1.000000 1.000000 1.000000 }
		}
		{
			id=307
			position={ 4723.611328 0.000000 2354.311279 }
			rotation={ -0.000000 -0.669445 -0.000000 0.742862 }
			scale={ 1.000000 1.000000 1.000000 }
		}
		{
			id=308
			position={ 4792.000000 0.000000 2305.000000 }
			rotation={ -0.000000 -0.000000 -0.000000 1.000000 }
			scale={ 1.000000 1.000000 1.000000 }
		}
		{
			id=309
			position={ 4765.805664 0.000000 2407.389404 }
			rotation={ -0.000000 -0.999693 -0.000000 0.024774 }
			scale={ 1.000000 1.000000 1.000000 }
		}
		{
			id=323
			position={ 5261.139160 0.000000 2116.855225 }
			rotation={ -0.000000 -0.673284 -0.000000 -0.739385 }
			scale={ 1.000000 1.000000 1.000000 }
		}
		{
			id=324
			position={ 5430.044434 0.000000 2172.370850 }
			rotation={ -0.000000 0.994841 -0.000000 0.101447 }
			scale={ 1.000000 1.000000 1.000000 }
		}
		{
			id=326
			position={ 5624.591797 0.000000 2208.194824 }
			rotation={ -0.000000 0.966184 -0.000000 0.257855 }
			scale={ 1.000000 1.000000 1.000000 }
		}
		{
			id=338
			position={ 4482.000000 0.000000 2603.000000 }
			rotation={ -0.000000 -1.000000 -0.000000 -0.000000 }
			scale={ 1.000000 1.000000 1.000000 }
		}
		{
			id=339
			position={ 4525.000000 0.000000 2545.000000 }
			rotation={ 0.000000 0.707107 0.000000 0.707107 }
			scale={ 1.000000 1.000000 1.000000 }
		}
		{
			id=340
			position={ 4615.000000 0.000000 2469.000000 }
			rotation={ 0.000000 0.707107 0.000000 0.707107 }
			scale={ 1.000000 1.000000 1.000000 }
		}
		{
			id=400
			position={ 5683.429199 0.000000 2207.918213 }
			rotation={ -0.000000 -0.212720 -0.000000 0.977114 }
			scale={ 1.000000 1.000000 1.000000 }
		}
		{
			id=401
			position={ 5709.320801 0.000000 2187.103760 }
			rotation={ -0.000000 0.973769 -0.000000 0.227540 }
			scale={ 1.000000 1.000000 1.000000 }
		}
		{
			id=408
			position={ 5802.670410 0.000000 2132.840088 }
			rotation={ -0.000000 0.922918 -0.000000 -0.384997 }
			scale={ 1.000000 1.000000 1.000000 }
		}
		{
			id=409
			position={ 5852.121094 0.000000 2185.127197 }
			rotation={ -0.000000 0.613239 -0.000000 0.789898 }
			scale={ 1.000000 1.000000 1.000000 }
		}
		{
			id=428
			position={ 5872.583496 0.000000 2204.330322 }
			rotation={ -0.000000 0.726011 -0.000000 0.687684 }
			scale={ 1.000000 1.000000 1.000000 }
		}
		{
			id=429
			position={ 6051.000000 0.000000 3159.000000 }
			rotation={ -0.000000 -0.000000 -0.000000 1.000000 }
			scale={ 1.000000 1.000000 1.000000 }
		}
		{
			id=430
			position={ 6324.550781 0.000000 3222.564453 }
			rotation={ -0.000000 0.616658 -0.000000 0.787232 }
			scale={ 1.000000 1.000000 1.000000 }
		}
		{
			id=432
			position={ 6592.000000 0.000000 2992.000000 }
			rotation={ -0.000000 -0.707107 -0.000000 0.707107 }
			scale={ 1.000000 1.000000 1.000000 }
		}
		{
			id=433
			position={ 6663.000000 0.000000 2931.000000 }
			rotation={ -0.000000 -0.707107 -0.000000 0.707107 }
			scale={ 1.000000 1.000000 1.000000 }
		}
		{
			id=438
			position={ 6575.000000 0.000000 2606.000000 }
			rotation={ 0.000000 0.707107 0.000000 0.707107 }
			scale={ 1.000000 1.000000 1.000000 }
		}
		{
			id=439
			position={ 6688.000000 0.000000 2723.000000 }
			rotation={ -0.000000 -0.707107 -0.000000 0.707107 }
			scale={ 1.000000 1.000000 1.000000 }
		}
		{
			id=440
			position={ 6759.000000 0.000000 2783.000000 }
			rotation={ -0.000000 -0.707107 -0.000000 0.707107 }
			scale={ 1.000000 1.000000 1.000000 }
		}
		{
			id=441
			position={ 6948.291016 0.000000 3294.373779 }
			rotation={ 0.000000 0.707107 0.000000 0.707107 }
			scale={ 1.000000 1.000000 1.000000 }
		}
		{
			id=451
			position={ 6351.187500 0.000000 2261.588135 }
			rotation={ -0.000000 0.066051 -0.000000 0.997817 }
			scale={ 1.000000 1.000000 1.000000 }
		}
		{
			id=452
			position={ 6446.734375 0.000000 2376.305908 }
			rotation={ -0.000000 0.529427 -0.000000 0.848356 }
			scale={ 1.000000 1.000000 1.000000 }
		}
		{
			id=455
			position={ 6495.626953 0.000000 2455.793945 }
			rotation={ -0.000000 -0.454218 -0.000000 0.890891 }
			scale={ 1.000000 1.000000 1.000000 }
		}
		{
			id=456
			position={ 6476.845703 0.000000 2518.064209 }
			rotation={ -0.000000 -0.966450 -0.000000 0.256854 }
			scale={ 1.000000 1.000000 1.000000 }
		}
		{
			id=457
			position={ 6428.590332 0.000000 2557.972168 }
			rotation={ -0.000000 0.713936 -0.000000 0.700212 }
			scale={ 1.000000 1.000000 1.000000 }
		}
		{
			id=461
			position={ 5891.358398 0.000000 2171.156006 }
			rotation={ -0.000000 -0.973895 -0.000000 0.227001 }
			scale={ 1.000000 1.000000 1.000000 }
		}
		{
			id=468
			position={ 5928.144531 0.000000 2130.005127 }
			rotation={ -0.000000 0.006829 -0.000000 -0.999977 }
			scale={ 1.000000 1.000000 1.000000 }
		}
		{
			id=472
			position={ 6040.779297 0.000000 2104.349121 }
			rotation={ -0.000000 0.814907 -0.000000 -0.579592 }
			scale={ 1.000000 1.000000 1.000000 }
		}
		{
			id=475
			position={ 6066.604004 0.000000 2039.692505 }
			rotation={ -0.000000 0.942543 -0.000000 0.334086 }
			scale={ 1.000000 1.000000 1.000000 }
		}
		{
			id=479
			position={ 6293.678711 0.000000 2159.064453 }
			rotation={ -0.000000 0.889946 -0.000000 0.456066 }
			scale={ 1.000000 1.000000 1.000000 }
		}
		{
			id=480
			position={ 6074.868652 0.000000 1870.572876 }
			rotation={ -0.000000 0.463596 -0.000000 -0.886047 }
			scale={ 1.000000 1.000000 1.000000 }
		}
		{
			id=481
			position={ 6106.895996 0.000000 1987.044922 }
			rotation={ -0.000000 0.907486 -0.000000 -0.420083 }
			scale={ 1.000000 1.000000 1.000000 }
		}
		{
			id=482
			position={ 6226.887695 0.000000 1939.184448 }
			rotation={ -0.000000 -0.154575 -0.000000 0.987981 }
			scale={ 1.000000 1.000000 1.000000 }
		}
		{
			id=483
			position={ 6261.660156 0.000000 2027.621826 }
			rotation={ -0.000000 0.733895 -0.000000 0.679264 }
			scale={ 1.000000 1.000000 1.000000 }
		}
		{
			id=484
			position={ 6284.116699 0.000000 2126.571045 }
			rotation={ -0.000000 0.865009 -0.000000 0.501757 }
			scale={ 1.000000 1.000000 1.000000 }
		}
		{
			id=486
			position={ 5843.136230 0.000000 2063.004395 }
			rotation={ -0.000000 -0.460627 -0.000000 0.887594 }
			scale={ 1.000000 1.000000 1.000000 }
		}
		{
			id=487
			position={ 6223.000000 0.000000 1841.000000 }
			rotation={ 0.000000 0.707107 0.000000 0.707107 }
			scale={ 1.000000 1.000000 1.000000 }
		}
		{
			id=488
			position={ 6204.000000 0.000000 1640.000000 }
			rotation={ 0.000000 0.707107 0.000000 0.707107 }
			scale={ 1.000000 1.000000 1.000000 }
		}
		{
			id=489
			position={ 6120.346680 0.000000 1645.782227 }
			rotation={ -0.000000 0.036001 -0.000000 0.999352 }
			scale={ 1.000000 1.000000 1.000000 }
		}
		{
			id=490
			position={ 6240.758301 0.000000 1560.975586 }
			rotation={ -0.000000 -0.018983 -0.000000 0.999820 }
			scale={ 1.000000 1.000000 1.000000 }
		}
		{
			id=504
			position={ 2476.932373 0.000000 3018.873779 }
			rotation={ -0.000000 0.373586 -0.000000 0.927596 }
			scale={ 1.000000 1.000000 1.000000 }
		}
		{
			id=505
			position={ 2489.725342 0.000000 3189.922363 }
			rotation={ -0.000000 -0.848744 -0.000000 -0.528803 }
			scale={ 1.000000 1.000000 1.000000 }
		}
		{
			id=507
			position={ 2156.669922 0.000000 3253.072510 }
			rotation={ -0.000000 0.608309 -0.000000 0.793701 }
			scale={ 1.000000 1.000000 1.000000 }
		}
		{
			id=508
			position={ 2450.277344 0.000000 3359.399170 }
			rotation={ 0.000000 0.707107 0.000000 0.707107 }
			scale={ 1.000000 1.000000 1.000000 }
		}
		{
			id=509
			position={ 2337.195312 0.000000 2870.777588 }
			rotation={ -0.000000 -0.930664 -0.000000 -0.365875 }
			scale={ 1.000000 1.000000 1.000000 }
		}
		{
			id=511
			position={ 2686.934082 0.000000 2735.990967 }
			rotation={ -0.000000 -0.230333 -0.000000 0.973112 }
			scale={ 1.000000 1.000000 1.000000 }
		}
		{
			id=512
			position={ 1880.000000 0.000000 3300.000000 }
			rotation={ 0.000000 0.707107 0.000000 0.707107 }
			scale={ 1.000000 1.000000 1.000000 }
		}
		{
			id=513
			position={ 1988.000000 0.000000 3201.000000 }
			rotation={ 0.000000 0.707107 0.000000 0.707107 }
			scale={ 1.000000 1.000000 1.000000 }
		}
		{
			id=517
			position={ 1416.000000 0.000000 3248.000000 }
			rotation={ 0.000000 0.707107 0.000000 0.707107 }
			scale={ 1.000000 1.000000 1.000000 }
		}
		{
			id=525
			position={ 1314.000000 0.000000 3091.000000 }
			rotation={ 0.000000 0.707107 0.000000 0.707107 }
			scale={ 1.000000 1.000000 1.000000 }
		}
		{
			id=526
			position={ 1630.687622 0.000000 1674.762451 }
			rotation={ -0.000000 0.253842 -0.000000 0.967246 }
			scale={ 1.000000 1.000000 1.000000 }
		}
		{
			id=527
			position={ 1799.087769 0.000000 1791.793091 }
			rotation={ -0.000000 -0.951892 -0.000000 0.306434 }
			scale={ 1.000000 1.000000 1.000000 }
		}
		{
			id=528
			position={ 1755.153564 0.000000 1634.379639 }
			rotation={ -0.000000 0.149536 -0.000000 0.988757 }
			scale={ 1.000000 1.000000 1.000000 }
		}
		{
			id=529
			position={ 1539.000000 0.000000 1597.000000 }
			rotation={ 0.000000 0.707107 0.000000 0.707107 }
			scale={ 1.000000 1.000000 1.000000 }
		}
		{
			id=531
			position={ 1476.000000 0.000000 1859.000000 }
			rotation={ 0.000000 0.707107 0.000000 0.707107 }
			scale={ 1.000000 1.000000 1.000000 }
		}
		{
			id=532
			position={ 1456.662598 0.000000 2062.760010 }
			rotation={ -0.000000 0.929167 -0.000000 0.369659 }
			scale={ 1.000000 1.000000 1.000000 }
		}
		{
			id=533
			position={ 1644.809692 0.000000 2049.292725 }
			rotation={ -0.000000 0.031166 -0.000000 0.999514 }
			scale={ 1.000000 1.000000 1.000000 }
		}
		{
			id=536
			position={ 1479.516602 0.000000 2130.056641 }
			rotation={ -0.000000 -0.537802 -0.000000 0.843072 }
			scale={ 1.000000 1.000000 1.000000 }
		}
		{
			id=538
			position={ 1726.887573 0.000000 1979.569946 }
			rotation={ -0.000000 0.271054 -0.000000 0.962564 }
			scale={ 1.000000 1.000000 1.000000 }
		}
		{
			id=542
			position={ 1392.732422 0.000000 2119.859619 }
			rotation={ 0.000000 0.707107 0.000000 0.707107 }
			scale={ 1.000000 1.000000 1.000000 }
		}
		{
			id=545
			position={ 1283.943726 0.000000 1958.181519 }
			rotation={ -0.000000 0.278713 -0.000000 0.960375 }
			scale={ 1.000000 1.000000 1.000000 }
		}
		{
			id=547
			position={ 1226.353394 0.000000 1905.860474 }
			rotation={ -0.000000 -0.203721 -0.000000 0.979029 }
			scale={ 1.000000 1.000000 1.000000 }
		}
		{
			id=551
			position={ 1128.871826 0.000000 2188.808105 }
			rotation={ -0.000000 -0.692885 -0.000000 0.721048 }
			scale={ 1.000000 1.000000 1.000000 }
		}
		{
			id=552
			position={ 1880.000000 0.000000 3105.000000 }
			rotation={ -0.000000 -0.000000 -0.000000 1.000000 }
			scale={ 1.000000 1.000000 1.000000 }
		}
		{
			id=554
			position={ 997.663879 0.000000 2117.519043 }
			rotation={ -0.000000 0.914131 -0.000000 -0.405419 }
			scale={ 1.000000 1.000000 1.000000 }
		}
		{
			id=556
			position={ 1031.619751 0.000000 2334.204590 }
			rotation={ -0.000000 0.372619 -0.000000 -0.927985 }
			scale={ 1.000000 1.000000 1.000000 }
		}
		{
			id=557
			position={ 1706.809814 0.080933 1531.600586 }
			rotation={ -0.000000 -1.000000 -0.000000 -0.000000 }
			scale={ 1.000000 1.000000 1.000000 }
		}
		{
			id=558
			position={ 1721.000000 0.000000 1396.000000 }
			rotation={ 0.000000 0.707107 0.000000 0.707107 }
			scale={ 1.000000 1.000000 1.000000 }
		}
		{
			id=560
			position={ 1821.472290 0.000000 1596.970093 }
			rotation={ -0.000000 0.998318 -0.000000 -0.057984 }
			scale={ 1.000000 1.000000 1.000000 }
		}
		{
			id=565
			position={ 1825.000000 0.000000 1337.000000 }
			rotation={ 0.000000 0.707107 0.000000 0.707107 }
			scale={ 1.000000 1.000000 1.000000 }
		}
		{
			id=570
			position={ 1920.541016 0.000000 1676.821045 }
			rotation={ -0.000000 -0.929335 -0.000000 0.369238 }
			scale={ 1.000000 1.000000 1.000000 }
		}
		{
			id=572
			position={ 2051.000000 0.000000 1749.000000 }
			rotation={ -0.000000 -0.707107 -0.000000 0.707107 }
			scale={ 1.000000 1.000000 1.000000 }
		}
		{
			id=573
			position={ 2219.310791 0.000000 1775.352783 }
			rotation={ 0.000000 0.707107 0.000000 0.707107 }
			scale={ 1.000000 1.000000 1.000000 }
		}
		{
			id=575
			position={ 2391.939941 0.000000 1733.703857 }
			rotation={ -0.000000 -0.999890 -0.000000 0.014859 }
			scale={ 1.000000 1.000000 1.000000 }
		}
		{
			id=576
			position={ 2542.676025 0.000000 1772.111206 }
			rotation={ -0.000000 -1.000000 -0.000000 -0.000000 }
			scale={ 1.000000 1.000000 1.000000 }
		}
		{
			id=577
			position={ 2509.719971 0.000000 1614.763428 }
			rotation={ -0.000000 -0.001284 -0.000000 1.000000 }
			scale={ 1.000000 1.000000 1.000000 }
		}
		{
			id=578
			position={ 2723.512451 0.000000 1593.918091 }
			rotation={ -0.000000 -0.920456 -0.000000 -0.390846 }
			scale={ 1.000000 1.000000 1.000000 }
		}
		{
			id=579
			position={ 2359.000000 0.000000 1515.000000 }
			rotation={ -0.000000 -1.000000 -0.000000 -0.000000 }
			scale={ 1.000000 1.000000 1.000000 }
		}
		{
			id=582
			position={ 2496.786865 0.000000 1434.325806 }
			rotation={ -0.000000 -1.000000 -0.000000 -0.000000 }
			scale={ 1.000000 1.000000 1.000000 }
		}
		{
			id=584
			position={ 2632.000000 0.000000 1512.000000 }
			rotation={ 0.000000 0.707107 0.000000 0.707107 }
			scale={ 1.000000 1.000000 1.000000 }
		}
		{
			id=585
			position={ 2746.478760 0.027710 1525.720093 }
			rotation={ -0.000000 -0.594827 -0.000000 -0.803854 }
			scale={ 1.000000 1.000000 1.000000 }
		}
		{
			id=586
			position={ 2942.000000 0.000000 1464.000000 }
			rotation={ -0.000000 -0.000000 -0.000000 1.000000 }
			scale={ 1.000000 1.000000 1.000000 }
		}
		{
			id=588
			position={ 3057.000000 0.000000 1429.000000 }
			rotation={ -0.000000 -0.707107 -0.000000 0.707107 }
			scale={ 1.000000 1.000000 1.000000 }
		}
		{
			id=589
			position={ 3122.000000 0.000000 1290.000000 }
			rotation={ -0.000000 -1.000000 -0.000000 -0.000000 }
			scale={ 1.000000 1.000000 1.000000 }
		}
		{
			id=590
			position={ 3166.000000 0.000000 1247.000000 }
			rotation={ -0.000000 -0.707107 -0.000000 0.707107 }
			scale={ 1.000000 1.000000 1.000000 }
		}
		{
			id=591
			position={ 3169.187012 0.000000 1086.526367 }
			rotation={ 0.000000 0.707107 0.000000 0.707107 }
			scale={ 1.000000 1.000000 1.000000 }
		}
		{
			id=592
			position={ 3090.000000 0.000000 1100.000000 }
			rotation={ 0.000000 0.707107 0.000000 0.707107 }
			scale={ 1.000000 1.000000 1.000000 }
		}
		{
			id=593
			position={ 2862.002686 0.000000 1198.017456 }
			rotation={ 0.000000 0.707107 0.000000 0.707107 }
			scale={ 1.000000 1.000000 1.000000 }
		}
		{
			id=594
			position={ 2779.893311 0.000000 1179.063232 }
			rotation={ -0.000000 0.916670 -0.000000 0.399646 }
			scale={ 1.000000 1.000000 1.000000 }
		}
		{
			id=595
			position={ 2688.796875 0.081055 1160.114990 }
			rotation={ -0.000000 0.016141 -0.000000 0.999870 }
			scale={ 1.000000 1.000000 1.000000 }
		}
		{
			id=596
			position={ 2801.000000 0.000000 1098.000000 }
			rotation={ 0.000000 0.707107 0.000000 0.707107 }
			scale={ 1.000000 1.000000 1.000000 }
		}
		{
			id=597
			position={ 3210.925049 0.000000 960.624268 }
			rotation={ -0.000000 0.859754 -0.000000 0.510709 }
			scale={ 1.000000 1.000000 1.000000 }
		}
		{
			id=598
			position={ 3090.000000 0.000000 903.000000 }
			rotation={ 0.000000 0.707107 0.000000 0.707107 }
			scale={ 1.000000 1.000000 1.000000 }
		}
		{
			id=599
			position={ 2931.168701 0.000000 869.141907 }
			rotation={ 0.000000 0.707107 0.000000 0.707107 }
			scale={ 1.000000 1.000000 1.000000 }
		}
		{
			id=602
			position={ 3308.000000 0.000000 1006.000000 }
			rotation={ 0.000000 0.707107 0.000000 0.707107 }
			scale={ 1.000000 1.000000 1.000000 }
		}
		{
			id=603
			position={ 3427.000000 0.000000 1373.000000 }
			rotation={ -0.000000 -0.000000 -0.000000 1.000000 }
			scale={ 1.000000 1.000000 1.000000 }
		}
		{
			id=604
			position={ 3602.000000 0.000000 1312.000000 }
			rotation={ -0.000000 -0.707107 -0.000000 0.707107 }
			scale={ 1.000000 1.000000 1.000000 }
		}
		{
			id=605
			position={ 1024.305054 0.000000 2435.477783 }
			rotation={ -0.000000 -0.521174 -0.000000 0.853451 }
			scale={ 1.000000 1.000000 1.000000 }
		}
		{
			id=606
			position={ 1121.537476 0.000000 2496.309326 }
			rotation={ -0.000000 -1.000000 -0.000000 -0.000000 }
			scale={ 1.000000 1.000000 1.000000 }
		}
		{
			id=607
			position={ 1189.115967 0.000000 2608.093994 }
			rotation={ -0.000000 0.986223 -0.000000 -0.165422 }
			scale={ 1.000000 1.000000 1.000000 }
		}
		{
			id=608
			position={ 1078.949097 0.000000 2602.450928 }
			rotation={ -0.000000 -0.463190 -0.000000 -0.886259 }
			scale={ 1.000000 1.000000 1.000000 }
		}
		{
			id=609
			position={ 1004.026123 0.000000 2562.935303 }
			rotation={ -0.000000 0.953523 -0.000000 -0.301322 }
			scale={ 1.000000 1.000000 1.000000 }
		}
		{
			id=610
			position={ 902.674988 0.000000 2599.533691 }
			rotation={ -0.000000 0.987642 -0.000000 -0.156733 }
			scale={ 1.000000 1.000000 1.000000 }
		}
		{
			id=612
			position={ 913.662720 0.000000 2715.994629 }
			rotation={ -0.000000 -0.746816 -0.000000 0.665030 }
			scale={ 1.000000 1.000000 1.000000 }
		}
		{
			id=614
			position={ 887.736084 0.000000 2811.193848 }
			rotation={ -0.000000 -0.692671 -0.000000 0.721255 }
			scale={ 1.000000 1.000000 1.000000 }
		}
		{
			id=615
			position={ 914.901672 0.000000 2889.416992 }
			rotation={ -0.000000 -0.939048 -0.000000 0.343785 }
			scale={ 1.000000 1.000000 1.000000 }
		}
		{
			id=617
			position={ 979.560730 0.000000 2895.052734 }
			rotation={ -0.000000 -1.000000 -0.000000 -0.000000 }
			scale={ 1.000000 1.000000 1.000000 }
		}
		{
			id=618
			position={ 1006.941162 0.000000 2968.937744 }
			rotation={ -0.000000 0.625669 -0.000000 -0.780089 }
			scale={ 1.000000 1.000000 1.000000 }
		}
		{
			id=619
			position={ 1042.737915 0.000000 3113.687012 }
			rotation={ -0.000000 -0.379426 -0.000000 0.925222 }
			scale={ 1.000000 1.000000 1.000000 }
		}
		{
			id=620
			position={ 1238.637817 0.000000 2999.901123 }
			rotation={ -0.000000 -0.915310 -0.000000 -0.402751 }
			scale={ 1.000000 1.000000 1.000000 }
		}
		{
			id=621
			position={ 1267.684082 0.000000 2836.248047 }
			rotation={ -0.000000 -0.976345 -0.000000 -0.216220 }
			scale={ 1.000000 1.000000 1.000000 }
		}
		{
			id=622
			position={ 1365.140625 0.000000 2747.728271 }
			rotation={ -0.000000 -0.967020 -0.000000 0.254700 }
			scale={ 1.000000 1.000000 1.000000 }
		}
		{
			id=624
			position={ 1396.754150 0.000000 2921.267334 }
			rotation={ -0.000000 -0.998601 -0.000000 -0.052882 }
			scale={ 1.000000 1.000000 1.000000 }
		}
		{
			id=625
			position={ 1607.255005 0.000000 3137.803711 }
			rotation={ -0.000000 -0.995817 -0.000000 0.091375 }
			scale={ 1.000000 1.000000 1.000000 }
		}
		{
			id=633
			position={ 5544.000000 0.000000 3370.000000 }
			rotation={ 0.000000 0.707107 0.000000 0.707107 }
			scale={ 1.000000 1.000000 1.000000 }
		}
		{
			id=635
			position={ 5287.000000 0.000000 3060.000000 }
			rotation={ -0.000000 -0.707107 -0.000000 0.707107 }
			scale={ 1.000000 1.000000 1.000000 }
		}
		{
			id=639
			position={ 5605.646484 0.000000 3110.927246 }
			rotation={ -0.000000 -0.707107 -0.000000 0.707107 }
			scale={ 1.000000 1.000000 1.000000 }
		}
		{
			id=641
			position={ 5681.482910 0.000000 3094.130615 }
			rotation={ 0.000000 0.707107 0.000000 0.707107 }
			scale={ 1.000000 1.000000 1.000000 }
		}
		{
			id=651
			position={ 5380.601074 0.000000 2931.505127 }
			rotation={ -0.000000 -0.763613 -0.000000 -0.645675 }
			scale={ 1.000000 1.000000 1.000000 }
		}
		{
			id=652
			position={ 5332.000000 0.000000 2868.000000 }
			rotation={ -0.000000 -1.000000 -0.000000 -0.000000 }
			scale={ 1.000000 1.000000 1.000000 }
		}
		{
			id=653
			position={ 5463.296387 0.000000 2820.014160 }
			rotation={ -0.000000 -0.993864 -0.000000 -0.110615 }
			scale={ 1.000000 1.000000 1.000000 }
		}
		{
			id=654
			position={ 5522.959473 0.000000 2765.078369 }
			rotation={ -0.000000 -0.984225 -0.000000 0.176920 }
			scale={ 1.000000 1.000000 1.000000 }
		}
		{
			id=655
			position={ 5652.424805 0.000000 2828.418213 }
			rotation={ -0.000000 -0.923177 -0.000000 0.384375 }
			scale={ 1.000000 1.000000 1.000000 }
		}
		{
			id=656
			position={ 5785.960938 0.000000 3009.522217 }
			rotation={ -0.000000 -0.991153 -0.000000 0.132725 }
			scale={ 1.000000 1.000000 1.000000 }
		}
		{
			id=658
			position={ 5816.492188 0.000000 3094.212402 }
			rotation={ -0.000000 0.935408 -0.000000 0.353572 }
			scale={ 1.000000 1.000000 1.000000 }
		}
		{
			id=660
			position={ 6021.796875 0.000000 3157.949219 }
			rotation={ -0.000000 -0.959049 -0.000000 -0.283240 }
			scale={ 1.000000 1.000000 1.000000 }
		}
		{
			id=661
			position={ 5542.601562 0.000000 2869.018311 }
			rotation={ -0.000000 -0.989450 -0.000000 0.144874 }
			scale={ 1.000000 1.000000 1.000000 }
		}
		{
			id=662
			position={ 5497.570801 0.000000 2974.252197 }
			rotation={ -0.000000 0.994236 -0.000000 -0.107218 }
			scale={ 1.000000 1.000000 1.000000 }
		}
		{
			id=663
			position={ 5471.457520 0.000000 2924.356934 }
			rotation={ 0.000000 0.707107 0.000000 0.707107 }
			scale={ 1.000000 1.000000 1.000000 }
		}
		{
			id=664
			position={ 5603.492676 0.000000 2949.532471 }
			rotation={ -0.000000 -0.734262 -0.000000 -0.678867 }
			scale={ 1.000000 1.000000 1.000000 }
		}
		{
			id=665
			position={ 5633.940430 0.000000 2970.698486 }
			rotation={ -0.000000 -0.035389 -0.000000 -0.999374 }
			scale={ 1.000000 1.000000 1.000000 }
		}
		{
			id=666
			position={ 5705.043457 0.000000 2960.368896 }
			rotation={ 0.000000 0.707107 0.000000 0.707107 }
			scale={ 1.000000 1.000000 1.000000 }
		}
		{
			id=667
			position={ 5690.595215 0.000000 3039.795654 }
			rotation={ -0.000000 -1.000000 -0.000000 -0.000000 }
			scale={ 1.000000 1.000000 1.000000 }
		}
		{
			id=668
			position={ 5683.147949 0.296631 3140.769043 }
			rotation={ -0.000000 -0.881386 -0.000000 -0.472397 }
			scale={ 1.000000 1.000000 1.000000 }
		}
		{
			id=669
			position={ 5766.746582 0.000000 3118.011719 }
			rotation={ 0.000000 0.707107 0.000000 0.707107 }
			scale={ 1.000000 1.000000 1.000000 }
		}
		{
			id=700
			position={ 1549.402832 0.000000 837.843567 }
			rotation={ 0.000000 0.707107 0.000000 0.707107 }
			scale={ 1.000000 1.000000 1.000000 }
		}
		{
			id=702
			position={ 1648.000000 0.000000 963.000000 }
			rotation={ 0.000000 0.707107 0.000000 0.707107 }
			scale={ 1.000000 1.000000 1.000000 }
		}
		{
			id=703
			position={ 1473.737061 0.000000 996.725525 }
			rotation={ -0.000000 0.937371 -0.000000 -0.348332 }
			scale={ 1.000000 1.000000 1.000000 }
		}
		{
			id=704
			position={ 1602.534912 0.000000 1056.871582 }
			rotation={ -0.000000 0.286211 -0.000000 0.958167 }
			scale={ 1.000000 1.000000 1.000000 }
		}
		{
			id=705
			position={ 1437.067261 0.000000 925.281677 }
			rotation={ -0.000000 -0.947997 -0.000000 0.318279 }
			scale={ 1.000000 1.000000 1.000000 }
		}
		{
			id=706
			position={ 1687.000000 0.000000 946.000000 }
			rotation={ 0.000000 0.707107 0.000000 0.707107 }
			scale={ 1.000000 1.000000 1.000000 }
		}
		{
			id=707
			position={ 1730.433105 0.050476 836.969727 }
			rotation={ -0.000000 0.516012 -0.000000 0.856582 }
			scale={ 1.000000 1.000000 1.000000 }
		}
		{
			id=708
			position={ 1852.804443 0.162842 967.608398 }
			rotation={ -0.000000 -0.545255 -0.000000 0.838271 }
			scale={ 1.000000 1.000000 1.000000 }
		}
		{
			id=709
			position={ 1826.007568 0.000000 928.721802 }
			rotation={ -0.000000 -0.874455 -0.000000 0.485107 }
			scale={ 1.000000 1.000000 1.000000 }
		}
		{
			id=710
			position={ 1824.000000 0.000000 884.000000 }
			rotation={ -0.000000 -0.000000 -0.000000 1.000000 }
			scale={ 1.000000 1.000000 1.000000 }
		}
		{
			id=711
			position={ 1810.514282 0.046997 838.546265 }
			rotation={ -0.000000 -0.966709 -0.000000 0.255876 }
			scale={ 1.000000 1.000000 1.000000 }
		}
		{
			id=712
			position={ 1880.000000 0.000000 692.000000 }
			rotation={ 0.000000 0.707107 0.000000 0.707107 }
			scale={ 1.000000 1.000000 1.000000 }
		}
		{
			id=713
			position={ 1807.000000 0.000000 707.000000 }
			rotation={ 0.000000 0.707107 0.000000 0.707107 }
			scale={ 1.000000 1.000000 1.000000 }
		}
		{
			id=715
			position={ 2120.288086 0.000000 773.579712 }
			rotation={ -0.000000 0.699819 -0.000000 0.714320 }
			scale={ 1.000000 1.000000 1.000000 }
		}
		{
			id=716
			position={ 2181.000000 0.000000 891.000000 }
			rotation={ 0.000000 0.707107 0.000000 0.707107 }
			scale={ 1.000000 1.000000 1.000000 }
		}
		{
			id=723
			position={ 2506.523438 0.000000 911.920593 }
			rotation={ -0.000000 -0.031369 -0.000000 0.999508 }
			scale={ 1.000000 1.000000 1.000000 }
		}
		{
			id=724
			position={ 2347.601562 0.000000 959.192078 }
			rotation={ -0.000000 -0.007387 -0.000000 0.999973 }
			scale={ 1.000000 1.000000 1.000000 }
		}
		{
			id=726
			position={ 2573.000000 0.000000 895.000000 }
			rotation={ 0.000000 0.707107 0.000000 0.707107 }
			scale={ 1.000000 1.000000 1.000000 }
		}
		{
			id=727
			position={ 2632.000000 0.000000 1051.000000 }
			rotation={ 0.000000 0.707107 0.000000 0.707107 }
			scale={ 1.000000 1.000000 1.000000 }
		}
		{
			id=731
			position={ 2359.000000 0.000000 909.000000 }
			rotation={ 0.000000 0.707107 0.000000 0.707107 }
			scale={ 1.000000 1.000000 1.000000 }
		}
		{
			id=734
			position={ 2236.000000 0.000000 929.000000 }
			rotation={ 0.000000 0.707107 0.000000 0.707107 }
			scale={ 1.000000 1.000000 1.000000 }
		}
		{
			id=751
			position={ 2051.000000 0.000000 714.000000 }
			rotation={ 0.000000 0.707107 0.000000 0.707107 }
			scale={ 1.000000 1.000000 1.000000 }
		}
		{
			id=804
			position={ 4446.000000 0.000000 2357.000000 }
			rotation={ -0.000000 -0.707107 -0.000000 0.707107 }
			scale={ 1.000000 1.000000 1.000000 }
		}
		{
			id=805
			position={ 4650.000000 0.000000 2330.000000 }
			rotation={ -0.000000 -1.000000 -0.000000 -0.000000 }
			scale={ 1.000000 1.000000 1.000000 }
		}
		{
			id=807
			position={ 4761.000000 0.000000 2283.000000 }
			rotation={ -0.000000 -0.000000 -0.000000 1.000000 }
			scale={ 1.000000 1.000000 1.000000 }
		}
		{
			id=808
			position={ 4298.000000 0.000000 2435.000000 }
			rotation={ -0.000000 -0.707107 -0.000000 0.707107 }
			scale={ 1.000000 1.000000 1.000000 }
		}
		{
			id=814
			position={ 4207.000000 0.000000 2477.000000 }
			rotation={ -0.000000 -1.000000 -0.000000 -0.000000 }
			scale={ 1.000000 1.000000 1.000000 }
		}
		{
			id=815
			position={ 4105.000000 0.000000 2490.000000 }
			rotation={ -0.000000 -1.000000 -0.000000 -0.000000 }
			scale={ 1.000000 1.000000 1.000000 }
		}
		{
			id=816
			position={ 4015.000000 0.000000 2417.000000 }
			rotation={ -0.000000 -0.000000 -0.000000 1.000000 }
			scale={ 1.000000 1.000000 1.000000 }
		}
		{
			id=820
			position={ 4023.000000 0.000000 2355.000000 }
			rotation={ -0.000000 -0.000000 -0.000000 1.000000 }
			scale={ 1.000000 1.000000 1.000000 }
		}
		{
			id=821
			position={ 4105.000000 0.000000 2033.000000 }
			rotation={ -0.000000 -0.000000 -0.000000 1.000000 }
			scale={ 1.000000 1.000000 1.000000 }
		}
		{
			id=828
			position={ 5372.000000 0.000000 2086.000000 }
			rotation={ 0.000000 0.707107 0.000000 0.707107 }
			scale={ 1.000000 1.000000 1.000000 }
		}
		{
			id=837
			position={ 4601.000000 0.000000 1788.000000 }
			rotation={ 0.000000 0.707107 0.000000 0.707107 }
			scale={ 1.000000 1.000000 1.000000 }
		}
		{
			id=840
			position={ 4758.000000 0.000000 1648.000000 }
			rotation={ 0.000000 0.707107 0.000000 0.707107 }
			scale={ 1.000000 1.000000 1.000000 }
		}
		{
			id=843
			position={ 4776.000000 0.000000 1637.000000 }
			rotation={ 0.000000 0.707107 0.000000 0.707107 }
			scale={ 1.000000 1.000000 1.000000 }
		}
		{
			id=846
			position={ 5468.000000 0.000000 2028.000000 }
			rotation={ -0.000000 -1.000000 -0.000000 -0.000000 }
			scale={ 1.000000 1.000000 1.000000 }
		}
		{
			id=853
			position={ 5659.000000 0.000000 1946.000000 }
			rotation={ -0.000000 -0.707107 -0.000000 0.707107 }
			scale={ 1.000000 1.000000 1.000000 }
		}
		{
			id=855
			position={ 5868.000000 0.000000 1918.000000 }
			rotation={ -0.000000 -0.707107 -0.000000 0.707107 }
			scale={ 1.000000 1.000000 1.000000 }
		}
		{
			id=856
			position={ 5830.000000 0.000000 1870.000000 }
			rotation={ 0.000000 0.707107 0.000000 0.707107 }
			scale={ 1.000000 1.000000 1.000000 }
		}
		{
			id=857
			position={ 5803.000000 0.000000 1740.000000 }
			rotation={ -0.000000 -0.707107 -0.000000 0.707107 }
			scale={ 1.000000 1.000000 1.000000 }
		}
		{
			id=869
			position={ 5558.000000 0.000000 1511.000000 }
			rotation={ -0.000000 -0.707107 -0.000000 0.707107 }
			scale={ 1.000000 1.000000 1.000000 }
		}
		{
			id=870
			position={ 5608.000000 0.000000 1562.000000 }
			rotation={ 0.000000 0.707107 0.000000 0.707107 }
			scale={ 1.000000 1.000000 1.000000 }
		}
		{
			id=871
			position={ 5633.000000 0.000000 1543.000000 }
			rotation={ 0.000000 0.707107 0.000000 0.707107 }
			scale={ 1.000000 1.000000 1.000000 }
		}
		{
			id=873
			position={ 5744.000000 0.000000 1522.000000 }
			rotation={ 0.000000 0.707107 0.000000 0.707107 }
			scale={ 1.000000 1.000000 1.000000 }
		}
		{
			id=874
			position={ 5836.000000 0.000000 1679.000000 }
			rotation={ -0.000000 -0.707107 -0.000000 0.707107 }
			scale={ 1.000000 1.000000 1.000000 }
		}
		{
			id=875
			position={ 5814.000000 0.000000 1725.000000 }
			rotation={ -0.000000 -1.000000 -0.000000 -0.000000 }
			scale={ 1.000000 1.000000 1.000000 }
		}
		{
			id=876
			position={ 4861.000000 0.000000 1582.000000 }
			rotation={ 0.000000 0.707107 0.000000 0.707107 }
			scale={ 1.000000 1.000000 1.000000 }
		}
		{
			id=877
			position={ 4907.000000 0.000000 1509.000000 }
			rotation={ 0.000000 0.707107 0.000000 0.707107 }
			scale={ 1.000000 1.000000 1.000000 }
		}
		{
			id=878
			position={ 4910.000000 0.000000 1490.000000 }
			rotation={ 0.000000 0.707107 0.000000 0.707107 }
			scale={ 1.000000 1.000000 1.000000 }
		}
		{
			id=879
			position={ 4923.000000 0.000000 1439.000000 }
			rotation={ 0.000000 0.707107 0.000000 0.707107 }
			scale={ 1.000000 1.000000 1.000000 }
		}
		{
			id=885
			position={ 5062.000000 0.000000 1555.000000 }
			rotation={ 0.000000 0.707107 0.000000 0.707107 }
			scale={ 1.000000 1.000000 1.000000 }
		}
		{
			id=890
			position={ 5189.000000 0.000000 1470.000000 }
			rotation={ 0.000000 0.707107 0.000000 0.707107 }
			scale={ 1.000000 1.000000 1.000000 }
		}
		{
			id=892
			position={ 5310.000000 0.000000 1493.000000 }
			rotation={ 0.000000 0.707107 0.000000 0.707107 }
			scale={ 1.000000 1.000000 1.000000 }
		}
		{
			id=893
			position={ 5262.000000 0.000000 1485.000000 }
			rotation={ 0.000000 0.707107 0.000000 0.707107 }
			scale={ 1.000000 1.000000 1.000000 }
		}
		{
			id=894
			position={ 5278.000000 0.000000 1403.000000 }
			rotation={ 0.000000 0.707107 0.000000 0.707107 }
			scale={ 1.000000 1.000000 1.000000 }
		}
		{
			id=897
			position={ 5514.000000 0.000000 1417.000000 }
			rotation={ 0.000000 0.707107 0.000000 0.707107 }
			scale={ 1.000000 1.000000 1.000000 }
		}
		{
			id=898
			position={ 5363.231934 0.000000 1385.970825 }
			rotation={ -0.000000 -0.425392 -0.000000 0.905010 }
			scale={ 1.000000 1.000000 1.000000 }
		}
		{
			id=899
			position={ 5406.000000 0.000000 1372.000000 }
			rotation={ -0.000000 -0.707107 -0.000000 0.707107 }
			scale={ 1.000000 1.000000 1.000000 }
		}
		{
			id=900
			position={ 5470.000000 0.000000 1343.000000 }
			rotation={ 0.000000 0.707107 0.000000 0.707107 }
			scale={ 1.000000 1.000000 1.000000 }
		}
		{
			id=901
			position={ 5407.814453 0.000000 1320.083374 }
			rotation={ -0.000000 -0.000000 -0.000000 1.000000 }
			scale={ 1.000000 1.000000 1.000000 }
		}
		{
			id=902
			position={ 5496.869141 0.000000 1236.069580 }
			rotation={ 0.000000 0.707107 0.000000 0.707107 }
			scale={ 1.000000 1.000000 1.000000 }
		}
		{
			id=903
			position={ 5529.572754 0.000000 1175.720215 }
			rotation={ -0.000000 -0.707107 -0.000000 0.707107 }
			scale={ 1.000000 1.000000 1.000000 }
		}
		{
			id=904
			position={ 5660.000000 0.000000 1050.000000 }
			rotation={ 0.000000 0.707107 0.000000 0.707107 }
			scale={ 1.000000 1.000000 1.000000 }
		}
		{
			id=905
			position={ 5633.000000 0.000000 1121.000000 }
			rotation={ -0.000000 -1.000000 -0.000000 -0.000000 }
			scale={ 1.000000 1.000000 1.000000 }
		}
		{
			id=906
			position={ 5646.000000 0.000000 1033.000000 }
			rotation={ 0.000000 0.707107 0.000000 0.707107 }
			scale={ 1.000000 1.000000 1.000000 }
		}
		{
			id=907
			position={ 5765.249023 0.000000 1324.976074 }
			rotation={ -0.000000 0.899698 -0.000000 0.436513 }
			scale={ 1.000000 1.000000 1.000000 }
		}
		{
			id=908
			position={ 5974.000000 0.000000 1226.000000 }
			rotation={ 0.000000 0.707107 0.000000 0.707107 }
			scale={ 1.000000 1.000000 1.000000 }
		}
		{
			id=909
			position={ 5934.000000 0.000000 1177.000000 }
			rotation={ 0.000000 0.707107 0.000000 0.707107 }
			scale={ 1.000000 1.000000 1.000000 }
		}
		{
			id=910
			position={ 6066.000000 0.000000 1065.000000 }
			rotation={ -0.000000 -1.000000 -0.000000 -0.000000 }
			scale={ 1.000000 1.000000 1.000000 }
		}
		{
			id=911
			position={ 6121.000000 0.000000 959.000000 }
			rotation={ 0.000000 0.707107 0.000000 0.707107 }
			scale={ 1.000000 1.000000 1.000000 }
		}
		{
			id=912
			position={ 5923.000000 0.000000 941.000000 }
			rotation={ 0.000000 0.707107 0.000000 0.707107 }
			scale={ 1.000000 1.000000 1.000000 }
		}
		{
			id=913
			position={ 5711.000000 0.000000 1014.000000 }
			rotation={ 0.000000 0.707107 0.000000 0.707107 }
			scale={ 1.000000 1.000000 1.000000 }
		}
		{
			id=916
			position={ 6265.000000 0.000000 1180.000000 }
			rotation={ 0.000000 0.707107 0.000000 0.707107 }
			scale={ 1.000000 1.000000 1.000000 }
		}
		{
			id=917
			position={ 6141.000000 0.000000 1380.000000 }
			rotation={ 0.000000 0.707107 0.000000 0.707107 }
			scale={ 1.000000 1.000000 1.000000 }
		}
		{
			id=918
			position={ 5940.211914 0.000000 1661.239990 }
			rotation={ -0.000000 0.002310 -0.000000 0.999997 }
			scale={ 1.000000 1.000000 1.000000 }
		}
		{
			id=919
			position={ 4601.000000 0.000000 1660.000000 }
			rotation={ -0.000000 -0.707107 -0.000000 0.707107 }
			scale={ 1.000000 1.000000 1.000000 }
		}
		{
			id=920
			position={ 4653.339844 0.000488 1640.539673 }
			rotation={ -0.000000 -0.376695 -0.000000 -0.926337 }
			scale={ 1.000000 1.000000 1.000000 }
		}
		{
			id=921
			position={ 4698.609863 0.000000 1578.494995 }
			rotation={ -0.000000 0.361210 -0.000000 0.932485 }
			scale={ 1.000000 1.000000 1.000000 }
		}
		{
			id=922
			position={ 4849.000000 0.000000 1490.000000 }
			rotation={ -0.000000 -0.707107 -0.000000 0.707107 }
			scale={ 1.000000 1.000000 1.000000 }
		}
		{
			id=923
			position={ 4762.847168 -0.079956 1423.749390 }
			rotation={ -0.000000 0.955449 -0.000000 0.295157 }
			scale={ 1.000000 1.000000 1.000000 }
		}
		{
			id=924
			position={ 4843.232422 0.000000 1437.578613 }
			rotation={ -0.000000 -0.756753 -0.000000 -0.653702 }
			scale={ 1.000000 1.000000 1.000000 }
		}
		{
			id=925
			position={ 4827.466309 0.000000 1294.439575 }
			rotation={ -0.000000 0.999934 -0.000000 -0.011477 }
			scale={ 1.000000 1.000000 1.000000 }
		}
		{
			id=926
			position={ 4917.498535 0.000000 1296.341553 }
			rotation={ -0.000000 0.900973 -0.000000 0.433875 }
			scale={ 1.000000 1.000000 1.000000 }
		}
		{
			id=927
			position={ 4160.000000 0.000000 1203.000000 }
			rotation={ 0.000000 0.707107 0.000000 0.707107 }
			scale={ 1.000000 1.000000 1.000000 }
		}
		{
			id=928
			position={ 4084.831299 0.000000 1998.262939 }
			rotation={ -0.000000 0.986417 -0.000000 -0.164263 }
			scale={ 1.000000 1.000000 1.000000 }
		}
		{
			id=929
			position={ 4113.196777 0.000000 1867.978394 }
			rotation={ -0.000000 -0.666537 -0.000000 0.745472 }
			scale={ 1.000000 1.000000 1.000000 }
		}
		{
			id=930
			position={ 4248.158691 0.073853 1681.464600 }
			rotation={ -0.000000 0.261980 -0.000000 0.965074 }
			scale={ 1.000000 1.000000 1.000000 }
		}
		{
			id=938
			position={ 4350.000000 0.000000 1731.000000 }
			rotation={ 0.000000 0.707107 0.000000 0.707107 }
			scale={ 1.000000 1.000000 1.000000 }
		}
		{
			id=939
			position={ 4546.000000 0.000000 1773.000000 }
			rotation={ 0.000000 0.707107 0.000000 0.707107 }
			scale={ 1.000000 1.000000 1.000000 }
		}
		{
			id=940
			position={ 3658.000000 0.000000 1941.000000 }
			rotation={ 0.000000 0.707107 0.000000 0.707107 }
			scale={ 1.000000 1.000000 1.000000 }
		}
	}
}
