﻿object={
	name="african_lighthouse_01"
	clamp_to_water_level=no
	render_under_water=no
	generated_content=no
	layer="static"
	entity="african_lighthouse_01_entity"
	count=1
	transform="4410.690918 0.000000 3445.142334 0.000000 0.000000 0.000000 1.000000 1.000000 1.000000 1.000000
"}
object={
	name="arabic_lighthouse_01"
	clamp_to_water_level=no
	render_under_water=no
	generated_content=no
	layer="static"
	entity="arabic_lighthouse_01_entity"
	count=0
}
object={
	name="asian_lighthouse_01"
	clamp_to_water_level=no
	render_under_water=no
	generated_content=no
	layer="static"
	entity="asian_lighthouse_01_entity"
	count=0
}
object={
	name="bird_duck_01"
	clamp_to_water_level=yes
	render_under_water=no
	generated_content=no
	layer="environmental_effects"
	entity="duck_01_frame_entity"
	count=3
	transform="1984.180054 0.000000 2481.718994 0.000000 0.000000 0.000000 1.000000 1.000000 1.000000 1.000000
6539.660645 0.000000 2432.584229 0.000000 0.000000 0.000000 1.000000 1.000000 1.000000 1.000000
5340.930664 0.000000 1393.254517 0.000000 -0.635079 0.000000 0.772447 1.000000 1.000000 1.000000
"}
object={
	name="bird_eagle_01"
	clamp_to_water_level=yes
	render_under_water=no
	generated_content=no
	layer="environmental_effects"
	entity="eagle_01_frame_entity"
	count=2
	transform="1091.035889 0.000000 3012.984619 0.000000 0.000000 0.000000 1.000000 2.193252 2.193252 2.193252
1229.739502 0.000000 2908.562744 0.000000 0.000000 0.000000 1.000000 1.328027 1.328027 1.328027
"}
object={
	name="bird_vulture_01"
	clamp_to_water_level=yes
	render_under_water=no
	generated_content=no
	layer="environmental_effects"
	entity="vulture_01_frame_entity"
	count=13
	transform="5604.462891 0.000000 2314.249512 0.000000 0.000000 0.000000 1.000000 1.000000 1.000000 1.000000
1518.299805 0.000000 2301.819580 0.000000 0.000000 0.000000 1.000000 1.000000 1.000000 1.000000
1515.658691 0.000000 2259.196533 0.000000 0.000000 0.000000 1.000000 1.000000 1.000000 1.000000
1477.058716 0.000000 2283.375488 0.000000 0.000000 0.000000 1.000000 1.000000 1.000000 1.000000
1441.688232 0.000000 2384.015625 0.000000 0.000000 0.000000 1.000000 1.000000 1.000000 1.000000
1425.277100 0.000000 2366.267822 0.000000 0.000000 0.000000 1.000000 1.000000 1.000000 1.000000
1412.499390 0.000000 2402.006836 0.000000 0.000000 0.000000 1.000000 1.000000 1.000000 1.000000
1581.325195 0.000000 2349.019775 0.000000 0.000000 0.000000 1.000000 1.000000 1.000000 1.000000
1598.141235 0.000000 2394.473145 0.000000 0.000000 0.000000 1.000000 1.000000 1.000000 1.000000
1649.144287 0.000000 2216.045898 0.000000 0.000000 0.000000 1.000000 1.000000 1.000000 1.000000
1558.562012 0.000000 2353.979980 0.000000 0.000000 0.000000 1.000000 1.000000 1.000000 1.000000
1566.684937 0.000000 2372.334473 0.000000 0.000000 0.000000 1.000000 1.000000 1.000000 1.000000
5695.201660 0.000000 1198.098511 0.000000 0.000000 0.000000 1.000000 1.000000 1.000000 1.000000
"}
object={
	name="canyon_01"
	clamp_to_water_level=no
	render_under_water=no
	generated_content=no
	layer="massive_environment"
	pdxmesh="cliff_canyon_01_mesh"
	count=0
}
object={
	name="canyon_02"
	clamp_to_water_level=no
	render_under_water=no
	generated_content=no
	layer="massive_environment"
	pdxmesh="cliff_canyon_02_mesh"
	count=0
}
object={
	name="canyon_03"
	clamp_to_water_level=no
	render_under_water=no
	generated_content=no
	layer="massive_environment"
	pdxmesh="cliff_canyon_03_mesh"
	count=0
}
object={
	name="canyon_04"
	clamp_to_water_level=no
	render_under_water=no
	generated_content=no
	layer="massive_environment"
	pdxmesh="cliff_canyon_04_mesh"
	count=0
}
object={
	name="canyon_05"
	clamp_to_water_level=no
	render_under_water=no
	generated_content=no
	layer="massive_environment"
	pdxmesh="cliff_canyon_05_mesh"
	count=0
}
object={
	name="canyon_06"
	clamp_to_water_level=no
	render_under_water=no
	generated_content=no
	layer="massive_environment"
	pdxmesh="cliff_canyon_06_mesh"
	count=0
}
object={
	name="canyon_07"
	clamp_to_water_level=no
	render_under_water=no
	generated_content=no
	layer="massive_environment"
	pdxmesh="cliff_canyon_07_mesh"
	count=0
}
object={
	name="canyon_08"
	clamp_to_water_level=no
	render_under_water=no
	generated_content=no
	layer="massive_environment"
	pdxmesh="cliff_canyon_08_mesh"
	count=0
}
object={
	name="canyon_09"
	clamp_to_water_level=no
	render_under_water=no
	generated_content=no
	layer="massive_environment"
	pdxmesh="cliff_canyon_09_mesh"
	count=0
}
object={
	name="canyon_10"
	clamp_to_water_level=no
	render_under_water=no
	generated_content=no
	layer="massive_environment"
	pdxmesh="cliff_canyon_10_mesh"
	count=0
}
object={
	name="canyon_11"
	clamp_to_water_level=no
	render_under_water=no
	generated_content=no
	layer="massive_environment"
	pdxmesh="cliff_canyon_11_mesh"
	count=0
}
object={
	name="canyon_12"
	clamp_to_water_level=no
	render_under_water=no
	generated_content=no
	layer="massive_environment"
	pdxmesh="cliff_canyon_12_mesh"
	count=0
}
object={
	name="canyon_13"
	clamp_to_water_level=no
	render_under_water=no
	generated_content=no
	layer="massive_environment"
	pdxmesh="cliff_canyon_13_mesh"
	count=0
}
object={
	name="canyon_14"
	clamp_to_water_level=no
	render_under_water=yes
	generated_content=no
	layer="massive_environment"
	pdxmesh="cliff_canyon_14_mesh"
	count=0
}
object={
	name="canyon_15"
	clamp_to_water_level=no
	render_under_water=no
	generated_content=no
	layer="massive_environment"
	pdxmesh="cliff_canyon_15_mesh"
	count=0
}
object={
	name="canyon_16"
	clamp_to_water_level=no
	render_under_water=yes
	generated_content=no
	layer="massive_environment"
	pdxmesh="cliff_canyon_16_mesh"
	count=0
}
object={
	name="european_lighthouse_01"
	clamp_to_water_level=no
	render_under_water=yes
	generated_content=no
	layer="static"
	entity="european_lighthouse_01_entity"
	count=6
	transform="3983.865234 0.000000 2899.802734 0.000000 0.000000 0.000000 1.000000 1.000000 1.000000 1.000000
4010.626221 0.000000 2763.270020 0.000000 0.000000 0.000000 1.000000 1.000000 1.000000 1.000000
4134.586914 0.000000 2825.192627 -0.000000 0.145418 -0.000000 0.989370 1.000000 1.000000 1.000000
4090.277344 -0.000977 2782.131592 -0.000000 -0.000000 -0.000000 1.000000 1.000000 1.000000 1.000000
0.000000 0.000000 0.000000 0.000000 0.000000 0.000000 1.000000 1.000000 1.000000 1.000000
4118.968262 0.000000 3229.737305 0.000000 0.000000 0.000000 1.000000 1.000000 1.000000 1.000000
"}
object={
	name="latin_lighthouse_01"
	clamp_to_water_level=no
	render_under_water=no
	generated_content=no
	layer="static"
	entity="latin_lighthouse_01_entity"
	count=1
	transform="2148.774902 0.000000 2100.256836 0.000000 0.663825 0.000000 0.747888 1.000000 1.000000 1.000000
"}
object={
	name="rockformation_granite_03"
	clamp_to_water_level=no
	render_under_water=yes
	generated_content=no
	layer="massive_environment"
	pdxmesh="rockformation_06_mesh"
	count=7
	transform="4331.782227 0.000000 3312.939209 0.000000 0.000000 0.000000 1.000000 1.000000 1.000000 1.000000
6061.789551 0.000000 2323.922363 0.000000 0.000000 0.000000 1.000000 1.000000 1.000000 1.000000
6045.162109 0.000000 2337.063965 0.000000 0.000000 0.000000 1.000000 1.000000 1.000000 1.000000
6011.179199 0.000000 2345.986816 0.000000 0.000000 0.000000 1.000000 1.000000 1.000000 1.000000
6017.520996 0.000000 2352.877441 0.000000 -0.321864 0.000000 0.946786 1.000000 1.000000 1.000000
6070.436523 0.000000 2336.239990 0.000000 0.776197 0.000000 0.630491 1.000000 1.000000 1.000000
2163.655029 0.000000 2084.257324 0.000000 0.000000 0.000000 1.000000 1.133151 1.133151 1.133151
"}
object={
	name="rockformation_granite_04"
	clamp_to_water_level=no
	render_under_water=yes
	generated_content=no
	layer="massive_environment"
	pdxmesh="rockformation_07_mesh"
	count=2
	transform="6064.552246 0.000000 2325.324707 0.000000 0.000000 0.000000 1.000000 1.000000 1.000000 1.000000
6076.936523 0.000000 2329.945557 0.000000 0.720826 0.000000 0.693117 1.000000 1.000000 1.000000
"}
object={
	name="rockformation_granite_05"
	clamp_to_water_level=no
	render_under_water=yes
	generated_content=no
	layer="massive_environment"
	pdxmesh="rockformation_08_mesh"
	count=0
}
object={
	name="rockformation_granite_06"
	clamp_to_water_level=no
	render_under_water=yes
	generated_content=no
	layer="massive_environment"
	pdxmesh="rockformation_09_mesh"
	count=2
	transform="6029.820801 0.000000 2340.980957 0.000000 -0.369337 0.000000 0.929295 1.000000 1.000000 1.000000
6025.022461 0.000000 2340.752441 0.000000 -0.559170 0.000000 0.829053 1.000000 1.000000 1.000000
"}
object={
	name="rockformation_sandstone_01"
	clamp_to_water_level=no
	render_under_water=yes
	generated_content=no
	layer="massive_environment"
	pdxmesh="rockformation_sandstone_01_mesh"
	count=2
	transform="1633.533936 0.000000 2455.903564 0.000000 0.882949 0.000000 0.469469 1.000000 1.000000 1.000000
1698.689331 0.000000 2504.389893 0.000000 0.000000 0.000000 1.000000 1.000000 1.000000 1.000000
"}
object={
	name="rockformation_sandstone_03"
	clamp_to_water_level=no
	render_under_water=yes
	generated_content=no
	layer="massive_environment"
	pdxmesh="rockformation_sandstone_03_mesh"
	count=1
	transform="1698.476929 0.000000 2498.208740 0.000000 0.970066 0.000000 0.242843 1.000000 1.000000 1.000000
"}
object={
	name="rockformation_sandstone_06"
	clamp_to_water_level=no
	render_under_water=yes
	generated_content=no
	layer="massive_environment"
	pdxmesh="rockformation_sandstone_06_mesh"
	count=1
	transform="1702.468994 0.000000 2548.029297 0.000000 -0.144889 0.000000 0.989448 1.000000 1.000000 1.000000
"}
object={
	name="rubber_lodge_01"
	clamp_to_water_level=yes
	render_under_water=no
	generated_content=no
	layer="farms_dynamic"
	pdxmesh="rubber_lodge_01_mesh"
	count=1
	transform="5542.467285 0.000000 2891.180420 0.000000 0.979759 0.000000 -0.200181 1.000000 1.000000 1.000000
"}
object={
	name="seagull_01"
	clamp_to_water_level=yes
	render_under_water=no
	generated_content=no
	layer="environmental_effects"
	entity="seagull_port_entity"
	count=16
	transform="5547.559570 0.000000 1192.951050 0.000000 0.000000 0.000000 1.000000 1.000000 1.000000 1.000000
5550.037598 0.000000 1314.570312 0.000000 0.000000 0.000000 1.000000 1.000000 1.000000 1.000000
5447.933105 0.000000 1258.081055 0.000000 0.000000 0.000000 1.000000 1.000000 1.000000 1.000000
3928.330566 0.000000 3157.078125 0.000000 0.000000 0.000000 1.000000 1.000000 1.000000 1.000000
3938.392334 0.000000 3143.795654 0.000000 0.000000 0.000000 1.000000 1.000000 1.000000 1.000000
3941.323486 0.000000 3083.351562 0.000000 0.000000 0.000000 1.000000 1.000000 1.000000 1.000000
3984.379883 0.000000 3117.995605 0.000000 0.000000 0.000000 1.000000 1.000000 1.000000 1.000000
3998.509277 0.000000 3123.952148 0.000000 0.000000 0.000000 1.000000 1.000000 1.000000 1.000000
4052.846680 0.000000 3138.967773 0.000000 0.000000 0.000000 1.000000 1.000000 1.000000 1.000000
4080.159424 0.000000 3242.097656 0.000000 0.000000 0.000000 1.000000 1.000000 1.000000 1.000000
4292.172363 0.000000 3205.281250 0.000000 0.000000 0.000000 1.000000 1.000000 1.000000 1.000000
4247.582031 0.000000 3269.498291 0.000000 0.000000 0.000000 1.000000 1.000000 1.000000 1.000000
1096.489624 0.000000 2548.022949 0.000000 0.000000 0.000000 1.000000 1.000000 1.000000 1.000000
1164.203735 0.000000 2607.735107 0.000000 0.812107 0.000000 0.583509 1.000000 1.000000 1.000000
1130.228394 0.000000 2507.662354 0.000000 0.951473 0.000000 -0.307733 1.000000 1.000000 1.000000
997.614868 0.000000 2563.891357 0.000000 -0.492641 0.000000 0.870233 1.000000 1.000000 1.000000
"}
object={
	name="smoke_chimney_01"
	clamp_to_water_level=yes
	render_under_water=no
	generated_content=no
	layer="environmental_effects"
	entity="smoke_chimney_01"
	count=2
	transform="550.430298 0.155640 1961.600220 0.000000 0.389827 0.000000 0.920888 4.111941 4.111941 4.111941
7747.931641 0.000000 2942.265137 0.000000 0.000000 0.000000 1.000000 1.000000 1.000000 1.000000
"}
object={
	name="whale_01"
	clamp_to_water_level=yes
	render_under_water=yes
	generated_content=no
	layer="environmental_effects"
	entity="whale_entity"
	count=28
	transform="3979.297363 0.018311 3135.673828 0.000000 0.000000 0.000000 1.000000 0.296727 0.296727 0.296727
4189.348145 0.018311 3070.423340 0.000000 0.000000 0.000000 1.000000 0.296727 0.296727 0.296727
4164.397949 0.018311 2834.248291 0.000000 -0.229495 0.000000 -0.973310 0.296727 0.296727 0.296727
4055.109375 0.018311 3036.093506 0.000000 0.000000 0.000000 1.000000 0.296727 0.296727 0.296727
7273.336914 0.000000 2266.198975 0.000000 0.562505 0.000000 0.826794 1.000000 1.000000 1.000000
7136.344727 0.000000 2457.741943 0.000000 0.144331 0.000000 0.989530 1.000000 1.000000 1.000000
2038.311035 0.000000 1454.573608 0.000000 0.000000 0.000000 1.000000 1.000000 1.000000 1.000000
1575.232422 0.000000 1883.017090 0.000000 0.000000 0.000000 1.000000 1.000000 1.000000 1.000000
1225.037842 0.000000 2307.418945 0.000000 0.515020 0.000000 0.857178 1.000000 1.000000 1.000000
5541.895020 0.000000 3504.250977 0.000000 0.000000 0.000000 1.000000 1.000000 1.000000 1.000000
5134.594238 0.000000 3450.401855 0.000000 0.000000 0.000000 1.000000 1.000000 1.000000 1.000000
3253.564697 0.000000 3195.869141 0.000000 0.000000 0.000000 1.000000 1.000000 1.000000 1.000000
3472.716064 0.000000 3304.196045 0.000000 0.000000 0.000000 1.000000 1.000000 1.000000 1.000000
3730.151855 0.000000 3373.694336 0.000000 0.000000 0.000000 1.000000 1.000000 1.000000 1.000000
3810.135254 0.000000 3176.639893 0.000000 0.573956 0.000000 0.818886 1.000000 1.000000 1.000000
3620.354980 0.000000 3135.622803 0.000000 0.076555 0.000000 0.997065 1.000000 1.000000 1.000000
6108.895020 0.000000 864.266602 0.000000 0.000000 0.000000 1.000000 1.000000 1.000000 1.000000
5830.280762 0.000000 819.299255 0.000000 0.547017 0.000000 0.837122 1.000000 1.000000 1.000000
6256.287109 0.000000 1046.418945 0.000000 0.000000 0.000000 1.000000 1.000000 1.000000 1.000000
2693.225098 0.000000 3201.464111 0.000000 0.000000 0.000000 1.000000 1.000000 1.000000 1.000000
2779.114990 0.000000 3295.636230 0.000000 0.000000 0.000000 1.000000 1.000000 1.000000 1.000000
2950.996094 0.000000 3281.400635 0.000000 -0.244277 0.000000 -0.969706 1.000000 1.000000 1.000000
2710.190674 0.000000 3063.294922 0.000000 -0.882770 0.000000 0.469805 1.000000 1.000000 1.000000
2475.170898 0.000000 3284.782227 0.000000 0.562757 0.000000 0.826623 0.434091 0.434091 0.434091
2520.971191 0.000000 3329.846680 0.000000 -0.459026 0.000000 0.888423 0.335669 0.335669 0.335669
824.311829 0.000000 2793.855957 0.000000 -0.131515 0.000000 0.991314 0.740869 0.740869 0.740869
826.621826 0.000000 2948.194580 0.000000 0.106654 0.000000 0.994296 1.000000 1.000000 1.000000
946.020630 0.000000 2957.093750 0.000000 -0.321366 0.000000 0.946955 0.573804 0.573804 0.573804
"}
object={
	name="whale_white_01"
	clamp_to_water_level=yes
	render_under_water=yes
	generated_content=no
	layer="environmental_effects"
	entity="whale_white_entity"
	count=3
	transform="3853.741455 0.000000 3195.429199 0.000000 0.000000 0.000000 1.000000 0.224538 0.224538 0.224538
2460.717041 0.000000 3204.142334 0.000000 0.211584 0.000000 0.977360 0.180339 0.180339 0.180339
3940.372803 0.000000 3127.018311 0.000000 0.000000 0.000000 1.000000 1.000000 1.000000 1.000000
"}
